2018-04-21T13:01:24.0238
2018-04-21T13:02:16.5241
2018-04-21T13:03:14.0163
2018-04-21T13:03:47.2474
2018-04-21T13:06:25.1725
2018-04-21T13:13:00.1676
2018-04-21T13:15:53.2933
2018-04-21T13:19:01.3638
2018-04-21T13:19:36.5199
2018-04-21T13:19:55.0184
2018-04-21T13:20:57.9956
2018-04-21T13:21:52.1869
2018-04-21T13:23:42.1170
2018-04-21T13:25:40.1497
2018-04-21T13:25:45.3850
2018-04-21T13:27:31.9455
2018-04-21T13:29:22.7898
2018-04-21T13:29:35.9842
2018-04-21T13:29:46.2147
2018-04-21T13:30:49.9969
2018-04-21T13:31:22.2078
2018-04-21T13:32:40.0330
2018-04-21T13:32:40.1953
2018-04-21T13:34:48.2089
2018-04-21T13:36:18.2115
2018-04-21T13:36:18.3613
2018-04-21T13:37:36.9198
2018-04-21T13:38:59.1286
2018-04-21T13:38:59.2378
2018-04-21T13:40:49.3926
2018-04-21T13:41:30.6265
2018-04-21T13:41:43.8896
2018-04-21T13:43:28.9431
2018-04-21T13:44:35.8640
2018-04-21T13:45:52.2572
2018-04-21T13:48:13.5402
2018-04-21T13:48:43.2675
2018-04-21T13:52:17.3026
2018-04-21T13:52:34.0508
2018-04-21T13:53:14.8916
2018-04-21T13:54:09.0392
2018-04-21T13:54:22.0465
2018-04-21T13:56:38.3343
2018-04-21T13:57:22.3045
2018-04-21T13:57:30.8034
2018-04-21T13:57:55.8320
2018-04-21T13:59:07.6638
2018-04-21T13:59:47.9336
2018-04-21T14:01:39.5590
2018-04-21T14:03:51.5506
2018-04-21T14:07:00.5228
2018-04-21T14:07:05.6302
2018-04-21T14:07:34.1907
2018-04-21T14:08:02.6826
2018-04-21T14:09:34.5541
2018-04-21T14:10:37.3722
2018-04-21T14:11:31.1079
2018-04-21T14:11:35.9314
2018-04-21T14:13:17.0350
2018-04-21T14:15:19.4888
2018-04-21T14:15:38.4022
2018-04-21T14:16:37.5294
2018-04-21T14:16:40.9489
2018-04-21T14:16:47.9626
2018-04-21T14:20:38.2592
2018-04-21T14:21:01.8994
2018-04-21T14:21:05.1099
2018-04-21T14:21:17.3154
2018-04-21T14:21:44.3158
2018-04-21T14:22:10.2555
2018-04-21T14:23:04.5591
2018-04-21T14:23:43.6028
2018-04-21T14:24:47.3787
2018-04-21T14:25:58.6302
2018-04-21T14:27:00.9896
2018-04-21T14:27:19.2291
2018-04-21T14:27:32.1459
2018-04-21T14:27:43.1938
2018-04-21T14:28:14.6902
2018-04-21T14:28:31.1139
2018-04-21T14:30:00.9949
2018-04-21T14:30:48.2254
2018-04-21T14:31:06.0718
2018-04-21T14:31:11.6192
2018-04-21T14:31:25.5906
2018-04-21T14:31:50.8314
2018-04-21T14:32:26.4430
2018-04-21T14:32:40.0743
2018-04-21T14:33:13.2306
2018-04-21T14:36:03.0709
2018-04-21T14:36:42.4078
2018-04-21T14:36:42.5638
2018-04-21T14:36:50.4294
2018-04-21T14:38:31.3738
2018-04-21T14:41:14.0038
2018-04-21T14:41:26.7303
2018-04-21T14:42:13.0311
2018-04-21T14:42:17.3648
2018-04-21T14:42:37.7665
2018-04-21T14:42:51.1513
2018-04-21T14:44:34.7883
2018-04-21T14:44:43.6335
2018-04-21T14:46:13.8234
2018-04-21T14:46:19.5298
2018-04-21T14:46:51.3382
2018-04-21T14:49:33.1196
2018-04-21T14:49:42.2643
2018-04-21T14:50:01.6707
2018-04-21T14:50:28.1158
2018-04-21T14:51:37.0990
2018-04-21T14:51:39.7448
2018-04-21T14:51:53.6818
2018-04-21T14:52:18.3642
2018-04-21T14:52:34.4665
2018-04-21T14:52:39.7174
2018-04-21T14:52:42.3351
2018-04-21T14:53:14.7925
2018-04-21T14:55:05.7834
2018-04-21T14:55:20.1042
2018-04-21T14:58:10.4718
2018-04-21T14:58:43.5344
2018-04-21T15:02:48.7544
2018-04-21T15:04:16.6354
2018-04-21T15:07:17.8045
2018-04-21T15:07:19.1492
2018-04-21T15:07:19.6609
2018-04-21T15:10:27.4506
2018-04-21T15:10:43.3657
2018-04-21T15:13:07.7874
2018-04-21T15:15:59.6526
2018-04-21T15:16:32.3845
2018-04-21T15:18:20.6890
2018-04-21T15:18:40.3232
2018-04-21T15:19:13.2642
2018-04-21T15:19:19.4043
2018-04-21T15:19:35.3038
2018-04-21T15:21:02.9228
2018-04-21T15:23:13.2795
2018-04-21T15:24:17.7668
2018-04-21T15:24:34.8051
2018-04-21T15:26:12.5454
2018-04-21T15:27:23.5659
2018-04-21T15:27:47.5806
2018-04-21T15:28:36.3555
2018-04-21T15:28:42.2929
2018-04-21T15:28:56.9350
2018-04-21T15:31:09.4477
2018-04-21T15:32:17.4543
2018-04-21T15:32:24.4712
2018-04-21T15:32:28.0218
2018-04-21T15:33:42.5024
2018-04-21T15:34:12.1798
2018-04-21T15:34:38.8340
2018-04-21T15:37:17.7855
2018-04-21T15:37:24.1285
2018-04-21T15:38:53.2981
2018-04-21T15:39:06.1743
2018-04-21T15:40:54.9282
2018-04-21T15:41:59.4217
2018-04-21T15:43:34.0294
2018-04-21T15:43:35.3274
2018-04-21T15:44:44.9221
2018-04-21T15:45:11.2299
2018-04-21T15:45:20.8551
2018-04-21T15:45:53.1097
2018-04-21T15:46:17.2866
2018-04-21T15:46:31.9506
2018-04-21T15:47:33.0027
2018-04-21T15:47:33.2242
2018-04-21T15:47:55.4106
2018-04-21T15:48:02.1716
2018-04-21T15:50:22.7869
2018-04-21T15:50:33.6008
2018-04-21T15:50:48.3085
2018-04-21T15:50:58.9009
2018-04-21T15:51:26.6595
2018-04-21T15:51:55.6786
2018-04-21T15:52:59.3578
2018-04-21T15:53:13.4946
2018-04-21T15:54:22.3498
2018-04-21T15:55:16.3851
2018-04-21T15:55:59.0761
2018-04-21T15:56:20.3950
2018-04-21T15:57:11.7034
2018-04-21T15:57:40.6009
2018-04-21T15:59:09.4585
2018-04-21T16:02:11.7730
2018-04-21T16:02:44.7390
2018-04-21T16:03:02.3763
2018-04-21T16:03:24.3786
2018-04-21T16:03:31.5171
2018-04-21T16:03:44.4183
2018-04-21T16:04:29.9454
2018-04-21T16:05:31.1192
2018-04-21T16:07:18.4846
2018-04-21T16:08:32.0511
2018-04-21T16:08:54.8739
2018-04-21T16:09:14.8294
2018-04-21T16:09:21.2254
2018-04-21T16:09:45.3368
2018-04-21T16:10:37.4626
2018-04-21T16:10:54.9846
2018-04-21T16:11:27.3358
2018-04-21T16:12:48.2062
2018-04-21T16:16:00.8288
2018-04-21T16:16:07.2154
2018-04-21T16:16:24.9994
2018-04-21T16:16:42.1501
2018-04-21T16:16:51.1201
2018-04-21T16:19:57.6243
2018-04-21T16:20:24.5593
2018-04-21T16:20:53.2758
2018-04-21T16:20:55.1259
2018-04-21T16:21:01.7996
2018-04-21T16:21:02.5078
2018-04-21T16:22:24.6980
2018-04-21T16:22:59.5921
2018-04-21T16:23:02.1130
2018-04-21T16:23:17.0797
2018-04-21T16:23:36.2427
2018-04-21T16:23:56.8347
2018-04-21T16:25:16.5008
2018-04-21T16:25:51.1172
2018-04-21T16:26:16.4578
2018-04-21T16:27:20.5832
2018-04-21T16:27:26.3302
2018-04-21T16:27:39.5434
2018-04-21T16:28:17.5014
2018-04-21T16:28:24.2811
2018-04-21T16:29:15.1215
2018-04-21T16:30:08.9446
2018-04-21T16:30:09.8026
2018-04-21T16:30:54.8929
2018-04-21T16:30:56.3187
2018-04-21T16:31:20.6048
2018-04-21T16:31:39.5744
2018-04-21T16:32:00.7779
2018-04-21T16:32:44.6732
2018-04-21T16:32:44.7543
2018-04-21T16:33:32.0566
2018-04-21T16:33:59.2381
2018-04-21T16:35:04.3462
2018-04-21T16:35:11.8810
2018-04-21T16:35:37.5867
2018-04-21T16:36:18.9735
2018-04-21T16:36:31.3506
2018-04-21T16:36:42.9757
2018-04-21T16:37:41.4913
2018-04-21T16:37:49.3662
2018-04-21T16:37:58.8666
2018-04-21T16:38:04.5543
2018-04-21T16:38:21.1465
2018-04-21T16:39:08.2304
2018-04-21T16:39:33.3963
2018-04-21T16:39:39.6738
2018-04-21T16:39:51.1210
2018-04-21T16:40:16.6957
2018-04-21T16:41:18.4998
2018-04-21T16:41:34.6551
2018-04-21T16:41:37.6971
2018-04-21T16:41:52.3549
2018-04-21T16:43:36.9747
2018-04-21T16:44:50.0638
2018-04-21T16:45:06.7465
2018-04-21T16:45:22.7302
2018-04-21T16:45:29.6254
2018-04-21T16:47:09.1129
2018-04-21T16:47:30.1542
2018-04-21T16:47:34.9465
2018-04-21T16:48:00.5898
2018-04-21T16:48:16.5267
2018-04-21T16:48:31.1907
2018-04-21T16:48:48.8281
2018-04-21T16:48:56.7373
2018-04-21T16:49:04.7432
2018-04-21T16:49:58.4072
2018-04-21T16:51:15.6459
2018-04-21T16:51:51.9658
2018-04-21T16:52:49.4206
2018-04-21T16:52:53.5515
2018-04-21T16:53:25.3256
2018-04-21T16:54:00.7719
2018-04-21T16:54:22.7648
2018-04-21T16:54:54.6730
2018-04-21T16:56:18.0769
2018-04-21T16:56:24.3574
2018-04-21T16:56:45.9385
2018-04-21T16:57:21.4410
2018-04-21T16:58:00.6968
2018-04-21T16:59:11.9857
2018-04-21T16:59:25.5889
2018-04-21T16:59:41.0391
2018-04-21T16:59:48.4710
2018-04-21T17:02:05.0463
2018-04-21T17:02:18.0162
2018-04-21T17:02:23.8350
2018-04-21T17:02:26.7553
2018-04-21T17:02:40.9762
2018-04-21T17:02:52.7168
2018-04-21T17:03:40.0254
2018-04-21T17:04:25.0938
2018-04-21T17:04:40.8747
2018-04-21T17:04:49.4485
2018-04-21T17:05:11.2947
2018-04-21T17:05:16.5426
2018-04-21T17:06:17.6634
2018-04-21T17:06:24.9704
2018-04-21T17:06:30.3711
2018-04-21T17:06:33.8281
2018-04-21T17:06:58.9784
2018-04-21T17:07:50.5676
2018-04-21T17:07:56.1649
2018-04-21T17:08:22.4509
2018-04-21T17:08:31.5550
2018-04-21T17:08:51.5792
2018-04-21T17:09:21.2192
2018-04-21T17:10:44.3703
2018-04-21T17:10:45.6838
2018-04-21T17:11:05.6830
2018-04-21T17:12:39.3267
2018-04-21T17:12:52.4307
2018-04-21T17:13:47.3053
2018-04-21T17:14:04.4871
2018-04-21T17:14:26.1212
2018-04-21T17:14:28.5548
2018-04-21T17:14:29.1351
2018-04-21T17:14:42.1518
2018-04-21T17:16:31.5982
2018-04-21T17:16:40.4216
2018-04-21T17:17:07.2380
2018-04-21T17:17:08.8448
2018-04-21T17:18:34.6042
2018-04-21T17:18:53.9545
2018-04-21T17:19:30.9327
2018-04-21T17:19:47.3221
2018-04-21T17:20:01.8956
2018-04-21T17:20:13.9419
2018-04-21T17:20:17.5518
2018-04-21T17:20:20.0540
2018-04-21T17:20:36.0783
2018-04-21T17:20:45.5600
2018-04-21T17:21:31.4708
2018-04-21T17:22:09.0699
2018-04-21T17:22:14.9886
2018-04-21T17:22:42.5070
2018-04-21T17:22:58.6654
2018-04-21T17:23:06.9896
2018-04-21T17:23:26.6799
2018-04-21T17:24:02.4445
2018-04-21T17:24:28.3592
2018-04-21T17:24:50.0619
2018-04-21T17:24:51.7717
2018-04-21T17:25:12.2732
2018-04-21T17:25:14.1639
2018-04-21T17:26:08.6828
2018-04-21T17:26:21.6058
2018-04-21T17:26:41.3554
2018-04-21T17:27:09.0080
2018-04-21T17:27:12.7582
2018-04-21T17:27:49.4744
2018-04-21T17:29:00.4981
2018-04-21T17:30:14.1394
2018-04-21T17:30:21.3498
2018-04-21T17:30:42.8122
2018-04-21T17:31:09.1794
2018-04-21T17:32:11.1613
2018-04-21T17:32:23.6912
2018-04-21T17:32:23.7661
2018-04-21T17:32:39.4753
2018-04-21T17:32:39.6718
2018-04-21T17:33:27.2175
2018-04-21T17:33:39.4261
2018-04-21T17:34:25.5241
2018-04-21T17:34:48.7494
2018-04-21T17:34:55.4854
2018-04-21T17:35:00.9766
2018-04-21T17:35:01.3230
2018-04-21T17:35:20.5640
2018-04-21T17:35:25.1816
2018-04-21T17:35:31.5027
2018-04-21T17:35:50.5098
2018-04-21T17:37:07.8733
2018-04-21T17:37:19.4454
2018-04-21T17:37:23.3672
2018-04-21T17:37:40.0842
2018-04-21T17:37:40.4024
2018-04-21T17:37:41.7159
2018-04-21T17:37:56.1334
2018-04-21T17:38:07.1720
2018-04-21T17:38:13.4713
2018-04-21T17:38:19.5490
2018-04-21T17:38:46.9302
2018-04-21T17:39:10.1398
2018-04-21T17:39:17.9242
2018-04-21T17:39:20.9600
2018-04-21T17:40:28.0244
2018-04-21T17:40:29.6468
2018-04-21T17:40:46.6945
2018-04-21T17:41:24.5494
2018-04-21T17:41:37.4569
2018-04-21T17:41:46.9885
2018-04-21T17:42:00.9567
2018-04-21T17:42:04.9971
2018-04-21T17:42:41.4294
2018-04-21T17:42:53.6847
2018-04-21T17:43:15.1690
2018-04-21T17:43:52.9366
2018-04-21T17:44:18.3927
2018-04-21T17:45:25.0609
2018-04-21T17:45:36.1338
2018-04-21T17:45:54.2142
2018-04-21T17:45:54.5199
2018-04-21T17:46:46.3618
2018-04-21T17:46:58.5985
2018-04-21T17:47:02.2333
2018-04-21T17:47:14.9598
2018-04-21T17:47:28.7845
2018-04-21T17:47:36.9526
2018-04-21T17:47:56.8208
2018-04-21T17:48:14.9792
2018-04-21T17:48:15.5190
2018-04-21T17:48:28.7727
2018-04-21T17:48:31.9208
2018-04-21T17:48:39.9205
2018-04-21T17:48:49.8046
2018-04-21T17:49:04.3095
2018-04-21T17:49:10.9894
2018-04-21T17:49:43.7588
2018-04-21T17:49:49.4684
2018-04-21T17:50:01.7082
2018-04-21T17:50:06.4412
2018-04-21T17:50:07.9669
2018-04-21T17:50:33.9846
2018-04-21T17:50:50.3895
2018-04-21T17:51:08.2141
2018-04-21T17:51:56.8580
2018-04-21T17:52:05.8093
2018-04-21T17:52:08.3490
2018-04-21T17:52:16.2238
2018-04-21T17:52:49.8793
2018-04-21T17:53:03.6728
2018-04-21T17:53:09.8005
2018-04-21T17:53:31.4470
2018-04-21T17:53:52.8253
2018-04-21T17:54:00.1573
2018-04-21T17:54:16.2440
2018-04-21T17:54:20.4279
2018-04-21T17:54:41.2009
2018-04-21T17:55:03.5058
2018-04-21T17:55:16.0450
2018-04-21T17:55:27.0025
2018-04-21T17:55:39.7945
2018-04-21T17:55:50.9797
2018-04-21T17:56:16.8601
2018-04-21T17:56:33.7861
2018-04-21T17:56:45.9166
2018-04-21T17:56:47.9322
2018-04-21T17:57:50.1574
2018-04-21T17:58:00.1945
2018-04-21T17:58:25.5975
2018-04-21T17:58:45.6373
2018-04-21T18:01:19.1230
2018-04-21T18:01:38.8539
2018-04-21T18:01:43.3623
2018-04-21T18:01:43.5433
2018-04-21T18:01:44.6322
2018-04-21T18:02:03.8826
2018-04-21T18:02:18.9210
2018-04-21T18:02:20.7898
2018-04-21T18:02:21.0925
2018-04-21T18:02:36.5833
2018-04-21T18:02:38.6706
2018-04-21T18:02:43.5721
2018-04-21T18:03:40.6462
2018-04-21T18:03:49.6849
2018-04-21T18:04:04.7888
2018-04-21T18:04:07.6249
2018-04-21T18:04:10.6669
2018-04-21T18:04:35.9514
2018-04-21T18:04:37.5207
2018-04-21T18:04:40.9059
2018-04-21T18:06:34.7266
2018-04-21T18:07:02.4447
2018-04-21T18:07:06.1669
2018-04-21T18:07:46.0904
2018-04-21T18:07:46.4086
2018-04-21T18:07:47.1013
2018-04-21T18:07:53.4099
2018-04-21T18:08:07.8805
2018-04-21T18:08:40.0446
2018-04-21T18:08:52.9801
2018-04-21T18:09:10.0371
2018-04-21T18:09:14.0026
2018-04-21T18:09:21.6498
2018-04-21T18:09:26.9787
2018-04-21T18:09:45.6457
2018-04-21T18:10:11.0394
2018-04-21T18:10:47.7337
2018-04-21T18:10:47.8928
2018-04-21T18:10:49.0784
2018-04-21T18:11:02.0857
2018-04-21T18:11:15.4798
2018-04-21T18:11:19.3174
2018-04-21T18:11:21.5514
2018-04-21T18:11:29.4762
2018-04-21T18:11:38.7956
2018-04-21T18:11:53.1601
2018-04-21T18:12:13.6554
2018-04-21T18:12:29.6173
2018-04-21T18:12:58.6988
2018-04-21T18:13:05.6626
2018-04-21T18:13:47.8482
2018-04-21T18:14:03.1424
2018-04-21T18:14:07.1610
2018-04-21T18:14:12.4774
2018-04-21T18:14:40.0988
2018-04-21T18:14:47.3622
2018-04-21T18:15:10.0820
2018-04-21T18:15:11.6046
2018-04-21T18:15:18.6183
2018-04-21T18:15:35.4133
2018-04-21T18:15:45.3411
2018-04-21T18:15:57.0567
2018-04-21T18:16:04.9410
2018-04-21T18:16:42.6555
2018-04-21T18:16:54.3150
2018-04-21T18:17:01.5565
2018-04-21T18:17:06.8730
2018-04-21T18:17:10.2176
2018-04-21T18:17:46.1538
2018-04-21T18:17:50.7246
2018-04-21T18:18:28.2582
2018-04-21T18:18:37.1346
2018-04-21T18:19:38.8700
2018-04-21T18:19:39.8809
2018-04-21T18:20:20.1320
2018-04-21T18:20:21.1366
2018-04-21T18:20:39.9159
2018-04-21T18:20:41.2138
2018-04-21T18:21:16.3794
2018-04-21T18:21:29.6612
2018-04-21T18:21:48.6433
2018-04-21T18:21:58.8862
2018-04-21T18:22:00.8706
2018-04-21T18:22:09.7033
2018-04-21T18:22:25.3126
2018-04-21T18:22:27.6526
2018-04-21T18:22:41.4368
2018-04-21T18:22:44.7627
2018-04-21T18:22:54.2319
2018-04-21T18:23:27.9279
2018-04-21T18:24:13.7046
2018-04-21T18:24:28.1689
2018-04-21T18:25:04.3141
2018-04-21T18:25:04.6011
2018-04-21T18:25:07.4372
2018-04-21T18:25:10.3544
2018-04-21T18:25:11.1843
2018-04-21T18:25:26.4099
2018-04-21T18:25:28.5627
2018-04-21T18:25:32.2974
2018-04-21T18:25:54.4930
2018-04-21T18:25:59.6192
2018-04-21T18:26:11.4471
2018-04-21T18:26:25.3561
2018-04-21T18:27:01.7072
2018-04-21T18:27:02.1814
2018-04-21T18:27:02.9926
2018-04-21T18:27:46.4137
2018-04-21T18:28:27.7443
2018-04-21T18:28:33.8283
2018-04-21T18:28:39.5098
2018-04-21T18:28:50.5952
2018-04-21T18:29:09.0999
2018-04-21T18:29:16.3165
2018-04-21T18:29:18.1354
2018-04-21T18:29:22.0760
2018-04-21T18:29:45.8098
2018-04-21T18:29:52.3150
2018-04-21T18:30:08.0773
2018-04-21T18:30:27.8830
2018-04-21T18:30:36.2010
2018-04-21T18:30:43.0338
2018-04-21T18:30:52.4780
2018-04-21T18:31:00.2000
2018-04-21T18:31:22.9947
2018-04-21T18:31:36.1705
2018-04-21T18:31:43.5649
2018-04-21T18:31:49.5990
2018-04-21T18:32:17.4512
2018-04-21T18:32:20.7834
2018-04-21T18:32:21.4354
2018-04-21T18:32:31.1667
2018-04-21T18:33:26.2066
2018-04-21T18:33:45.5974
2018-04-21T18:33:48.3992
2018-04-21T18:33:48.4834
2018-04-21T18:34:00.6140
2018-04-21T18:34:04.5015
2018-04-21T18:34:13.2874
2018-04-21T18:34:27.4491
2018-04-21T18:34:48.5310
2018-04-21T18:34:52.2843
2018-04-21T18:35:02.4274
2018-04-21T18:35:08.4709
2018-04-21T18:35:13.3100
2018-04-21T18:35:18.7575
2018-04-21T18:35:39.0126
2018-04-21T18:35:44.2042
2018-04-21T18:35:44.7939
2018-04-21T18:35:57.0618
2018-04-21T18:36:15.8410
2018-04-21T18:36:24.2370
2018-04-21T18:36:36.7201
2018-04-21T18:36:37.0071
2018-04-21T18:37:03.5926
2018-04-21T18:37:07.3491
2018-04-21T18:37:26.4217
2018-04-21T18:37:26.5184
2018-04-21T18:37:29.7133
2018-04-21T18:37:58.4734
2018-04-21T18:38:22.1605
2018-04-21T18:38:26.7843
2018-04-21T18:38:39.5732
2018-04-21T18:38:44.6806
2018-04-21T18:39:02.6300
2018-04-21T18:39:09.9027
2018-04-21T18:39:11.5626
2018-04-21T18:39:16.2956
2018-04-21T18:39:16.5296
2018-04-21T18:39:16.8447
2018-04-21T18:39:18.1021
2018-04-21T18:39:24.9442
2018-04-21T18:39:31.5337
2018-04-21T18:39:36.6099
2018-04-21T18:39:44.3350
2018-04-21T18:39:59.7166
2018-04-21T18:40:08.7990
2018-04-21T18:40:17.3353
2018-04-21T18:40:30.4642
2018-04-21T18:40:36.8821
2018-04-21T18:40:41.6370
2018-04-21T18:40:47.2623
2018-04-21T18:40:54.1076
2018-04-21T18:41:06.0541
2018-04-21T18:41:53.0787
2018-04-21T18:41:55.1941
2018-04-21T18:42:03.1407
2018-04-21T18:42:38.1003
2018-04-21T18:43:00.2554
2018-04-21T18:43:00.9418
2018-04-21T18:43:03.9870
2018-04-21T18:43:04.9448
2018-04-21T18:43:44.5064
2018-04-21T18:43:46.4221
2018-04-21T18:44:17.7188
2018-04-21T18:44:20.0245
2018-04-21T18:44:36.0862
2018-04-21T18:44:49.6770
2018-04-21T18:44:54.2727
2018-04-21T18:45:02.7622
2018-04-21T18:45:12.5310
2018-04-21T18:45:23.1421
2018-04-21T18:46:00.4042
2018-04-21T18:47:00.9416
2018-04-21T18:47:04.1864
2018-04-21T18:47:18.6258
2018-04-21T18:47:24.0202
2018-04-21T18:48:18.0555
2018-04-21T18:48:28.0208
2018-04-21T18:48:59.7294
2018-04-21T18:49:27.4693
2018-04-21T18:49:32.0838
2018-04-21T18:49:35.9463
2018-04-21T18:49:40.2488
2018-04-21T18:50:02.2854
2018-04-21T18:50:35.9252
2018-04-21T18:51:13.2030
2018-04-21T18:51:17.6521
2018-04-21T18:51:25.5488
2018-04-21T18:51:27.0838
2018-04-21T18:51:36.9898
2018-04-21T18:51:59.8376
2018-04-21T18:52:26.6446
2018-04-21T18:52:42.5317
2018-04-21T18:52:43.5987
2018-04-21T18:54:42.2492
2018-04-21T18:54:58.3297
2018-04-21T18:55:03.4714
2018-04-21T18:55:20.4224
2018-04-21T18:55:22.7062
2018-04-21T18:55:37.5699
2018-04-21T18:55:43.9722
2018-04-21T18:56:02.8638
2018-04-21T18:56:03.0010
2018-04-21T18:56:29.5678
2018-04-21T18:56:32.3571
2018-04-21T18:56:41.8138
2018-04-21T18:56:50.1505
2018-04-21T18:56:57.6697
2018-04-21T18:56:57.7976
2018-04-21T18:57:11.1044
2018-04-21T18:57:11.4195
2018-04-21T18:57:20.9979
2018-04-21T18:57:24.0306
2018-04-21T18:57:24.9510
2018-04-21T18:57:47.6240
2018-04-21T18:58:05.4610
2018-04-21T18:58:26.2465
2018-04-21T18:58:29.3852
2018-04-21T18:58:48.9850
2018-04-21T18:58:51.2127
2018-04-21T18:58:54.4856
2018-04-21T18:59:04.2418
2018-04-21T18:59:11.2026
2018-04-21T18:59:16.4816
2018-04-21T18:59:19.2054
2018-04-21T18:59:24.2192
2018-04-21T18:59:45.4758
2018-04-21T19:01:24.8950
2018-04-21T19:01:30.4206
2018-04-21T19:01:34.5015
2018-04-21T19:02:13.9071
2018-04-21T19:02:16.6309
2018-04-21T19:02:29.2544
2018-04-21T19:02:34.6302
2018-04-21T19:02:44.1368
2018-04-21T19:02:55.7120
2018-04-21T19:03:09.7489
2018-04-21T19:03:09.9891
2018-04-21T19:03:23.4176
2018-04-21T19:03:32.7058
2018-04-21T19:03:38.2938
2018-04-21T19:03:47.0454
2018-04-21T19:03:50.3401
2018-04-21T19:04:02.6266
2018-04-21T19:04:21.9488
2018-04-21T19:04:29.1154
2018-04-21T19:04:34.7377
2018-04-21T19:04:38.6034
2018-04-21T19:04:46.2068
2018-04-21T19:04:49.6544
2018-04-21T19:04:55.6354
2018-04-21T19:04:56.5902
2018-04-21T19:05:50.4663
2018-04-21T19:05:57.0277
2018-04-21T19:06:42.1242
2018-04-21T19:06:54.7477
2018-04-21T19:07:09.2900
2018-04-21T19:07:14.1759
2018-04-21T19:07:32.4342
2018-04-21T19:07:42.9954
2018-04-21T19:07:58.9604
2018-04-21T19:08:27.4678
2018-04-21T19:08:49.9630
2018-04-21T19:09:07.6129
2018-04-21T19:09:17.5844
2018-04-21T19:09:18.8792
2018-04-21T19:09:22.9009
2018-04-21T19:09:30.1050
2018-04-21T19:09:36.4448
2018-04-21T19:10:29.7750
2018-04-21T19:10:41.5998
2018-04-21T19:10:42.3392
2018-04-21T19:12:00.5358
2018-04-21T19:12:12.7693
2018-04-21T19:12:12.9627
2018-04-21T19:12:19.5334
2018-04-21T19:12:25.1494
2018-04-21T19:12:39.5919
2018-04-21T19:12:59.2417
2018-04-21T19:13:12.8574
2018-04-21T19:13:16.9040
2018-04-21T19:13:19.2378
2018-04-21T19:13:26.9067
2018-04-21T19:13:43.4833
2018-04-21T19:13:52.1132
2018-04-21T19:14:01.5762
2018-04-21T19:14:07.9534
2018-04-21T19:14:11.7848
2018-04-21T19:14:42.3078
2018-04-21T19:14:47.9206
2018-04-21T19:14:49.3527
2018-04-21T19:15:04.6782
2018-04-21T19:15:15.0958
2018-04-21T19:15:19.7727
2018-04-21T19:15:21.4918
2018-04-21T19:15:24.3154
2018-04-21T19:15:45.2974
2018-04-21T19:16:09.3090
2018-04-21T19:16:16.1168
2018-04-21T19:17:00.9231
2018-04-21T19:17:04.1242
2018-04-21T19:17:08.6607
2018-04-21T19:17:19.6494
2018-04-21T19:17:25.0938
2018-04-21T19:17:40.8778
2018-04-21T19:17:47.3862
2018-04-21T19:17:56.1159
2018-04-21T19:18:26.6077
2018-04-21T19:18:51.9795
2018-04-21T19:19:00.2631
2018-04-21T19:19:22.1156
2018-04-21T19:19:42.9104
2018-04-21T19:19:43.7934
2018-04-21T19:20:40.4713
2018-04-21T19:20:47.7877
2018-04-21T19:21:01.0633
2018-04-21T19:21:18.7755
2018-04-21T19:21:21.0968
2018-04-21T19:21:21.7707
2018-04-21T19:21:44.9180
2018-04-21T19:21:55.9940
2018-04-21T19:21:56.7366
2018-04-21T19:22:09.5878
2018-04-21T19:22:16.3707
2018-04-21T19:22:24.2394
2018-04-21T19:22:29.0067
2018-04-21T19:22:51.2648
2018-04-21T19:23:39.2691
2018-04-21T19:23:50.3170
2018-04-21T19:23:56.2762
2018-04-21T19:24:02.5693
2018-04-21T19:24:26.1097
2018-04-21T19:24:37.8877
2018-04-21T19:25:08.7008
2018-04-21T19:25:10.1516
2018-04-21T19:25:32.0197
2018-04-21T19:26:12.8230
2018-04-21T19:26:16.9602
2018-04-21T19:26:40.1293
2018-04-21T19:26:47.2086
2018-04-21T19:26:54.0507
2018-04-21T19:26:59.9506
2018-04-21T19:27:20.4834
2018-04-21T19:27:31.5687
2018-04-21T19:27:45.2718
2018-04-21T19:27:54.8533
2018-04-21T19:28:06.7904
2018-04-21T19:28:10.4533
2018-04-21T19:28:38.9514
2018-04-21T19:28:40.7734
2018-04-21T19:29:48.5898
2018-04-21T19:30:27.6709
2018-04-21T19:30:33.8485
2018-04-21T19:30:39.3303
2018-04-21T19:30:52.7370
2018-04-21T19:31:04.6585
2018-04-21T19:31:08.3619
2018-04-21T19:31:08.4867
2018-04-21T19:31:08.7394
2018-04-21T19:31:18.2367
2018-04-21T19:31:28.1178
2018-04-21T19:31:42.8473
2018-04-21T19:31:48.2230
2018-04-21T19:31:56.5347
2018-04-21T19:32:09.1614
2018-04-21T19:32:13.3234
2018-04-21T19:32:21.6102
2018-04-21T19:32:30.0872
2018-04-21T19:32:38.5861
2018-04-21T19:32:39.6781
2018-04-21T19:32:40.7420
2018-04-21T19:32:52.3671
2018-04-21T19:33:02.1858
2018-04-21T19:33:13.1838
2018-04-21T19:33:51.3913
2018-04-21T19:33:51.5941
2018-04-21T19:34:09.6776
2018-04-21T19:34:10.0333
2018-04-21T19:34:11.7898
2018-04-21T19:34:12.0675
2018-04-21T19:34:31.9731
2018-04-21T19:35:34.5884
2018-04-21T19:35:57.3426
2018-04-21T19:36:05.4421
2018-04-21T19:36:08.3218
2018-04-21T19:36:54.0174
2018-04-21T19:36:56.3355
2018-04-21T19:36:56.6850
2018-04-21T19:36:58.8315
2018-04-21T19:37:25.3110
2018-04-21T19:37:54.0368
2018-04-21T19:38:03.1566
2018-04-21T19:38:07.6088
2018-04-21T19:38:08.6696
2018-04-21T19:38:14.1920
2018-04-21T19:38:18.5600
2018-04-21T19:38:39.7105
2018-04-21T19:38:47.0986
2018-04-21T19:38:48.9800
2018-04-21T19:39:00.8298
2018-04-21T19:39:19.5872
2018-04-21T19:39:25.4590
2018-04-21T19:39:36.2262
2018-04-21T19:39:43.3834
2018-04-21T19:39:43.5738
2018-04-21T19:40:10.5212
2018-04-21T19:40:49.8987
2018-04-21T19:40:54.1856
2018-04-21T19:40:55.8111
2018-04-21T19:41:00.2852
2018-04-21T19:41:01.8358
2018-04-21T19:41:04.4286
2018-04-21T19:41:09.8480
2018-04-21T19:41:12.8151
2018-04-21T19:41:15.3049
2018-04-21T19:41:20.6151
2018-04-21T19:41:29.7661
2018-04-21T19:41:35.6379
2018-04-21T19:41:45.4971
2018-04-21T19:42:04.9878
2018-04-21T19:42:06.3762
2018-04-21T19:42:09.8300
2018-04-21T19:42:33.2425
2018-04-21T19:42:43.5978
2018-04-21T19:42:47.4322
2018-04-21T19:43:09.1880
2018-04-21T19:43:15.8929
2018-04-21T19:43:29.7020
2018-04-21T19:43:34.7408
2018-04-21T19:43:47.5609
2018-04-21T19:44:01.7818
2018-04-21T19:44:02.8114
2018-04-21T19:44:57.3553
2018-04-21T19:45:42.0961
2018-04-21T19:45:42.6015
2018-04-21T19:45:46.7792
2018-04-21T19:45:57.6025
2018-04-21T19:46:30.6121
2018-04-21T19:46:34.9832
2018-04-21T19:46:39.6133
2018-04-21T19:47:12.6946
2018-04-21T19:47:19.8457
2018-04-21T19:47:35.6922
2018-04-21T19:47:40.3628
2018-04-21T19:47:51.2485
2018-04-21T19:47:55.4605
2018-04-21T19:48:33.8458
2018-04-21T19:48:35.7678
2018-04-21T19:48:38.0173
2018-04-21T19:48:51.4489
2018-04-21T19:48:57.4674
2018-04-21T19:49:08.9365
2018-04-21T19:49:09.9474
2018-04-21T19:49:28.4053
2018-04-21T19:49:39.3190
2018-04-21T19:49:40.4734
2018-04-21T19:49:46.2049
2018-04-21T19:49:47.8117
2018-04-21T19:49:51.0814
2018-04-21T19:49:56.6912
2018-04-21T19:50:00.0608
2018-04-21T19:50:10.3412
2018-04-21T19:50:11.6266
2018-04-21T19:50:53.7778
2018-04-21T19:51:02.8102
2018-04-21T19:51:04.6510
2018-04-21T19:51:09.3061
2018-04-21T19:51:11.2093
2018-04-21T19:51:30.4441
2018-04-21T19:51:30.6594
2018-04-21T19:52:01.5286
2018-04-21T19:52:12.1086
2018-04-21T19:52:17.5249
2018-04-21T19:52:18.6762
2018-04-21T19:52:36.0296
2018-04-21T19:52:37.3150
2018-04-21T19:52:48.8091
2018-04-21T19:53:05.0144
2018-04-21T19:53:05.2765
2018-04-21T19:53:26.3802
2018-04-21T19:53:28.4986
2018-04-21T19:53:39.1254
2018-04-21T19:53:46.3918
2018-04-21T19:53:50.7411
2018-04-21T19:53:54.9032
2018-04-21T19:54:00.0512
2018-04-21T19:54:01.1650
2018-04-21T19:54:24.7803
2018-04-21T19:54:30.3464
2018-04-21T19:54:49.6623
2018-04-21T19:54:54.6387
2018-04-21T19:55:30.8526
2018-04-21T19:55:56.2306
2018-04-21T19:55:57.4474
2018-04-21T19:56:07.9213
2018-04-21T19:56:09.3846
2018-04-21T19:56:32.9218
2018-04-21T19:56:37.8608
2018-04-21T19:56:43.0806
2018-04-21T19:56:47.4985
2018-04-21T19:57:23.9276
2018-04-21T19:57:32.6043
2018-04-21T19:57:52.6659
2018-04-21T19:58:00.7779
2018-04-21T19:58:15.9255
2018-04-21T19:58:41.6437
2018-04-21T19:58:50.4608
2018-04-21T19:59:01.7864
2018-04-21T19:59:17.0557
2018-04-21T19:59:26.6934
2018-04-21T19:59:32.3936
2018-04-21T19:59:37.4761
