## April Lyrids (LYR)                  : 2
## eta Virginids (EVI)                 : 1
## alpha Virginids (AVB)               : 1
## h Virginids (HVI)                   : 1
## Sporadic                            : 228
