records	228
invalid	0
blanks	0
blocks	1
columnheaders	0
outofrange	0
mean_y	7.917705
stddev_y	1.255696
ssd_y	1.258459
skewness_y	-1.097082
kurtosis_y	5.558538
adev_y	0.905176
sum_y	1805.236705
sum_sq_y	14652.835802
mean_err_y	0.083161
stddev_err_y	0.058803
skewness_err_y	0.162221
kurtosis_err_y	0.324443
min_y	2.758874
lo_quartile_y	7.381634
median_y	8.106758
up_quartile_y	8.639497
max_y	11.075322
min_index_y	78
max_index_y	201
