639323_102.fits|T|1|winding trail
639323_103.fits|T|1|winding trail, =639323_102
639323_104.fits|T|1|winding trail, =639323_102
639324_102.fits|T|1|faint, diffuse, winding, =639323_102
639324_103.fits|T|1|faint, diffuse, winding trail, =639323_102
639324_104.fits|T|1|faint, diffuse, winding trail, =639323_102
640131_066.fits|T|1|sharp
640425_110.fits|F|0|noise
640441_108.fits|F|0|short streak of a satellite
640441_109.fits|F|0|short streak of a satellite, =640441_108
640441_110.fits|F|0|short streak of a satellite, =640441_108
640625_065.fits|T|1|sharp, changing brightness
640812_080.fits|T|1|extremely bright
640822_080.fits|T|1|bright, =640812_080
641344_084.fits|F|0|satellite
641344_085.fits|F|0|satellite
641344_086.fits|F|0|satellite
641643_013.fits|F|0|satellite
641643_014.fits|F|0|satellite
641643_015.fits|F|0|satellite
641811_058.fits|T|1|sharp
641813_024.fits|T|1|faint
641814_025.fits|T|1|faint
641822_024.fits|T|1|very faint
642212_094.fits|F|0|noise
642221_094.fits|F|0|satellite
642732_037.fits|T|1|sharp, truncated
643126_056.fits|T|1|very faint
643511_028.fits|T|1|very bright
643521_029.fits|T|1|very bright, truncated, =643511_028
643531_029.fits|T|1|faint, =643511_028
644014_088.fits|T|2|sharp, splitted trails
644424_054.fits|F|0|satellite
644424_055.fits|F|0|satellite
644424_056.fits|F|0|satellite
644424_086.fits|F|0|satellite
644424_087.fits|F|0|satellite
644424_088.fits|F|0|satellite
644514_108.fits|T|1|very bright
644522_093.fits|T|1|sharp, truncated
644525_108.fits|T|1|very bright, truncated
644534_108.fits|F|0|noise
644541_094.fits|T|1|faint, =644522_093
644616_081.fits|F|0|possibly vertical noise by debias
644932_058.fits|F|0|short streak by a satellite
644932_059.fits|F|0|short streak by a satellite
644932_060.fits|F|0|short streak by a satellite
645514_016.fits|F|0|satellite
645514_017.fits|F|0|satellite
645514_018.fits|F|0|satellite
645526_017.fits|F|0|satellite
645526_018.fits|F|0|satellite
645724_056.fits|F|0|noise
645724_057.fits|T|1|very faint
646426_099.fits|F|0|satellite
646511_040.fits|T|1|bright
646515_039.fits|T|1|faint
646521_040.fits|T|1|sharp, =646511_040
646531_041.fits|T|1|truncated, =646511_040
647425_040.fits|F|0|noise
647623_028.fits|T|1|faint, truncated
647644_028.fits|T|1|faint, =647623_028
647911_055.fits|T|1|faint
647912_028.fits|T|1|very bright
647912_056.fits|T|1|faint
647915_090.fits|T|1|faint
647926_027.fits|F|0|noise
647926_089.fits|F|0|satellites
647926_090.fits|F|0|satellites
647926_091.fits|F|0|satellites
647942_056.fits|F|0|noise
648023_061.fits|T|1|faint
648112_026.fits|T|1|faint
648144_027.fits|F|0|satellite
648211_081.fits|T|1|truncated
648924_108.fits|T|1|very faint
648926_109.fits|F|0|noise
649311_104.fits|T|1|bright, truncated
649324_104.fits|T|1|faint
649526_003.fits|T|1|bright, truncated
649526_004.fits|T|1|bright, truncated, with a trail, =649526_003
649526_005.fits|T|1|a trail of 649526_003
649544_003.fits|T|1|extremely bright, truncated
649544_004.fits|T|1|extremely bright, truncated, =649544_003
649544_005.fits|T|1|bright trail of 649544_003
649816_099.fits|T|1|faint, sharp
649942_084.fits|T|1|faint, on the edge
650013_032.fits|T|1|very faint, vertical, possibly noise?
650032_033.fits|T|1|very faint
650112_120.fits|T|1|faint
650121_026.fits|T|1|faint, truncated
650131_120.fits|T|1|faint
650132_026.fits|T|1|faint, =650121_026
650134_026.fits|T|1|faint, truncated
650211_069.fits|T|1|faint
650212_045.fits|T|1|bright, sharp
650222_045.fits|T|1|bright, sharp, =650212_045
650232_045.fits|T|1|bright, sharp, =650212_045
650242_045.fits|T|1|bright, sharp, =650212_045
650313_041.fits|T|1|sharp
650314_043.fits|T|1|bright, edge
650323_011.fits|T|2|one short streak is apparent but not detected
650323_041.fits|T|1|faint
650324_010.fits|T|1|sharp
650324_042.fits|T|1|bright, edge, =650323_041
650331_011.fits|T|1|faint, =650324_010
650333_043.fits|T|1|extremely bright, =650323_041
650342_043.fits|T|1|extremely bright, truncated, =650323_041
650344_010.fits|F|0|satellite
650344_011.fits|F|0|satellite
650344_012.fits|F|0|satellite
650344_041.fits|F|0|satellite
650344_042.fits|F|0|satellite
650344_043.fits|F|0|satellite
650433_092.fits|T|1|faint, diffuse
650712_036.fits|T|1|sharp
650712_044.fits|F|0|noise
650721_098.fits|T|1|faint, truncated
650722_036.fits|T|1|sharp, =650712_036
650741_045.fits|T|1|sharp
650743_044.fits|T|1|faint, vertical
650813_016.fits|T|1|bright, truncated
650816_016.fits|F|0|noise
650912_066.fits|T|1|bright, edge
650916_026.fits|F|0|noise?
650921_067.fits|T|1|bright, =650912_066
651011_114.fits|T|1|faint, edge
651113_055.fits|T|1|bright
651123_055.fits|T|1|bright, =651113_055
651133_055.fits|T|1|bright, =651113_055
651143_055.fits|T|1|sharp, =651113_055
651323_041.fits|F|0|satellite
651323_042.fits|F|0|satellite
651323_043.fits|F|0|satellite
651344_043.fits|T|1|faint
651513_019.fits|F|0|satellite
651513_020.fits|F|0|satellite
651513_021.fits|F|0|satellite
651513_111.fits|T|1|sharp, faint
651523_111.fits|T|1|sharp faint, edge, =651513_111
651544_019.fits|F|0|noise
651711_044.fits|T|1|very faint
651711_072.fits|T|1|faint, truncated
651712_028.fits|T|1|faint, truncated
651715_015.fits|T|1|bright, edge
651716_073.fits|T|1|faint
651721_045.fits|T|1|bright, truncated
651725_016.fits|T|1|bright, edge, =651715_015
652011_113.fits|T|1|extremely bright
652311_070.fits|T|1|bright, edge
652321_070.fits|T|1|sharp, truncated
652332_062.fits|T|1|faint, truncated?
652334_063.fits|T|1|faint, edge, changing brightness
652514_054.fits|T|1|faint, short, detected position slightly displaced
652514_055.fits|T|1|faint, =652514_054
652523_055.fits|T|1|faint, =652514_054
652526_083.fits|T|1|very faint
652532_056.fits|T|1|faint, truncated, =652514_054
652541_056.fits|T|1|faint, =652514_054
652712_053.fits|T|1|faint, truncated
652721_054.fits|T|1|faint, 652712_053
652815_023.fits|T|1|faint
652824_023.fits|F|0|satellites
652825_023.fits|T|1|faint, 652815_023
652911_099.fits|T|1|faint
652912_099.fits|T|1|faint, =652911_099
653034_087.fits|F|0|noise
653114_095.fits|T|1|bright, truncated
653114_096.fits|T|1|bright, truncated, with a faint trail, =653114_095
653622_004.fits|T|1|sharp, truncated
653623_005.fits|F|0|noise
653623_006.fits|F|0|noise
653641_003.fits|F|0|short streak by a satellite
653641_004.fits|F|0|short streak by a satellite
653641_005.fits|F|0|short streak by a satellite
653641_006.fits|F|0|short streak by a satellite
653643_005.fits|T|1|sharp, truncated
653714_104.fits|F|0|noise
653714_106.fits|F|0|noise
653715_105.fits|T|1|bright
653725_105.fits|T|1|bright, =653715_105
653733_104.fits|F|0|noise
653741_060.fits|F|0|noise
653813_090.fits|T|1|faint, sharp
653814_091.fits|F|0|noise
653826_027.fits|F|0|short streak by a satellite
653826_028.fits|F|0|short streak by a satellite
653826_029.fits|F|0|short streak by a satellite
654011_014.fits|T|1|faint, sharp
654015_013.fits|F|0|noise
654015_014.fits|F|0|noise
654021_014.fits|T|1|faint, 654011_014
654112_080.fits|T|1|faint, vertical
654314_100.fits|F|0|satellite
654322_099.fits|T|1|faint, edge
654324_100.fits|F|0|noise
654412_062.fits|T|1|extremely bright
654412_063.fits|T|1|very bright, =654412_062
654412_064.fits|T|1|a trail of =654412_062
654413_064.fits|T|1|sharp
654413_072.fits|T|1|very faint
654433_062.fits|F|0|noise
654433_063.fits|T|1|extremely bright
654444_062.fits|F|0|satellite
654444_063.fits|F|0|satellite
654444_064.fits|F|0|satellite
654444_071.fits|F|0|satellite
654444_072.fits|F|0|satellite
654444_073.fits|F|0|satellite
654511_048.fits|T|2|faint, one is apparent but not detected
654521_048.fits|T|1|faint
654521_049.fits|T|1|faint
654544_075.fits|F|0|on the edge?
654611_063.fits|T|1|bright
654612_113.fits|F|0|noise
654616_112.fits|T|1|faint
654625_062.fits|T|1|faint, disappearing?
654626_062.fits|T|1|faint
654811_059.fits|T|1|on the edge
654813_041.fits|T|1|bright
654815_041.fits|F|0|noise
654822_059.fits|T|1|disappearing?, =654811_059
654832_041.fits|T|1|faint
654834_051.fits|F|0|satellite
654834_060.fits|T|1|faint, sharp
654841_041.fits|T|1|faint
654841_059.fits|F|0|noise
654913_084.fits|T|1|faint
654915_115.fits|T|1|sharp, changing brightness
654922_084.fits|T|1|faint, truncated
654925_094.fits|F|0|noise
654925_115.fits|T|1|very faint, =654915_115
654934_092.fits|F|0|noise
654944_083.fits|F|0|satellite
654944_084.fits|F|0|satellite
654944_085.fits|F|0|satellite
654944_094.fits|F|0|satellite
655013_093.fits|T|1|faint
655312_110.fits|T|1|faint
655312_112.fits|T|1|faint, edge
655323_087.fits|T|1|faint, truncated
655344_087.fits|T|1|faint, truncated, =655323_087
655512_102.fits|T|1|faint, edge
655522_102.fits|T|1|faint, edge, =655512_102
655611_080.fits|T|1|faint
655614_006.fits|T|1|very bright
655616_008.fits|F|0|satellite
655643_008.fits|T|1|very bright, =655614_006
655715_017.fits|T|1|faint, diffuse?
655726_016.fits|T|1|faint, short streak
655726_017.fits|T|1|faint, truncated, =655726_016
656015_063.fits|F|0|noise
656015_065.fits|F|0|satellite
656221_113.fits|T|1|faint, truncated
656221_114.fits|T|1|apparent but not detected, =656221_113
656326_100.fits|T|1|faint, short trail
656331_003.fits|T|1|very bright, sharp
656415_070.fits|F|0|satellite
656415_071.fits|F|0|satellite
656415_072.fits|F|0|satellite
656415_094.fits|F|0|satellite
656415_095.fits|F|0|satellite
656415_096.fits|F|0|satellite
656811_092.fits|T|1|faint
656814_003.fits|T|1|faint
656815_033.fits|T|1|very bright, changing brightness
656815_034.fits|T|1|very bright, truncated, =656815_033
656821_053.fits|T|1|faint, sharp
656821_092.fits|T|1|faint, =656811_092
656831_091.fits|T|1|on the edge, satellite?
656834_071.fits|F|0|satellite
656921_033.fits|T|1|faint
656923_033.fits|T|1|very faint
657011_071.fits|T|1|faint
657024_072.fits|F|0|noise
657112_030.fits|T|1|bright
657115_037.fits|T|1|very bright, changing brightness
657115_038.fits|T|1|a trail of 657115_037
657121_001.fits|F|0|noise
657121_003.fits|F|0|noise, bad Hough-transformation
657122_031.fits|T|1|bright, =657112_030
657124_076.fits|T|1|extremely faint
657125_037.fits|T|1|very bright truncated, =657115_037
657125_038.fits|T|1|very bright truncated, =657115_037
657126_003.fits|T|1|faint
657132_032.fits|T|1|faint, truncated, =657112_030
657334_065.fits|F|0|noise
657413_005.fits|T|1|bright, disappearing?
657414_004.fits|T|1|bright, =657413_005
657414_005.fits|T|1|bright, =657413_005
657512_040.fits|F|0|noise
657513_086.fits|T|1|faint, sharp
657644_055.fits|F|0|noise
657815_118.fits|T|1|very bright, changing brightness
657942_082.fits|F|0|noise
658112_060.fits|T|1|faint, diffuse?
658113_087.fits|T|1|faint
658116_032.fits|T|1|extremely faint
658123_060.fits|T|1|very faint, =658112_060
658131_087.fits|F|0|noise
658134_033.fits|T|1|bright, changing brightness
658443_023.fits|F|0|noise
658512_092.fits|T|1|bright
658513_118.fits|T|1|faint
658516_117.fits|T|1|faint
658522_091.fits|T|1|faint, =658512_092
658525_118.fits|T|1|faint, =658516_117
658715_093.fits|T|1|very faint
658744_094.fits|F|0|noise
658812_075.fits|T|1|faint
658821_034.fits|T|1|faint, sharp
658826_074.fits|F|0|noise
658844_036.fits|T|1|faint, diffuse?
658914_073.fits|T|1|faint
658915_074.fits|T|1|faint, diffuse?
658924_046.fits|T|1|bright, sharp
658932_072.fits|T|1|faint, diffuse, =658915_074?
658934_046.fits|T|1|sharp, truncated, =658924_046
659121_105.fits|F|0|noise
659322_013.fits|T|1|bright
659911_096.fits|T|1|faint, diffuse
659913_081.fits|T|1|faint
659914_012.fits|T|1|faint
659921_096.fits|T|1|faint, =659911_096
659922_097.fits|T|1|faint, =659911_096?
659924_013.fits|T|1|faint, =659914_012
659944_098.fits|F|0|noise
660011_062.fits|T|1|truncated
660015_013.fits|F|0|noise
660021_037.fits|F|0|noise
660025_014.fits|T|1|faint, apparent but not detected
660025_063.fits|F|0|noise
660034_035.fits|F|0|noise
660213_035.fits|T|1|faint
660214_003.fits|T|1|faint
660216_092.fits|T|1|sharp, truncated
660216_093.fits|T|1|sharp, truncated, =660216_092
660223_035.fits|T|1|very faint, =660213_035
660244_004.fits|F|0|noise
660312_037.fits|T|1|faint
660313_040.fits|T|1|faint
660321_040.fits|T|1|faint, =660313_040
660343_040.fits|F|0|noise
660411_107.fits|T|1|bright, truncated
660426_108.fits|T|1|extremely bright
660444_108.fits|T|1|very bright, =660426_108
660515_012.fits|T|1|faint
660515_013.fits|F|0|noise, bad subtraction
660712_033.fits|T|1|faint
660715_033.fits|F|0|noise
660721_033.fits|T|1|truncated
660731_002.fits|T|1|truncated
660732_002.fits|T|1|bright, truncated, =660731_002
660813_107.fits|F|0|noise
660814_107.fits|T|1|faint, truncated
660815_109.fits|T|2|faint streaks, one is not detected
660822_108.fits|T|1|faint
660831_108.fits|T|1|faint, =660822_108
660911_023.fits|T|1|faint
660925_024.fits|F|0|possibly noise
660931_023.fits|F|0|possibly noise
661012_013.fits|T|1|faint
661212_005.fits|T|1|very faint
661214_005.fits|T|1|bright, truncated
661214_006.fits|T|1|bright, truncated, =661214_005
661222_058.fits|T|1|faint, truncated
661223_006.fits|T|1|bright, =661214_005
661225_101.fits|F|0|noise
661231_058.fits|T|1|sharp, =661222_058
661232_001.fits|T|1|faint
661232_006.fits|T|1|bright, =661214_005
661232_056.fits|T|1|faint
661242_001.fits|T|1|bright, =661232_001
661313_072.fits|T|1|sharp, truncated
661324_120.fits|T|1|bright, truncated
661513_120.fits|F|0|satellite
661514_085.fits|T|1|bright
661534_109.fits|F|0|possibly noise
661623_033.fits|T|1|bright, truncated
661624_009.fits|F|0|possibly noise
661625_032.fits|F|0|bad Hough-transformation
661714_118.fits|T|1|faint, diffuse, edge
661715_025.fits|F|0|noise
661715_111.fits|T|1|faint, edge
661741_023.fits|T|1|bright, truncated
661741_024.fits|T|1|bright, =661741_023
661816_009.fits|F|0|noise
661913_013.fits|F|0|noise
661922_011.fits|T|1|faint, truncated
662115_102.fits|T|1|faint, disappearing?
662123_102.fits|F|0|noise
662222_072.fits|T|1|faint
662224_073.fits|F|0|noise
662232_072.fits|T|1|faint
662313_013.fits|F|0|bad Hough-transformation
662313_014.fits|F|0|noise
662315_014.fits|T|1|bright
662334_086.fits|T|1|faint
662416_073.fits|T|1|faint
662426_074.fits|T|1|faint, truncated, =662416_073
662513_097.fits|T|1|faint
662514_096.fits|T|1|faint
662524_091.fits|F|0|noise
662524_096.fits|T|1|faint
662531_089.fits|T|1|faint, sharp
662531_095.fits|T|1|faint
662531_096.fits|T|1|faint
662533_095.fits|T|1|faint
662615_074.fits|T|1|faint, truncated, rotating satellite?
662712_069.fits|T|1|faint, truncated
663011_046.fits|T|1|extremely faint
663044_046.fits|T|1|bright, truncated
663214_013.fits|T|1|faint, truncated
663224_013.fits|T|1|faint, =663214_013
663312_015.fits|T|1|faint, diffuse?
663324_116.fits|F|0|noise
663413_030.fits|T|1|faint, truncated
663416_106.fits|T|1|bright, diffuse
663416_107.fits|T|1|extremely bright, with a trail, =663416_106
663424_068.fits|T|1|faint, false signal on the subtracted image
663425_069.fits|F|0|noise
663426_107.fits|T|1|extremely bright, =663416_106
663434_069.fits|T|1|faint, truncated
663624_027.fits|T|1|faint, disappearing?
663626_026.fits|F|0|noise
663811_020.fits|T|1|faint, disappearing?
663811_076.fits|T|1|bright
663813_019.fits|T|1|faint, diffuse?
663815_076.fits|F|0|possibly noise
663821_076.fits|T|1|truncated, =663811_076
663821_077.fits|T|1|truncated, =663811_076
663823_020.fits|T|1|faint, diffuse?, edge, =663813_019
663824_076.fits|T|1|faint
663826_020.fits|F|0|possibly noise
663826_076.fits|F|0|satellite
663826_077.fits|F|0|satellite
663826_078.fits|F|0|satellite
663826_099.fits|F|0|satellite
663826_100.fits|F|0|satellite
663826_101.fits|F|0|satellite
663826_111.fits|F|0|satellite
663826_112.fits|F|0|satellite
663826_113.fits|F|0|satellite
663831_077.fits|T|1|faint, =663811_076
663842_076.fits|T|1|faint
663844_078.fits|F|0|noise
663913_107.fits|T|1|edge
663923_107.fits|T|1|edge, =663913_107
663932_107.fits|T|1|faint, =663913_107
664014_036.fits|T|1|bright
664016_035.fits|F|0|bad Hough-transformation
664025_036.fits|T|1|faint, diffuse?, =664014_036?
664214_113.fits|T|1|faint
664313_104.fits|T|1|extremely faint
664412_012.fits|T|1|faint, edge, sharp
664412_083.fits|T|1|very bright
664416_012.fits|F|0|possibly noise
664421_013.fits|T|1|sharp
664433_083.fits|T|1|very bright, truncated, =664412_083
664433_084.fits|T|1|truncated, detected point slightly displaced, =664412_083
664443_084.fits|T|1|faint, =664412_083
664511_098.fits|T|1|faint, truncated
664513_060.fits|F|0|noise
664516_016.fits|F|0|noise
664543_044.fits|T|1|bright
664714_119.fits|T|1|very faint, truncated
664723_119.fits|T|1|bright, sharp, =664714_119
664724_047.fits|T|1|truncated
664725_096.fits|T|1|bright
664732_047.fits|T|1|truncated, =664724_047
664732_119.fits|T|1|faint, truncated, =664714_119
664734_046.fits|T|1|faint, truncated
664734_119.fits|T|1|faint
664741_119.fits|T|1|faint
664744_046.fits|T|1|faint, =664734_046
664811_042.fits|T|1|bright, truncated
664811_043.fits|T|1|truncated, =664811_042
664812_042.fits|T|1|faint, =664811_042
664815_042.fits|T|1|faint, edge
664825_042.fits|T|1|faint, edge, =664815_042
665015_050.fits|T|1|faint, edge
665016_050.fits|F|0|noise
665025_050.fits|T|1|faint, =665015_050
665044_090.fits|T|1|faint
665114_014.fits|T|1|very faint
665114_084.fits|T|1|bright, edge
665115_036.fits|T|1|faint
665115_083.fits|T|1|faint, truncated
665116_014.fits|F|0|noise
665122_084.fits|T|1|faint, =665115_083
665123_084.fits|T|1|faint, =665115_083
665125_036.fits|T|1|faint, =665115_036
665216_017.fits|F|0|noise
665231_032.fits|F|0|noise
665322_099.fits|T|1|faint
665332_100.fits|T|1|faint, diffuse
665334_101.fits|F|0|noise
665341_063.fits|F|0|possibly noise
665342_100.fits|T|1|faint, diffuse, =665332_100
665411_094.fits|F|0|noise
665434_094.fits|F|0|noise
665513_094.fits|T|1|faint
665534_011.fits|T|1|faint, sharp
665534_054.fits|T|1|extremely faint
665544_011.fits|F|0|possibly noise
665611_082.fits|T|1|bright
665612_046.fits|T|1|faint, truncated
665612_047.fits|T|1|faint, truncated, =665612_046
665613_046.fits|T|1|fiant, =665612_046
665615_042.fits|T|1|very faint, on the edge
665621_065.fits|T|1|very bright
665621_082.fits|T|1|bright, =665611_082
665622_036.fits|T|1|faint
665624_047.fits|T|1|faint, truncated, =665612_046
665624_048.fits|T|1|faint, truncated, =665612_046
665631_066.fits|T|1|very bright, 665621_065
665644_064.fits|F|0|possibly noise
665712_101.fits|T|1|faint
665713_009.fits|T|1|faint, =665611_082
665726_077.fits|T|1|faint, edge
665731_101.fits|T|1|faint, =665712_101
665814_016.fits|T|1|very faint
665824_038.fits|F|0|bad Hough-transformation
665825_032.fits|F|0|noise
665912_039.fits|T|1|bright
665915_018.fits|T|1|very bright, truncated
665915_019.fits|T|1|very bright, truncated, with a train, =665915_018
665922_039.fits|T|1|bright, edge, =665912_039
665924_018.fits|T|1|very bright, truncated, =665915_018
665924_019.fits|T|1|very bright, truncated, with a train, =665915_018
665925_019.fits|T|1|faint, changing brightness
665933_019.fits|T|1|very bright, =665915_018?
665934_019.fits|T|1|faint, truncated, =665915_018?
665942_019.fits|T|1|faint, =665915_018?
666012_060.fits|F|0|noise
666014_025.fits|T|1|faint
666015_025.fits|T|1|faint, truncated, =666014_025
666021_060.fits|T|1|extremely bright
666023_095.fits|F|0|satellite
666031_061.fits|T|1|faint
666044_095.fits|T|1|very faint
666123_017.fits|F|0|satellite
666123_018.fits|F|0|satellite
666123_019.fits|F|0|satellite
666211_013.fits|T|1|faint, edge, diffuse?
666413_002.fits|F|0|satellite
666413_003.fits|F|0|satellite
666413_004.fits|F|0|satellite
666413_005.fits|F|0|satellite
666413_006.fits|F|0|satellite
666413_007.fits|F|0|satellite
666413_080.fits|F|0|satellite
666413_081.fits|F|0|satellite
666413_082.fits|F|0|satellite
666413_112.fits|T|1|very faint
666415_005.fits|T|1|faint
666415_081.fits|F|0|noise
666424_112.fits|F|0|possibly noise
666425_114.fits|F|0|possibly noise
666442_081.fits|F|0|possibly noise
666444_004.fits|F|0|satellite
666512_021.fits|T|1|faint
666522_022.fits|T|1|faint, truncated, =666512_021
666526_055.fits|T|1|faint
666526_087.fits|F|0|noise
666532_022.fits|T|1|faint, =666512_021
666542_022.fits|T|1|faint, =666512_021
666612_107.fits|T|1|faint, sharp, truncated
666623_108.fits|T|1|faint, truncated, =666612_107
666624_100.fits|F|0|vertical line due to debias?
666624_104.fits|F|0|noise
666711_017.fits|T|1|faint, edge, extremely short streak?
666712_078.fits|T|1|faint, truncated
666713_018.fits|T|1|faint
666713_077.fits|T|1|faint, =666712_078
666724_018.fits|T|1|bright, sharp
666724_019.fits|T|1|bright, sharp, =666724_018
666725_018.fits|T|1|faint, sharp, =666724_018
666732_044.fits|T|1|faint
666812_030.fits|T|1|faint
666911_076.fits|F|0|short streak by a satellite
666912_019.fits|T|1|faint
666914_077.fits|F|0|noise
666915_050.fits|T|1|faint
666916_050.fits|T|1|extremely faint
666916_077.fits|T|1|bright, diffuse
666923_020.fits|F|0|noise
666925_114.fits|T|1|faint
666934_115.fits|F|0|noise
666941_077.fits|F|0|bad Hough-transformation
666942_048.fits|T|1|faint
666942_115.fits|F|0|noise
667044_006.fits|F|0|satellite
667132_014.fits|T|1|faint
669013_003.fits|T|1|faint
669013_117.fits|T|1|faint
669014_048.fits|T|1|faint
669022_004.fits|T|1|faint, =669013_003
669022_055.fits|T|1|bright, diffuse
669022_056.fits|T|1|bright, diffuse, truncated, =669022_055
669032_056.fits|T|1|faint, =669022_055
669033_119.fits|T|1|faint, =669013_117?
669041_118.fits|T|1|faint
670013_079.fits|T|1|faint
670016_048.fits|T|1|sharp, truncated
670022_079.fits|T|1|very faint
670031_046.fits|F|0|short streak by a satellite
670031_047.fits|F|0|short streak by a satellite
670031_048.fits|F|0|short streak by a satellite
670043_041.fits|T|2|two streaks, one is apparent but not detected
670043_080.fits|F|0|bad Hough-transformation
670043_081.fits|F|0|short streak by a satellite
670044_080.fits|F|0|short streak by a satellite
670044_081.fits|F|0|short streak by a satellite
670044_082.fits|F|0|short streak by a satellite
670044_087.fits|F|0|noise
670044_088.fits|F|0|short streak by a satellite
670044_089.fits|F|0|short streak by a satellite
670113_115.fits|T|1|bright
670123_115.fits|T|1|bright, =670113_115
670133_115.fits|T|1|bright, =670113_115
670141_028.fits|F|0|satellite
670141_057.fits|F|0|noise
670141_110.fits|F|0|bad Hough-transformation
670143_115.fits|T|1|faint, =670113_115
670212_051.fits|T|1|faint, truncated
670212_065.fits|T|1|bright
670214_111.fits|T|1|faint, a bogus streak in the subtracted image
670221_051.fits|T|1|very faint
670221_065.fits|T|2|1 bright, =670212_065, 1 faint and short streak
670223_064.fits|T|1|very bright
670224_112.fits|F|0|noise
670231_051.fits|T|1|faint, =670221_051
670233_041.fits|T|1|faint
670233_065.fits|T|1|very bright, =670223_064
670233_110.fits|F|0|bad Hough-transformation
670241_074.fits|F|0|satellite
670242_042.fits|T|1|faint, truncated, =670233_041
670243_043.fits|T|1|faint, edge
670243_065.fits|T|1|very bright, =670223_064
670244_063.fits|T|1|faint
670312_079.fits|T|1|vary faint
670315_115.fits|T|1|faint
670321_114.fits|F|0|noise
670323_112.fits|T|1|faint
670324_103.fits|F|0|noise
670325_079.fits|F|0|noise
670344_038.fits|F|0|noise
670412_109.fits|T|1|faint
670422_108.fits|T|1|faint, =670412_109
670423_006.fits|T|1|faint, edge
670424_006.fits|T|1|faint, truncated, =670423_006
670425_008.fits|F|0|noise
670434_068.fits|F|0|noise
670512_050.fits|T|1|bright, truncated
670512_051.fits|T|1|bright, truncated, =670512_050
670512_103.fits|T|1|faint, on the edge
670513_050.fits|T|1|faint, =670512_050
670521_050.fits|T|1|bright, truncated, =670512_050
670521_051.fits|T|1|bright, truncated, =670512_050
670521_064.fits|F|0|noise
670522_103.fits|T|1|faint, =670512_103
670524_101.fits|T|1|bright, truncated
670525_102.fits|T|1|faint, =670524_101
670532_103.fits|T|1|faint
670534_050.fits|F|0|satellite
670616_068.fits|T|1|faint, edge
670616_097.fits|T|1|faint, diffuse
670714_072.fits|T|1|faint
670716_096.fits|T|1|extremely faint, on the edge
670724_073.fits|T|1|faint, =670714_072
670724_109.fits|F|0|noise
670726_062.fits|F|0|noise
670734_073.fits|T|1|faint, =670714_072
670741_031.fits|T|1|faint, diffuse
670741_072.fits|F|0|satellite
670741_109.fits|F|0|satellite
670812_093.fits|T|1|faint, diffuse?
670815_088.fits|F|0|short streak by a satellite
670815_089.fits|F|0|short streak by a satellite
670815_090.fits|F|0|short streak by a satellite
670815_092.fits|F|0|short streak by a satellite
670815_093.fits|F|0|short streak by a satellite
670815_094.fits|F|0|short streak by a satellite
670815_107.fits|F|0|short streak by a satellite
670815_108.fits|F|0|satellite
670815_109.fits|F|0|satellite
670823_093.fits|T|1|faint
670843_109.fits|F|0|noise
670911_101.fits|F|0|noise
670911_102.fits|F|0|noise
670913_054.fits|T|1|bright, truncated
670913_055.fits|T|1|bright, truncated, with a trail, =670913_054
670914_054.fits|T|1|bright, =670913_054
670941_053.fits|T|1|bright, with a trail
670944_097.fits|T|1|faint
671015_068.fits|T|1|faint, short streak
671015_070.fits|T|1|faint, short streak, with a trail, 671015_068
671022_094.fits|F|0|noise
671022_095.fits|F|0|noise
671031_095.fits|F|0|something bright on the edge
671031_096.fits|F|0|something bright on the edge
671033_033.fits|T|1|faint
671034_050.fits|T|1|extremely faint
671041_034.fits|T|1|faint, =671033_033
671044_033.fits|T|1|bright, edge
671044_051.fits|T|1|extremely faint, =671034_050
671116_095.fits|T|1|faint, truncated
671122_095.fits|F|0|noise
671125_114.fits|F|0|noise
671134_114.fits|F|0|satellite
671143_009.fits|F|0|possibly noise
671232_105.fits|T|1|very faint
671316_047.fits|T|1|faint
671316_089.fits|T|1|faint
671344_046.fits|F|0|noise
671415_087.fits|T|1|faint
671416_089.fits|T|1|faint
671424_109.fits|F|0|noise
671431_011.fits|T|1|faint
671512_066.fits|T|1|faint
671514_066.fits|T|1|faint, edge
671521_067.fits|T|1|faint
671524_067.fits|T|1|faint, vertical
671613_037.fits|T|1|faint, truncated
671613_074.fits|T|1|faint
671614_114.fits|T|2|faint, another faint and short streak appear but not detected
671614_115.fits|T|1|faint, short, =671614_114 (not detected)
671623_041.fits|T|1|bright
671624_075.fits|T|1|faint, =671613_074
671625_114.fits|T|1|faint, diffuse, =671614_114 (not detected)
671633_041.fits|T|1|bright, =671623_041
671634_073.fits|F|0|noise
671643_041.fits|T|1|bright, =671623_041
671713_021.fits|T|1|faint, sharp
671714_117.fits|T|1|faint
671915_043.fits|F|0|satellite?
671921_043.fits|T|1|bright, diffuse
671922_110.fits|T|1|faint, truncated
671931_043.fits|T|1|very bright, =671921_043
671932_066.fits|T|1|very faint
671932_109.fits|F|0|noise
671941_043.fits|T|1|very bright, =671921_043
671942_064.fits|F|0|satellite
671942_110.fits|F|0|satellite
671943_043.fits|F|0|satellite
671943_064.fits|F|0|satellite
671943_066.fits|F|0|satellites
671943_084.fits|F|0|satellite
671943_109.fits|F|0|satellite
671944_084.fits|F|0|satellite
671944_085.fits|F|0|satellite
671944_086.fits|F|0|satellite
671944_087.fits|F|0|satellite
672042_053.fits|F|0|satellite
672042_054.fits|F|0|satellite
672042_055.fits|F|0|satellite
672042_098.fits|F|0|satellite
672043_060.fits|F|0|satellite
672044_100.fits|T|1|faint
672112_008.fits|T|1|faint, truncated
672112_009.fits|T|1|faint, truncated, =672112_008
672113_026.fits|T|1|faint, on the edge
672114_091.fits|T|1|faint
672121_095.fits|T|1|faint, truncated
672142_026.fits|F|0|noise
672216_090.fits|T|1|faint, diffuse
672221_091.fits|T|1|faint
672221_094.fits|T|1|bright, truncated
672223_051.fits|T|1|very faint
672232_094.fits|T|1|bright, truncated, =672221_094
672232_095.fits|T|1|bright, truncated, =672221_094
672342_022.fits|F|0|satellite
672342_066.fits|F|0|satellite
672342_067.fits|F|0|satellite
672342_092.fits|F|0|satellite
672342_093.fits|F|0|satellite
672411_017.fits|T|1|faint
672414_017.fits|F|0|satellite
672414_018.fits|F|0|satellite
672414_086.fits|T|1|very faint, on the edge
672442_018.fits|F|0|satellite
672442_102.fits|T|1|bright
672522_042.fits|T|1|bright
672523_066.fits|F|0|noise
672644_007.fits|T|1|very faint
672725_021.fits|T|1|faint
672741_081.fits|F|0|rotating satellite
672741_082.fits|F|0|rotating satellite
672741_083.fits|F|0|rotating satellite
672744_046.fits|T|1|fiant
672811_069.fits|T|1|faint, diffuse
672812_070.fits|T|1|faint, diffuse, =672811_069
672813_070.fits|T|1|faint, truncated, =672811_069
672813_071.fits|T|1|faint, truncated, =672811_069
672814_071.fits|T|1|faint, =672811_069
672826_039.fits|F|0|satellite on the edge
672843_112.fits|F|0|satellite
672843_113.fits|F|0|satellite
672843_116.fits|F|0|satellite
672843_117.fits|F|0|satellite
672942_083.fits|T|1|faint, truncated
672943_083.fits|T|1|faint, =672942_083
672944_083.fits|T|1|faint, truncated, =672942_083
673042_030.fits|F|0|satellite
673042_031.fits|F|0|satellite
673042_032.fits|F|0|satellite
673042_037.fits|F|0|satellite
673042_038.fits|F|0|satellite
673042_039.fits|F|0|satellite
673042_048.fits|F|0|satellite
673042_049.fits|F|0|satellite
673042_050.fits|F|0|satellite
673042_082.fits|F|0|satellite
673042_084.fits|F|0|satellite
673044_082.fits|T|1|faint
673121_099.fits|F|0|satellite
673121_100.fits|F|0|satellite
673121_101.fits|F|0|satellite
673121_104.fits|F|0|satellite
673141_100.fits|F|0|bright, short streak, possibly satellite
673141_101.fits|F|0|bright, short streak, possibly satellite
673141_102.fits|F|0|bright, short streak, possibly satellite
673221_027.fits|F|0|satellite
673221_028.fits|F|0|satellite
673242_028.fits|F|0|satellite
673311_060.fits|F|0|satellite
673311_100.fits|F|0|satellite
673421_049.fits|F|0|satellite
673421_051.fits|F|0|satellite
673421_116.fits|F|0|satellite
673421_117.fits|F|0|satellite
673421_118.fits|F|0|satellite
673531_094.fits|T|1|very faint
673541_094.fits|T|1|very faint, =673531_094
673612_023.fits|T|1|faint
673712_061.fits|T|1|faint, truncated?
673911_048.fits|T|1|faint
673915_047.fits|T|1|bright, truncated
673915_048.fits|T|1|faint, =673915_047
673921_048.fits|T|1|faint
673923_048.fits|F|0|satellites
673924_047.fits|T|1|faint, truncated
673924_048.fits|T|1|faint, truncated, =673924_047
673933_048.fits|T|1|faint, =673924_047
