2018,4,20,22,0,20.177760,0.255840,100.021262,96.362192,125.536395,67.222506,37.000439,39,81 
2018,4,20,22,5,21.351360,0.408720,103.712068,97.033905,130.083892,49.021482,25.086139,65,129 
2018,4,20,22,6,7.458720,0.268320,92.729543,88.921973,129.732056,37.121816,21.067967,52,35 
2018,4,20,22,6,21.152400,0.277680,88.716568,86.154796,45.587023,68.316506,23.499528,50,86 
2018,4,20,22,6,34.091040,0.180960,101.890512,99.197790,125.510997,66.199094,38.168502,30,57 
2018,4,20,22,8,33.677520,0.190320,104.858416,102.210079,124.635350,64.943746,35.829619,26,55 
2018,4,20,22,10,57.787200,0.246480,92.045798,89.349202,137.363156,63.276020,24.164817,42,38 
2018,4,20,22,12,5.222880,0.299520,109.312468,104.396404,130.853683,65.339552,39.032002,54,97 
2018,4,20,22,12,5.718960,0.249600,101.358260,97.193474,130.373945,65.154087,38.371465,31,81 
2018,4,20,22,14,13.461120,0.187200,93.297845,90.309445,115.133054,50.060380,24.094284,27,46 
2018,4,20,22,16,51.660720,0.402480,94.665982,87.296170,138.288056,49.239110,28.699402,56,97 
2018,4,20,22,18,7.461120,0.252720,96.888858,92.892193,144.265917,55.359816,29.146734,41,77 
2018,4,20,22,19,31.086480,0.184080,100.293748,97.814777,139.017531,56.321809,24.325271,23,55 
2018,4,20,22,20,20.731920,0.324480,91.737920,88.186412,152.118892,65.918520,32.279595,51,94 
2018,4,20,22,20,33.651840,0.112320,80.973078,80.326478,140.119460,75.454819,23.586691,16,37 
2018,4,20,22,22,16.958160,0.280800,107.079223,102.174792,118.581516,53.552132,29.057176,43,85 
2018,4,20,22,24,30.431760,0.552240,100.705575,89.991116,139.317073,21.054036,20.904685,100,154 
2018,4,20,22,29,9.943200,0.343200,99.208663,94.380545,129.585955,62.842661,30.634093,52,110 
2018,4,20,22,30,1.551120,0.343200,95.413794,90.830566,126.295799,65.696768,32.661129,53,111 
2018,4,20,22,30,45.047040,0.196560,96.462729,91.921876,113.390297,43.793419,34.928930,26,54 
2018,4,20,22,31,44.632800,0.293280,100.420099,96.205399,54.190546,66.192982,36.661046,34,84 
2018,4,20,22,32,35.423280,0.234000,102.692953,98.129268,93.227707,59.797757,38.965211,34,67 
2018,4,20,22,32,47.372880,0.287040,95.591655,90.529082,155.665678,44.358433,23.860396,36,79 
2018,4,20,22,34,58.394160,0.352560,89.992578,87.414169,57.963857,73.080568,25.005716,44,111 
2018,4,20,22,35,15.023760,0.265200,93.867336,89.644380,141.349465,59.327346,30.735898,45,84 
2018,4,20,22,39,15.653760,0.318240,94.165411,93.044636,137.535123,84.387714,35.300200,45,99 
2018,4,20,22,39,56.494560,0.361920,96.654643,91.717420,128.224702,61.755360,30.831583,58,112 
2018,4,20,22,41,10.694400,0.177840,100.303682,97.121448,129.803364,61.529357,36.078190,26,58 
2018,4,20,22,41,13.536720,0.318240,101.828380,97.903391,53.391731,69.934694,35.025133,54,98 
2018,4,20,22,41,55.260480,0.296400,89.801568,86.260413,53.751769,56.475975,21.495274,50,96 
2018,4,20,22,42,2.336640,0.127920,96.234656,94.272463,122.508706,65.189731,37.154275,21,41 
2018,4,20,22,42,2.420880,0.127920,94.930822,93.014849,125.983239,65.124662,36.427516,19,41 
2018,4,20,22,42,2.495760,0.171600,93.800618,91.124061,125.902320,64.783070,35.434202,23,52 
2018,4,20,22,43,45.321600,0.258960,102.140368,98.180594,131.886499,68.787514,40.093114,29,81 
2018,4,20,22,44,42.685920,0.240240,97.684478,94.580087,45.908835,71.126504,39.471292,32,72 
2018,4,20,22,44,42.960480,0.131040,94.235866,92.630982,45.394819,71.466224,40.022695,14,42 
2018,4,20,22,46,42.665520,0.258960,103.217873,96.690686,76.186345,56.111528,45.261895,30,82 
2018,4,20,22,46,49.816560,0.221520,95.353200,92.820637,129.533678,69.056811,32.800934,26,69 
2018,4,20,22,49,15.002640,0.193440,94.546725,92.014717,141.997596,70.865076,35.859283,27,58 
2018,4,20,22,50,29.408400,0.277680,91.985563,87.841089,138.764671,63.120108,34.551376,34,88 
2018,4,20,22,50,45.024000,0.212160,99.486915,97.235641,143.369585,75.472467,42.570189,25,62 
2018,4,20,22,51,29.062800,0.249600,102.534764,97.757828,143.810512,57.679764,36.088414,24,62 
2018,4,20,22,53,25.860000,0.262080,93.030925,89.725815,122.328260,47.392207,19.118101,38,56 
2018,4,20,22,55,56.328240,0.230880,93.871859,89.573724,108.395168,50.995030,25.674952,35,72 
2018,4,20,22,58,39.654000,0.315120,89.816428,84.731559,164.686467,40.651663,21.655013,37,71 
2018,4,20,22,59,13.172160,0.209040,94.214472,92.448215,123.906943,71.638022,26.737556,29,63 
2018,4,20,22,59,22.266960,0.305760,91.493024,89.251280,45.827747,70.442796,23.838387,43,98 
2018,4,20,23,2,6.942080,0.318240,104.431285,104.370479,270.964419,83.019141,46.424919,35,100 
2018,4,20,23,3,17.241920,0.349440,97.959287,91.029662,42.548233,51.698376,32.190021,55,112 
2018,4,20,23,3,33.531440,0.277680,96.692658,90.503443,118.950980,54.931837,40.596405,42,84 
2018,4,20,23,4,4.222880,0.274560,108.941931,103.000955,54.866925,60.741761,43.264168,39,81 
2018,4,20,23,4,39.210560,0.268320,105.918840,100.268786,95.027838,34.239432,25.873977,45,82 
2018,4,20,23,4,46.564400,0.361920,99.508506,95.635794,167.827688,66.277091,26.549087,65,116 
2018,4,20,23,5,45.192320,0.134160,95.997300,93.132789,141.051704,45.049622,28.884403,21,41 
2018,4,20,23,5,45.317120,0.224640,93.305732,89.041754,143.104371,43.400592,27.912638,30,50 
2018,4,20,23,5,49.526000,0.240240,93.394486,91.322530,47.976934,78.194485,41.732007,32,77 
2018,4,20,23,8,46.901120,0.283920,107.571206,103.141959,103.887615,73.679164,52.791345,39,87 
2018,4,20,23,13,23.158400,0.274560,100.997151,95.874172,67.305786,55.947424,32.101337,41,80 
2018,4,20,23,14,56.599280,0.209040,99.414712,95.200805,140.897805,53.133012,32.517611,20,60 
2018,4,20,23,16,13.604000,0.340080,87.544457,82.952922,55.765484,51.028037,22.146204,47,107 
2018,4,20,23,17,21.975680,0.258960,91.055130,86.428823,123.593339,34.219127,21.704302,36,76 
2018,4,20,23,18,14.968880,0.243360,91.261057,86.905261,148.633765,51.584453,29.584116,36,78 
2018,4,20,23,19,53.766800,0.315120,103.625907,102.272738,41.815601,84.053223,40.050436,46,100 
2018,4,20,23,21,0.185360,0.124800,98.598025,96.775780,119.292539,61.323105,32.355447,21,39 
2018,4,20,23,22,16.896800,0.193440,93.424637,90.363142,133.046870,63.863087,37.576277,25,56 
2018,4,20,23,22,32.362640,0.202800,93.575663,89.572783,56.132254,59.346458,40.198252,34,64 
2018,4,20,23,25,29.687840,0.327600,89.416332,83.935695,143.268402,44.674965,23.606896,55,93 
2018,4,20,23,26,3.826880,0.215280,91.612748,88.024990,178.112462,42.147982,22.223367,30,23 
2018,4,20,23,32,37.985840,0.305760,94.154293,88.302184,152.187130,56.367097,36.601409,45,96 
2018,4,20,23,32,49.738880,0.249600,91.687526,87.020365,154.194662,52.928866,31.412019,34,75 
2018,4,20,23,35,5.224880,0.255840,114.050377,110.677143,109.905880,78.845793,59.534338,43,80 
2018,4,20,23,35,43.182800,0.333840,92.421828,89.460747,140.039813,72.539318,31.296632,56,105 
2018,4,20,23,36,35.355440,0.268320,105.106226,98.677181,132.746863,43.110336,32.729437,41,81 
2018,4,20,23,37,55.642400,0.215280,99.440367,95.921918,167.211006,56.883826,32.004338,29,68 
2018,4,20,23,39,1.621040,0.146640,102.072223,99.012073,129.267817,53.179193,34.794726,21,41 
2018,4,20,23,41,4.255760,0.143520,102.016425,98.698634,111.182559,67.012889,59.691191,30,47 
2018,4,20,23,41,17.936960,0.371280,97.138816,93.029695,44.374716,65.480158,26.914299,54,117 
2018,4,20,23,41,35.536880,0.234000,105.376102,101.520804,152.495020,58.106518,31.955571,30,71 
2018,4,20,23,42,1.916480,0.196560,93.199311,89.666033,129.755545,41.512598,24.428902,33,64 
2018,4,20,23,42,2.066240,0.124800,90.510715,88.281375,128.795120,40.792258,24.013237,22,40 
2018,4,20,23,42,23.878160,0.336960,101.386515,93.111760,151.797907,34.465534,31.054450,59,105 
2018,4,20,23,42,39.715280,0.268320,93.420713,89.159925,72.235352,58.111679,33.534612,31,80 
2018,4,20,23,43,9.202400,0.336960,102.048484,97.563080,64.886692,64.554034,31.264218,50,103 
2018,4,20,23,44,45.529280,0.255840,103.037022,98.781382,68.217376,60.819807,34.426183,38,82 
2018,4,20,23,44,54.571040,0.196560,90.896124,86.466450,48.948236,51.887935,36.864893,38,64 
2018,4,20,23,45,55.875920,0.252720,95.703250,90.718310,65.586231,51.169494,33.026734,37,69 
2018,4,20,23,48,25.504880,0.386880,94.152051,88.319642,49.632792,55.287395,28.005838,57,122 
2018,4,20,23,52,42.050000,0.268320,101.241148,96.335681,153.472955,58.618750,34.508949,43,84 
2018,4,20,23,52,51.141680,0.184080,102.601900,99.904349,153.335616,67.122163,40.248325,27,58 
2018,4,20,23,56,51.144560,0.237120,109.850910,107.738824,44.028017,77.532378,41.178410,36,77 
2018,4,20,23,57,0.470240,0.302640,97.771500,90.050902,64.195359,51.579348,42.142029,41,96 
2018,4,20,23,57,1.827440,0.330720,88.817545,84.275447,60.397625,55.120556,24.007393,46,96 
2018,4,20,23,57,14.479040,0.268320,99.302857,92.135957,139.571984,46.045728,38.985950,38,86 
2018,4,20,23,58,19.836800,0.084240,106.403382,104.091702,58.103408,49.695895,42.276023,15,28 
2018,4,21,0,1,24.450800,0.252720,98.076296,94.330134,160.661985,54.545820,25.469583,36,74 
2018,4,21,0,2,15.550160,0.162240,101.934137,99.216961,148.556812,63.483398,36.863928,24,51 
2018,4,21,0,3,11.916080,0.227760,92.302785,88.237173,134.621441,53.418812,31.769899,33,70 
2018,4,21,0,3,35.328560,0.180960,103.553126,98.000538,108.006834,36.337021,39.326239,31,54 
2018,4,21,0,4,1.770560,0.274560,100.415147,92.983342,78.284523,40.762239,34.721900,40,86 
2018,4,21,0,5,0.947600,0.349440,91.403939,89.277618,146.417144,70.181212,18.030098,51,94 
2018,4,21,0,5,47.997200,0.333840,92.114509,84.554400,150.473810,25.435605,25.644560,45,100 
2018,4,21,0,6,13.481360,0.240240,95.568001,89.254847,144.046314,40.246478,35.318603,34,70 
2018,4,21,0,6,25.986320,0.174720,93.776234,89.000954,102.317112,37.333232,38.695122,23,52 
2018,4,21,0,6,36.984320,0.318240,89.910140,85.906759,152.223761,60.025731,25.092862,47,102 
2018,4,21,0,6,59.220560,0.212160,104.829820,99.782594,115.005753,32.948074,27.855528,23,52 
2018,4,21,0,7,14.817440,0.377520,109.831556,103.021644,77.335031,47.036312,26.859023,67,119 
2018,4,21,0,8,26.168720,0.221520,102.918750,101.247614,96.155667,83.561326,64.076413,37,65 
2018,4,21,0,8,42.136880,0.312000,97.442886,91.787342,163.807558,50.073000,28.452977,38,99 
2018,4,21,0,11,36.017600,0.268320,100.409251,94.706669,132.841536,35.026181,26.362974,31,71 
2018,4,21,0,11,40.763120,0.312000,90.252471,84.999803,164.208309,50.305264,27.093562,55,68 
2018,4,21,0,12,7.613840,0.127920,92.505163,90.841037,132.782858,58.389277,27.407665,18,38 
2018,4,21,0,12,28.520960,0.249600,97.518570,91.090797,77.122185,57.073914,48.902757,38,79 
2018,4,21,0,13,36.824000,0.293280,99.219065,96.511228,34.807407,76.469873,38.446019,46,89 
2018,4,21,0,13,47.878160,0.237120,102.830403,98.908303,60.919436,70.009280,49.467563,32,75 
2018,4,21,0,13,57.097760,0.368160,109.421868,96.623748,103.975542,29.298324,39.783005,55,112 
2018,4,21,0,14,25.364960,0.255840,118.021712,116.052291,94.501576,82.071673,60.140951,41,82 
2018,4,21,0,14,41.448560,0.243360,84.644389,81.147112,179.914573,4.789087,16.477759,30,52 
2018,4,21,0,15,0.177920,0.190320,97.937002,94.744369,149.232651,59.584738,35.692255,27,55 
2018,4,21,0,15,23.546720,0.287040,103.350867,97.141871,69.354405,52.796868,36.809674,40,90 
2018,4,21,0,15,56.830880,0.127920,102.560230,99.357074,132.977451,44.212779,35.167669,16,42 
2018,4,21,0,15,56.908880,0.277680,100.594662,93.604003,133.298438,45.236530,35.647573,43,83 
2018,4,21,0,18,7.808480,0.287040,96.311121,90.122449,93.573850,55.260334,38.447039,35,90 
2018,4,21,0,20,2.924000,0.255840,103.155944,94.938873,104.145495,40.414338,42.918460,40,76 
2018,4,21,0,20,47.901920,0.361920,100.959527,94.689982,147.931200,43.297453,23.164077,50,111 
2018,4,21,0,21,15.005360,0.290160,102.782653,97.141476,166.744460,53.000448,32.704101,38,83 
2018,4,21,0,21,43.724960,0.283920,89.411960,80.610375,142.264865,21.273324,36.342987,45,86 
2018,4,21,0,21,49.131920,0.255840,100.254310,92.074634,125.092852,27.510592,37.378649,28,69 
2018,4,21,0,22,6.098480,0.199680,100.311544,97.338602,163.813859,67.681553,39.140537,32,65 
2018,4,21,0,22,12.478880,0.330720,102.160413,93.425170,161.843253,17.236909,28.322297,53,100 
2018,4,21,0,22,20.328800,0.368160,95.949257,88.346704,172.366465,49.419274,31.239860,58,117 
2018,4,21,0,22,34.643360,0.333840,92.425440,86.779123,170.449808,54.683374,28.913005,54,106 
2018,4,21,0,22,53.385200,0.171600,112.279222,107.845810,125.752661,64.331239,58.219759,21,46 
2018,4,21,0,24,8.833040,0.221520,106.833337,103.652505,99.892655,77.885529,66.268222,38,67 
2018,4,21,0,26,15.536240,0.258960,106.551234,103.149281,61.310969,69.545209,37.576867,42,84 
2018,4,21,0,27,24.790880,0.249600,100.324204,95.144992,57.580837,54.889567,37.092017,35,76 
2018,4,21,0,28,12.913760,0.287040,97.964378,89.340740,164.433054,35.646446,37.985487,47,84 
2018,4,21,0,28,18.745040,0.333840,120.616085,120.517643,144.157105,85.596450,28.213525,87,100 
2018,4,21,0,28,59.966480,0.333840,102.704907,95.750859,188.285662,42.768505,28.148753,50,108 
2018,4,21,0,29,3.679280,0.271440,91.700800,85.846499,176.420271,51.322316,34.585052,33,80 
2018,4,21,0,29,30.804560,0.249600,95.763792,93.163608,38.443178,74.945393,38.600907,26,78 
2018,4,21,0,29,46.747760,0.224640,97.045242,92.671941,136.073786,53.537472,29.519232,38,67 
2018,4,21,0,31,1.590320,0.321360,99.540157,90.410842,161.465147,42.084933,38.466472,45,100 
2018,4,21,0,31,14.223200,0.299520,108.715036,101.368607,74.950257,41.584888,34.757279,36,85 
2018,4,21,0,31,28.313120,0.221520,111.585664,108.352776,103.112987,77.153212,63.951412,36,69 
2018,4,21,0,33,19.441280,0.358800,94.176516,91.180225,66.218093,74.300210,31.438988,55,116 
2018,4,21,0,34,6.933920,0.249600,103.685414,99.951483,99.321279,75.156976,60.214636,33,76 
2018,4,21,0,35,47.738000,0.290160,102.190499,96.673700,37.070693,53.706650,32.494034,39,90 
2018,4,21,0,36,6.342560,0.271440,93.062041,88.857650,84.544853,62.637674,34.261775,40,88 
2018,4,21,0,36,56.924000,0.202800,97.707899,97.534640,104.007393,83.544321,27.856591,25,63 
2018,4,21,0,38,3.255200,0.371280,104.832084,96.886384,160.449000,44.327496,29.892768,64,118 
2018,4,21,0,40,19.025120,0.240240,109.454768,105.891407,97.067197,75.193085,57.243485,26,74 
2018,4,21,0,41,26.083280,0.156000,96.544348,92.216670,87.036429,60.089263,56.180628,20,51 
2018,4,21,0,42,44.526320,0.156000,100.861131,98.280214,138.750580,71.714856,54.797071,18,50 
2018,4,21,0,42,44.754080,0.124800,97.049757,94.923158,137.704380,71.739132,54.037205,19,41 
2018,4,21,0,44,15.986000,0.386880,94.325788,90.671117,31.653064,67.607779,24.844250,64,122 
2018,4,21,0,44,37.763600,0.190320,109.426582,103.780997,99.012244,62.219987,63.164568,30,59 
2018,4,21,0,45,2.006000,0.290160,99.226358,91.246719,66.215038,51.508189,45.466792,38,93 
2018,4,21,0,45,33.405680,0.202800,94.673038,88.498822,84.700761,35.163392,37.726947,31,61 
2018,4,21,0,47,0.871760,0.374400,94.588201,85.232156,163.239662,42.774705,34.139732,71,118 
2018,4,21,0,47,45.865280,0.230880,96.858353,91.803356,113.817088,65.860515,53.692160,30,70 
2018,4,21,0,48,5.655440,0.234000,97.315769,90.182529,135.000018,26.002422,34.477430,33,70 
2018,4,21,0,48,36.047360,0.215280,110.845615,107.387104,114.563977,75.227764,64.224201,23,62 
2018,4,21,0,49,52.194080,0.234000,94.818828,89.322427,93.297701,45.411161,34.357699,30,68 
2018,4,21,0,50,15.453680,0.249600,101.198433,97.529175,114.965714,73.568736,50.875388,37,78 
2018,4,21,0,51,5.089760,0.302640,91.283973,83.320961,52.654090,37.794075,33.787307,37,68 
2018,4,21,0,51,28.377440,0.243360,95.659025,91.213867,101.289432,69.277885,54.130044,47,78 
2018,4,21,0,51,49.496720,0.205920,93.944094,89.953300,170.773179,59.057196,38.048438,37,66 
2018,4,21,0,51,54.104960,0.265200,98.531149,94.138354,124.831715,68.388601,44.356028,41,83 
2018,4,21,0,52,45.432080,0.315120,91.434582,86.563750,144.012076,55.299691,25.621978,47,99 
2018,4,21,0,52,58.523600,0.218400,94.023410,87.125677,73.171894,39.242316,41.222312,33,65 
2018,4,21,0,53,55.507280,0.255840,93.034371,88.187967,176.777931,43.775389,27.357986,42,63 
2018,4,21,0,54,19.964960,0.196560,97.043066,92.070823,106.191172,50.939427,39.581379,20,53 
2018,4,21,0,55,35.228720,0.424320,110.099939,109.981370,122.246219,83.853901,20.169360,81,135 
2018,4,21,0,56,3.904640,0.205920,105.291709,100.022949,87.132253,41.538013,33.630444,34,65 
2018,4,21,0,56,8.996480,0.265200,105.090889,102.723838,90.951957,79.307184,47.624558,42,84 
2018,4,21,0,56,13.064960,0.330720,99.748754,92.152040,163.265961,54.541433,41.504467,54,103 
2018,4,21,0,57,28.684400,0.224640,104.809430,99.560272,59.508546,59.313172,46.174719,30,67 
2018,4,21,0,57,32.902640,0.184080,106.133251,101.690576,125.009388,62.049573,53.946826,27,58 
2018,4,21,0,57,43.956800,0.274560,108.259912,100.179786,169.612457,38.402134,37.168247,34,86 
2018,4,21,0,58,35.957840,0.283920,101.027646,94.652867,56.083792,60.201670,44.993215,43,90 
2018,4,21,1,1,41.058560,0.333840,96.396179,91.442043,163.717271,57.424011,28.453339,56,104 
2018,4,21,1,1,53.248400,0.393120,96.002146,85.244088,44.434119,16.158422,29.323658,58,122 
2018,4,21,1,1,54.536960,0.265200,93.895968,90.663749,126.246667,72.484381,41.291724,34,86 
2018,4,21,1,2,41.274560,0.327600,96.871794,90.390981,160.634521,56.712980,36.600463,49,99 
2018,4,21,1,3,41.986640,0.196560,105.216385,100.244123,111.483041,64.403673,56.227511,30,58 
2018,4,21,1,4,7.224320,0.396240,96.929653,87.815546,183.986874,43.450796,31.852368,60,127 
2018,4,21,1,4,22.490480,0.274560,92.478558,86.041128,113.967424,47.625126,35.085922,45,88 
2018,4,21,1,4,59.156720,0.190320,102.455688,98.710612,180.222792,58.218695,39.307685,31,59 
2018,4,21,1,5,30.372320,0.227760,108.136948,103.097088,141.722397,66.355083,58.410045,37,69 
2018,4,21,1,6,54.584240,0.302640,88.249443,82.050419,135.016075,34.866961,25.954469,42,66 
2018,4,21,1,8,35.603600,0.299520,104.507284,93.702362,75.453919,37.502918,45.761608,44,92 
2018,4,21,1,9,14.700320,0.243360,107.000101,103.983170,104.320963,77.592863,58.248275,29,76 
2018,4,21,1,11,45.103040,0.374400,91.953887,86.534500,165.662276,55.377018,25.705341,66,117 
2018,4,21,1,11,51.134000,0.199680,100.874216,93.424549,151.256837,15.771018,39.059429,33,64 
2018,4,21,1,11,52.828160,0.190320,89.669151,86.360344,170.918594,11.594995,19.402740,38,36 
2018,4,21,1,12,40.713920,0.252720,102.495876,98.970435,97.028766,73.245355,49.935473,37,76 
2018,4,21,1,13,19.888640,0.234000,101.278642,97.384139,120.775536,73.967985,57.963198,31,67 
2018,4,21,1,13,29.710400,0.268320,94.726011,88.307342,172.763413,51.367038,38.280864,42,86 
2018,4,21,1,13,42.028160,0.343200,86.814829,81.279640,188.489089,50.317077,26.169122,60,106 
2018,4,21,1,13,56.991680,0.137280,93.884066,91.081894,169.011773,49.970449,31.879379,26,43 
2018,4,21,1,13,57.113360,0.124800,91.403064,89.078759,171.465621,53.038689,33.434779,23,40 
2018,4,21,1,14,55.716320,0.215280,97.342027,93.170330,56.123122,66.131046,44.913296,33,68 
2018,4,21,1,14,59.900240,0.318240,105.487308,98.876585,187.610860,49.380503,32.742358,40,100 
2018,4,21,1,15,46.637840,0.224640,97.906485,91.531658,99.734754,55.654438,49.012598,29,71 
2018,4,21,1,17,16.559360,0.230880,108.550081,106.634923,137.196606,81.420880,57.590853,35,74 
2018,4,21,1,17,19.950800,0.224640,100.035899,96.337102,132.599424,66.575864,43.316852,30,68 
2018,4,21,1,17,23.545040,0.262080,92.337801,86.824177,168.494001,45.666299,31.199097,34,79 
2018,4,21,1,17,34.543040,0.343200,108.157105,100.112713,193.032575,49.244674,35.866559,51,103 
2018,4,21,1,17,44.729840,0.271440,92.594150,87.190906,161.913111,23.090305,23.672169,33,75 
2018,4,21,1,17,53.543840,0.349440,85.536139,79.689309,203.227193,37.124047,23.446258,48,108 
2018,4,21,1,18,4.126880,0.168480,96.352390,92.366975,153.646965,37.133317,30.482836,25,50 
2018,4,21,1,18,4.279760,0.227760,92.718860,87.363796,150.473362,36.887058,28.802778,37,67 
2018,4,21,1,18,32.403440,0.302640,94.486219,93.549002,191.849752,83.695516,29.127348,46,96 
2018,4,21,1,18,34.802720,0.221520,107.354987,100.290335,120.235936,59.376255,62.640663,35,69 
2018,4,21,1,18,37.757360,0.280800,94.482731,88.388393,30.477143,36.589598,26.638950,47,56 
2018,4,21,1,19,29.437040,0.215280,96.658178,91.785064,138.955863,67.706551,61.055472,30,64 
2018,4,21,1,19,59.482640,0.296400,95.897662,90.477363,65.869344,59.538212,36.965918,50,95 
2018,4,21,1,20,15.769040,0.340080,98.941223,90.630301,114.257279,48.234327,36.207316,46,110 
2018,4,21,1,20,24.804560,0.162240,106.376564,101.383203,93.967274,58.661718,58.942180,27,53 
2018,4,21,1,20,27.793520,0.240240,105.184892,99.921868,176.343943,52.777658,34.213107,37,73 
2018,4,21,1,20,42.170480,0.308880,96.017431,88.965645,186.861129,45.710829,32.423387,46,88 
2018,4,21,1,20,45.203120,0.287040,105.078097,99.146310,196.952909,43.871906,28.443370,47,92 
2018,4,21,1,21,4.200800,0.227760,109.569551,102.216775,73.104499,52.641405,53.001410,35,70 
2018,4,21,1,21,31.397840,0.318240,90.764617,85.329306,172.438736,52.419139,27.610928,38,90 
2018,4,21,1,21,32.171600,0.190320,102.237757,96.732320,142.797034,49.589473,42.894039,20,58 
2018,4,21,1,23,17.612000,0.177840,110.259776,104.971384,118.042890,61.613591,63.977702,21,54 
2018,4,21,1,23,50.200400,0.180960,108.128202,103.252678,111.714739,67.359944,67.331757,26,57 
2018,4,21,1,25,9.794720,0.227760,108.873184,101.084568,110.477754,58.670223,64.542853,36,71 
2018,4,21,1,25,33.282080,0.174720,97.203034,93.655539,168.332228,56.543456,36.458155,27,54 
2018,4,21,1,25,46.148960,0.365040,95.373239,88.301524,159.864671,57.064318,36.371512,52,117 
2018,4,21,1,26,20.553200,0.418080,101.969868,89.245950,103.736685,30.230586,36.387124,52,126 
2018,4,21,1,28,16.960400,0.174720,110.897147,103.819450,122.864173,50.381349,62.253656,20,50 
2018,4,21,1,29,12.462080,0.315120,108.204804,98.079285,131.397189,24.313823,35.716186,48,92 
2018,4,21,1,29,56.822240,0.184080,113.545831,107.029556,109.035704,54.261012,60.827742,29,54 
2018,4,21,1,31,32.927600,0.237120,105.024059,96.533156,110.265854,49.318524,54.852533,39,76 
2018,4,21,1,31,37.928960,0.209040,106.690706,103.648103,133.599203,77.200336,68.331036,30,57 
2018,4,21,1,31,51.270080,0.215280,105.692635,101.246695,100.789862,66.918462,54.042084,26,65 
2018,4,21,1,32,5.403680,0.249600,104.923765,98.300818,109.951346,62.243908,57.321650,34,75 
2018,4,21,1,33,1.083200,0.196560,107.969147,104.459531,117.314793,72.903803,61.135710,30,56 
2018,4,21,1,34,39.147920,0.190320,108.425964,102.608405,131.231317,57.211046,57.035361,27,56 
2018,4,21,1,34,57.977120,0.234000,100.865698,96.608556,109.232909,74.784162,60.677723,36,72 
2018,4,21,1,36,34.700240,0.218400,97.903678,92.447158,124.984170,24.276594,27.427901,26,65 
2018,4,21,1,36,47.885360,0.237120,103.621677,98.815593,107.819984,68.047482,56.217770,33,75 
2018,4,21,1,37,19.072880,0.221520,99.556496,92.979960,86.234128,58.440768,58.414544,34,65 
2018,4,21,1,37,28.941440,0.255840,108.584784,106.582628,129.776865,81.108096,57.107063,38,80 
2018,4,21,1,38,38.392640,0.312000,91.944305,86.407230,24.884810,48.195962,26.502610,40,98 
2018,4,21,1,38,41.088320,0.218400,105.882473,100.684631,104.967308,67.149193,59.339123,32,66 
2018,4,21,1,39,14.877920,0.146640,98.312165,93.550148,135.443057,56.166093,59.835963,21,48 
2018,4,21,1,39,34.618160,0.312000,100.947840,93.877779,112.147861,32.098773,26.689927,35,89 
2018,4,21,1,39,37.354400,0.212160,103.025144,96.053918,150.458829,17.253019,35.315861,25,55 
2018,4,21,1,40,23.574080,0.265200,101.986202,93.922066,143.351069,59.040094,59.098834,38,84 
2018,4,21,1,40,37.342640,0.221520,105.328763,99.946425,130.699039,69.491489,68.550007,31,66 
2018,4,21,1,40,39.345680,0.184080,111.867708,106.283189,128.893060,63.353255,62.061967,28,53 
2018,4,21,1,40,57.344960,0.343200,94.912682,85.203163,76.071079,27.684956,32.635653,46,102 
2018,4,21,1,42,30.242960,0.296400,102.672329,94.082952,130.505670,48.714668,43.863911,45,96 
2018,4,21,1,42,37.122560,0.305760,104.601320,96.136886,186.525361,22.776548,30.021174,40,88 
2018,4,21,1,43,12.490880,0.321360,92.586563,86.051363,177.530396,47.944649,30.986230,30,97 
2018,4,21,1,44,33.111680,0.227760,100.066691,97.641324,116.438144,79.642713,57.548963,36,72 
2018,4,21,1,46,6.961280,0.271440,104.920370,97.161252,106.550768,19.369438,30.830777,51,80 
2018,4,21,1,47,47.425280,0.296400,97.823243,89.120777,60.800169,28.875844,34.436118,48,91 
2018,4,21,1,47,57.421760,0.171600,104.322926,97.365797,122.318129,43.994918,54.924240,22,53 
2018,4,21,1,51,2.915120,0.430560,99.035022,86.248022,36.655077,27.728822,34.739173,75,133 
2018,4,21,1,51,37.256960,0.312000,95.900968,86.000558,111.475678,13.899562,34.403555,45,89 
2018,4,21,1,51,44.944640,0.283920,95.127092,88.994373,193.317964,51.563459,35.150974,52,92 
2018,4,21,1,52,6.219920,0.209040,97.465955,91.811037,116.013390,60.607885,52.370026,30,67 
2018,4,21,1,52,17.236640,0.227760,98.206172,92.909379,185.604619,47.944694,36.453309,38,72 
2018,4,21,1,52,30.399920,0.302640,94.363760,84.747439,87.384786,11.846267,33.653933,48,94 
2018,4,21,1,52,43.928240,0.308880,90.113931,84.017726,172.993822,34.878968,24.569505,47,100 
2018,4,21,1,54,6.408560,0.221520,95.994696,90.899491,67.380287,45.759346,33.835077,29,62 
2018,4,21,1,54,19.493840,0.159120,105.721297,99.100652,149.853424,26.089802,43.970554,19,40 
2018,4,21,1,54,20.760560,0.230880,107.656914,102.295546,107.881502,68.196711,60.404729,39,73 
2018,4,21,1,54,35.193680,0.230880,105.892663,98.614612,106.245796,54.527393,53.765129,38,72 
2018,4,21,1,55,4.284560,0.274560,100.281109,92.781149,101.582303,56.854451,50.753956,46,85 
2018,4,21,1,55,24.043520,0.327600,89.768945,87.356943,34.742109,73.212667,24.225988,52,103 
2018,4,21,1,55,37.309760,0.218400,102.891347,96.911029,139.113533,62.670239,61.810255,26,65 
2018,4,21,1,55,39.075680,0.187200,98.243969,90.663753,110.733732,46.101042,59.247456,24,58 
2018,4,21,1,55,40.960160,0.293280,90.651198,85.077817,33.474594,46.669765,27.291399,44,81 
2018,4,21,1,56,56.142800,0.349440,99.421635,86.516171,163.628025,13.151389,38.864957,42,106 
2018,4,21,1,57,6.591680,0.196560,103.841921,99.083330,109.912968,67.114747,57.843744,31,62 
2018,4,21,1,57,17.090480,0.171600,93.360801,89.844033,199.490395,50.141935,32.554072,30,53 
2018,4,21,1,57,24.469280,0.230880,99.581106,93.838577,112.192845,66.988703,62.348989,35,74 
2018,4,21,1,57,32.369120,0.165360,105.821675,102.389290,139.634689,70.363597,64.786468,28,53 
2018,4,21,1,58,1.076240,0.280800,83.678631,80.808490,142.759719,60.997668,24.503963,52,80 
2018,4,21,1,58,28.048640,0.190320,105.495622,102.968646,107.402503,75.613106,55.003341,33,62 
2018,4,21,1,58,49.121120,0.190320,99.019559,93.237861,99.485526,52.410778,48.544749,24,55 
2018,4,21,1,59,18.215120,0.221520,97.166048,90.546286,127.718390,49.675733,50.371473,26,56 
2018,4,21,1,59,32.457920,0.190320,101.248017,95.516022,99.826497,53.774439,50.188048,25,54 
2018,4,21,1,59,40.070720,0.174720,105.529425,101.489551,148.730525,65.434182,53.791455,23,56 
2018,4,21,1,59,44.329520,0.196560,102.652392,96.509800,127.800395,62.173379,67.330994,28,56 
2018,4,21,1,59,48.488480,0.315120,96.770181,90.972524,81.437768,42.749734,25.889387,42,95 
2018,4,21,2,1,23.134160,0.221520,106.448338,100.408769,138.665976,63.251185,60.239085,31,70 
2018,4,21,2,1,25.442960,0.137280,107.082051,104.657555,150.316429,74.092992,64.041574,24,45 
2018,4,21,2,1,41.373680,0.230880,90.652476,85.701995,51.391003,56.914379,40.693458,32,70 
2018,4,21,2,1,44.081840,0.340080,91.013245,84.059071,196.770758,38.927705,27.471208,41,100 
2018,4,21,2,2,1.772240,0.265200,94.402293,90.209370,164.418975,70.135267,48.273851,40,84 
2018,4,21,2,2,58.375280,0.346320,90.225385,82.198177,186.978202,18.374551,26.447124,49,93 
2018,4,21,2,2,59.757440,0.209040,94.234350,87.154842,61.375563,19.306399,36.828911,45,67 
2018,4,21,2,3,55.539920,0.199680,98.815352,95.578467,98.239418,75.155631,63.777925,29,58 
2018,4,21,2,3,59.745680,0.215280,107.828998,101.646251,110.944148,65.494513,67.023884,29,61 
2018,4,21,2,4,12.475280,0.240240,100.421390,94.006832,106.231867,59.627657,54.378016,39,74 
2018,4,21,2,4,27.806960,0.265200,97.864093,94.031901,188.581838,69.586815,38.979269,37,81 
2018,4,21,2,4,59.116160,0.293280,96.848190,90.177306,94.467325,58.123353,43.646227,44,91 
2018,4,21,2,5,1.883600,0.190320,98.135481,90.655364,83.635190,25.308290,43.860731,35,62 
2018,4,21,2,5,10.164080,0.268320,102.949907,93.565944,82.728387,45.375622,49.249913,41,82 
2018,4,21,2,5,17.215280,0.246480,106.084981,99.358503,115.196817,62.723192,59.573740,34,76 
2018,4,21,2,5,27.046400,0.221520,101.099267,93.964708,109.633249,54.106356,55.439651,31,69 
2018,4,21,2,5,27.782720,0.209040,103.591087,98.773889,159.972278,66.393329,59.428653,34,65 
2018,4,21,2,5,49.541600,0.215280,102.702467,98.082847,116.543217,63.395767,46.597883,32,67 
2018,4,21,2,6,37.290080,0.215280,110.139139,103.447743,109.125873,59.075869,58.137744,23,63 
2018,4,21,2,7,1.966160,0.193440,104.764735,99.224532,134.276695,62.134604,62.723291,23,61 
2018,4,21,2,8,38.243120,0.218400,98.075816,90.899297,108.151338,49.716909,50.573173,30,67 
2018,4,21,2,9,2.257760,0.258960,104.687812,98.264153,200.325114,42.431428,34.333882,29,69 
2018,4,21,2,9,13.842320,0.258960,107.490916,105.370044,148.931904,80.687313,51.885165,38,84 
2018,4,21,2,9,19.177520,0.227760,101.823880,96.399194,122.764693,64.035001,56.751697,34,73 
2018,4,21,2,9,27.601520,0.165360,107.497501,101.764721,123.581962,57.980368,67.422902,28,54 
2018,4,21,2,9,38.596400,0.277680,91.924953,86.473775,206.498567,51.894694,31.026130,43,88 
2018,4,21,2,10,37.526960,0.315120,87.424807,82.820811,192.806707,58.427128,27.916924,48,97 
2018,4,21,2,11,20.748320,0.168480,106.697298,99.954393,140.623173,48.464808,60.534282,25,53 
2018,4,21,2,11,24.052400,0.255840,98.427797,89.862825,86.889198,53.229842,55.801496,38,81 
2018,4,21,2,11,33.222080,0.209040,97.693762,92.414898,59.274493,55.202978,46.630897,29,67 
2018,4,21,2,12,37.512800,0.159120,114.163370,107.742314,125.661197,53.402950,67.010847,26,51 
2018,4,21,2,12,51.920960,0.205920,98.761488,92.727880,106.101300,62.028377,62.076802,31,65 
2018,4,21,2,13,42.003200,0.243360,107.191583,100.669253,154.914024,62.814217,60.188619,37,73 
2018,4,21,2,13,44.081120,0.305760,101.397361,91.334012,107.594906,51.289953,53.965002,46,96 
2018,4,21,2,15,42.435200,0.209040,105.712151,101.131355,148.205106,70.952533,66.919468,33,65 
2018,4,21,2,16,30.570560,0.308880,102.169093,90.874036,126.074623,42.104292,49.870593,46,99 
2018,4,21,2,16,52.585280,0.218400,109.187299,103.877586,110.756048,68.313721,62.097717,33,67 
2018,4,21,2,17,4.678400,0.196560,98.118232,90.130646,138.342112,38.909930,52.555467,32,62 
2018,4,21,2,17,28.184480,0.346320,97.747964,86.577637,67.601773,36.067176,41.257781,66,105 
2018,4,21,2,17,39.928160,0.283920,98.057787,86.586690,101.155207,25.077217,44.528652,41,89 
2018,4,21,2,17,44.417840,0.156000,108.597229,103.548070,143.792747,62.111837,68.548643,22,47 
2018,4,21,2,18,27.420800,0.193440,93.774360,88.710727,136.796724,53.536543,45.527210,30,59 
2018,4,21,2,18,36.946160,0.196560,110.547310,104.516849,124.279536,63.853563,65.150080,23,60 
2018,4,21,2,18,41.336000,0.212160,107.815413,102.099334,125.861628,62.339540,59.864534,21,58 
2018,4,21,2,19,21.886640,0.180960,108.120875,102.627771,110.992498,59.722720,55.936452,22,47 
2018,4,21,2,19,48.122720,0.146640,106.633489,101.771146,107.960589,58.729238,64.620238,17,47 
2018,4,21,2,19,51.233360,0.230880,106.525962,98.748893,129.076725,58.560213,64.269187,33,72 
2018,4,21,2,20,37.755680,0.312000,103.587406,99.607767,150.679352,75.260454,52.233550,44,98 
2018,4,21,2,20,57.158960,0.224640,107.185294,101.667954,130.970680,66.286011,61.817991,32,68 
2018,4,21,2,21,32.131040,0.227760,105.406601,97.587023,120.374424,57.352028,64.311378,27,72 
2018,4,21,2,21,43.915280,0.184080,101.275380,95.839414,125.846778,58.162190,54.687488,25,51 
2018,4,21,2,21,57.917840,0.215280,100.351046,96.562413,51.840868,58.922107,34.515465,27,67 
2018,4,21,2,22,2.248400,0.218400,102.507081,97.560480,116.392963,67.237749,56.995546,35,70 
2018,4,21,2,22,7.305920,0.221520,104.930688,99.961629,99.620958,68.762165,60.990804,32,66 
2018,4,21,2,24,25.234880,0.215280,103.041603,97.744312,120.228509,69.540345,68.149538,32,63 
2018,4,21,2,24,54.541040,0.293280,101.826462,93.256345,128.100014,47.592613,45.489155,44,92 
2018,4,21,2,25,55.568240,0.187200,107.161063,101.058055,133.273650,56.265123,62.029083,25,56 
2018,4,21,2,26,56.077520,0.218400,105.689625,98.409013,165.123813,50.059296,54.302142,38,69 
2018,4,21,2,27,15.733520,0.305760,96.953248,88.263313,148.381873,33.262992,33.995418,45,94 
2018,4,21,2,27,57.791120,0.215280,106.486670,99.722109,116.116503,59.310433,62.903343,33,66 
2018,4,21,2,27,59.513360,0.159120,103.516676,98.779549,86.910707,38.174967,39.216694,24,47 
2018,4,21,2,28,23.041280,0.174720,102.906687,97.512892,120.078992,57.206795,58.046951,19,49 
2018,4,21,2,28,50.269520,0.177840,107.078119,102.368118,129.373944,63.259589,62.842195,21,47 
2018,4,21,2,28,51.941840,0.249600,104.527315,98.486146,97.353681,59.666286,46.626891,31,79 
2018,4,21,2,29,10.359200,0.193440,102.032128,96.021712,118.854530,60.175330,64.566033,26,57 
2018,4,21,2,29,27.687680,0.218400,108.835063,104.009837,117.999169,66.764979,58.326080,27,63 
2018,4,21,2,29,29.537840,0.302640,97.480742,89.245344,63.429503,52.358335,45.721601,37,97 
2018,4,21,2,29,35.546960,0.180960,109.354309,103.500830,138.972364,55.846486,57.230270,27,55 
2018,4,21,2,29,46.226720,0.199680,105.225810,100.639267,159.822931,68.289868,59.816276,31,64 
2018,4,21,2,29,48.529280,0.312000,120.017007,105.996890,142.210139,44.315784,62.652317,50,100 
2018,4,21,2,30,37.628720,0.224640,106.990840,99.123843,126.547199,55.971544,62.555659,27,68 
2018,4,21,2,31,2.913200,0.196560,108.003893,101.854664,123.510148,59.951113,63.298226,31,60 
2018,4,21,2,31,14.628800,0.283920,100.271903,94.014724,190.152353,54.179758,38.535459,43,88 
2018,4,21,2,33,29.512640,0.159120,93.460554,88.796049,128.479282,59.742913,57.388352,24,50 
2018,4,21,2,33,57.836000,0.305760,93.016056,85.181839,187.167361,42.432355,35.298981,48,79 
2018,4,21,2,34,9.476720,0.212160,105.534735,99.692496,125.654753,59.575894,57.510267,26,62 
2018,4,21,2,34,15.595040,0.099840,95.855256,91.965168,135.322774,50.308914,63.392786,12,30 
2018,4,21,2,35,15.761120,0.299520,103.167066,94.522836,95.055976,20.178313,30.914397,47,92 
2018,4,21,2,35,43.195280,0.215280,103.224003,100.157130,124.813926,77.670156,67.667555,33,66 
2018,4,21,2,37,13.634720,0.321360,97.188023,86.589257,189.011753,14.391441,35.630460,46,98 
2018,4,21,2,38,27.775280,0.184080,112.544009,107.317113,124.203129,61.509536,61.176942,27,57 
2018,4,21,2,38,36.982400,0.190320,100.417715,93.125389,146.116473,50.380378,62.105842,20,59 
2018,4,21,2,39,25.657520,0.137280,94.710348,88.699956,147.645364,43.139446,59.736635,26,42 
2018,4,21,2,39,56.367680,0.199680,99.046145,92.772276,110.824553,51.891196,53.425187,29,56 
2018,4,21,2,40,31.505120,0.280800,97.031911,90.300072,203.130949,52.149123,39.477455,32,71 
2018,4,21,2,40,40.088240,0.237120,95.196450,90.677520,78.486173,56.322350,35.739134,33,70 
2018,4,21,2,41,1.485200,0.240240,108.190925,107.662020,156.897208,75.740715,41.770217,48,72 
2018,4,21,2,41,11.987120,0.230880,104.077921,95.649959,142.769664,48.542740,56.314264,29,69 
2018,4,21,2,41,14.994800,0.227760,111.330532,102.225075,131.410081,39.334604,51.604113,33,67 
2018,4,21,2,41,22.476560,0.159120,108.514071,102.350075,135.201398,49.778437,63.056918,30,44 
2018,4,21,2,41,41.449280,0.230880,104.487268,99.878963,122.867518,68.796626,52.507953,23,66 
2018,4,21,2,43,0.332240,0.374400,95.245305,88.430876,86.057062,49.922424,28.194680,53,95 
2018,4,21,2,43,21.523280,0.258960,100.602335,94.674942,120.121926,64.691949,53.987977,34,82 
2018,4,21,2,43,32.964320,0.202800,103.319339,97.876026,121.185543,59.529726,54.901459,29,62 
2018,4,21,2,43,46.633040,0.109200,109.284585,106.304841,124.167567,60.885559,56.797715,17,35 
2018,4,21,2,43,58.439120,0.190320,105.409294,100.141387,123.351189,58.837775,56.147495,25,57 
2018,4,21,2,44,22.687760,0.156000,106.854306,101.890491,117.845195,56.185330,57.129370,25,49 
2018,4,21,2,44,49.089200,0.149760,100.746717,95.128115,137.591440,54.349695,63.562381,24,47 
2018,4,21,2,44,57.622400,0.258960,104.589369,96.675880,117.534763,53.839358,54.514383,38,80 
2018,4,21,2,45,2.879600,0.224640,104.746946,96.170702,129.955568,46.998305,56.903414,28,65 
2018,4,21,2,45,8.720240,0.205920,106.314841,102.727909,136.161017,74.584176,64.594148,33,64 
2018,4,21,2,46,25.880960,0.209040,93.022202,86.708033,176.059928,26.104447,33.934154,39,66 
2018,4,21,2,46,45.037760,0.187200,103.841425,98.701953,114.220540,61.853841,59.260405,28,57 
2018,4,21,2,47,4.057280,0.205920,108.416803,103.322404,137.919018,64.190487,58.769985,25,58 
2018,4,21,2,47,29.525840,0.230880,107.155951,99.523466,129.742842,56.688323,59.437016,36,70 
2018,4,21,2,47,40.183760,0.162240,107.338993,101.368867,128.228731,43.501662,50.105858,21,46 
2018,4,21,2,48,4.058000,0.193440,107.633075,104.306791,126.535242,74.713091,63.191685,26,58 
2018,4,21,2,48,33.267440,0.230880,102.940714,95.340641,112.556350,49.317521,53.434437,31,68 
2018,4,21,2,48,41.404400,0.184080,108.753224,100.474105,124.755922,42.896970,63.529689,21,52 
2018,4,21,2,48,56.252480,0.187200,114.582190,106.677086,129.854567,49.484778,66.333776,24,58 
2018,4,21,2,49,9.050720,0.184080,99.515358,93.377326,151.061829,52.014755,56.745881,19,54 
2018,4,21,2,49,40.306880,0.268320,102.105318,92.637543,144.107877,45.901068,51.625761,35,82 
2018,4,21,2,50,0.193760,0.252720,102.601290,94.348527,117.272870,53.430089,55.900072,37,81 
2018,4,21,2,50,4.256000,0.146640,106.785443,102.607099,129.441926,57.351889,52.133939,18,38 
2018,4,21,2,50,18.227360,0.199680,109.952880,103.892626,101.941174,58.169225,58.686449,29,55 
2018,4,21,2,50,23.069600,0.246480,93.631497,88.747905,131.848230,61.092862,41.067547,36,76 
2018,4,21,2,50,53.140160,0.149760,103.256343,97.280001,105.866247,52.690074,64.844149,18,39 
2018,4,21,2,51,17.616560,0.184080,104.751193,97.546424,134.885981,52.803951,63.871338,23,56 
2018,4,21,2,51,33.581600,0.193440,101.089458,93.364174,82.445740,40.530787,51.249744,28,58 
2018,4,21,2,51,39.275600,0.196560,106.212079,97.616251,118.440729,42.457753,59.622897,34,63 
2018,4,21,2,52,0.410480,0.171600,106.340652,101.765315,124.778222,63.431002,59.706201,20,49 
2018,4,21,2,52,1.071920,0.124800,103.377697,99.533841,151.372357,65.592547,69.442244,19,41 
2018,4,21,2,52,5.720720,0.277680,106.118980,94.345347,130.360137,39.290900,54.909299,34,85 
2018,4,21,2,52,10.996640,0.184080,108.116528,101.985879,126.278896,58.537811,65.196482,28,55 
2018,4,21,2,52,20.880800,0.258960,103.375644,94.632482,118.125011,57.000577,60.641588,39,81 
2018,4,21,2,52,31.741520,0.184080,105.396853,98.085135,143.882923,53.338000,65.826278,23,57 
2018,4,21,2,52,50.714240,0.115440,106.353324,103.049494,123.860770,63.002887,59.410893,20,36 
2018,4,21,2,53,8.036480,0.349440,97.050304,92.027932,83.228991,60.628935,29.635591,60,112 
2018,4,21,2,53,11.197040,0.174720,105.625780,98.622257,155.764654,41.323916,54.360060,27,55 
2018,4,21,2,53,13.334240,0.324480,99.353850,95.095876,204.051767,67.422672,34.127976,49,102 
2018,4,21,2,53,19.078160,0.152880,106.533264,101.512113,127.303979,53.951929,63.233613,18,43 
2018,4,21,2,53,22.600640,0.134160,107.183672,102.751385,153.593333,52.674008,55.258013,17,44 
2018,4,21,2,53,30.987200,0.274560,96.682914,86.225039,115.156213,33.634431,46.030660,41,88 
2018,4,21,2,53,49.270400,0.162240,102.267856,97.998374,136.499845,61.262666,55.361170,20,52 
2018,4,21,2,53,51.554240,0.290160,89.679949,86.047820,160.323855,51.321306,22.909130,38,72 
2018,4,21,2,53,57.491600,0.218400,100.788960,94.384344,115.511921,64.304829,68.901434,33,65 
2018,4,21,2,54,30.953600,0.215280,105.541931,98.508749,122.343589,46.322267,46.572935,32,68 
2018,4,21,2,54,31.200080,0.177840,113.346984,105.834391,141.363337,46.510178,60.239689,26,53 
2018,4,21,2,54,43.252640,0.283920,102.592346,92.595740,102.388080,45.964042,51.522911,48,90 
2018,4,21,2,54,46.675280,0.224640,101.321524,94.043262,90.019507,53.871248,54.410515,36,71 
2018,4,21,2,55,3.254960,0.180960,111.819663,104.051546,131.358715,47.240192,63.586301,23,50 
2018,4,21,2,55,11.073680,0.227760,107.781340,102.748151,142.198650,68.924700,58.494576,32,70 
2018,4,21,2,55,15.357440,0.193440,100.880095,95.701853,139.473569,61.639265,57.059738,26,59 
2018,4,21,2,55,23.144960,0.149760,107.187147,102.591065,120.466816,62.279466,65.557478,19,41 
2018,4,21,2,56,1.505360,0.180960,107.594782,100.739737,135.421614,55.153764,68.476393,25,50 
2018,4,21,2,56,7.399040,0.240240,125.841355,114.473218,94.025969,15.099569,48.865021,38,77 
2018,4,21,2,56,18.294080,0.168480,102.545377,98.139702,95.888172,64.800744,60.579524,17,53 
2018,4,21,2,56,27.304640,0.215280,101.741753,93.845799,124.959925,52.837194,55.164362,23,59 
2018,4,21,2,56,48.402080,0.187200,106.558317,99.229084,135.113453,48.713876,59.143538,28,55 
2018,4,21,2,57,13.374560,0.230880,111.574733,101.441739,133.716561,46.708508,63.952440,35,69 
2018,4,21,2,57,31.442480,0.318240,92.254107,84.207495,205.637761,31.675934,29.713425,51,79 
2018,4,21,2,57,48.187520,0.143520,100.790438,96.155350,111.810271,55.038087,57.804686,19,46 
2018,4,21,2,57,49.341920,0.224640,103.793488,100.440974,172.522732,74.146666,55.484678,39,71 
2018,4,21,2,58,13.169360,0.199680,100.993335,92.673939,132.604290,42.728837,60.097148,23,60 
2018,4,21,2,59,26.286560,0.280800,97.653936,87.526057,59.860376,33.616051,44.158442,41,87 
2018,4,21,3,1,25.327520,0.230880,108.574136,100.994011,69.282679,36.504715,40.793810,47,70 
2018,4,21,3,1,26.416400,0.205920,102.140862,95.165125,140.290065,49.196776,50.572784,28,64 
2018,4,21,3,1,27.985760,0.168480,107.027461,100.269511,144.210312,53.618880,66.294915,18,51 
2018,4,21,3,2,5.622320,0.218400,107.042203,100.079931,120.513422,57.280692,59.366677,25,61 
2018,4,21,3,2,14.327120,0.131040,108.886467,103.922620,114.939231,51.969501,60.194162,22,41 
2018,4,21,3,2,21.450080,0.180960,105.011659,98.276991,70.970164,38.675214,49.252205,22,52 
2018,4,21,3,2,37.892480,0.184080,106.201678,99.965367,121.389595,52.575294,56.766685,29,56 
2018,4,21,3,2,38.500880,0.246480,104.815884,96.354159,112.277040,42.621683,48.497567,37,71 
2018,4,21,3,2,46.859360,0.209040,103.712805,97.819272,96.368593,52.250844,47.190635,30,64 
2018,4,21,3,2,50.350640,0.146640,107.754300,101.722321,128.132029,29.314810,47.527786,13,33 
2018,4,21,3,2,54.990080,0.368160,88.290614,83.297123,76.280075,57.166741,25.259445,48,118 
2018,4,21,3,3,12.146960,0.215280,106.581059,97.923594,132.357801,47.123783,57.381531,35,64 
2018,4,21,3,3,35.484560,0.168480,101.808718,97.715467,116.547023,69.271011,67.951590,21,49 
2018,4,21,3,3,37.231760,0.146640,107.823735,101.733342,153.935119,39.103362,54.402514,21,44 
2018,4,21,3,3,37.347200,0.121680,103.550575,98.698789,158.413283,39.248825,54.150805,14,36 
2018,4,21,3,4,6.999680,0.196560,102.992344,100.059196,154.758474,73.967751,53.073386,29,64 
2018,4,21,3,4,12.328640,0.305760,99.292810,91.427951,125.420336,51.003979,41.145145,53,98 
2018,4,21,3,4,18.596720,0.215280,102.678278,96.527492,118.972815,63.010163,62.954306,30,67 
2018,4,21,3,4,20.315840,0.137280,101.148268,98.163061,152.442830,66.919937,55.825007,18,45 
2018,4,21,3,4,23.510720,0.115440,103.035403,97.394763,130.524014,35.689554,60.635492,20,38 
2018,4,21,3,4,24.443600,0.258960,93.222927,90.155454,206.606429,63.019780,27.567681,44,83 
2018,4,21,3,4,25.760240,0.230880,102.109415,99.656655,160.268045,73.539949,46.972722,35,74 
2018,4,21,3,4,31.657040,0.209040,104.792024,99.394047,135.253931,64.697146,59.513511,27,61 
2018,4,21,3,4,32.733440,0.149760,100.606614,95.569940,136.856145,56.768111,64.553243,20,48 
2018,4,21,3,4,42.034160,0.283920,92.170698,87.967949,238.091418,52.464247,24.365053,55,66 
2018,4,21,3,4,42.926480,0.224640,102.902722,96.094021,146.084906,57.219118,56.056415,40,71 
2018,4,21,3,4,55.578080,0.212160,104.528555,96.893395,115.722710,46.770636,52.930101,39,63 
2018,4,21,3,5,12.416720,0.262080,100.294372,93.398493,50.374017,49.502560,40.930875,34,82 
2018,4,21,3,5,42.658880,0.193440,102.097409,94.995085,117.859334,54.768476,65.531830,24,59 
2018,4,21,3,5,46.702400,0.371280,94.027422,83.752304,80.611244,23.849691,32.329789,62,113 
2018,4,21,3,5,50.380880,0.227760,107.496149,99.401190,174.151817,22.107082,39.207249,30,58 
2018,4,21,3,6,5.959040,0.305760,98.263966,91.313243,204.091746,55.149075,40.788310,45,95 
2018,4,21,3,6,10.932320,0.258960,104.275596,94.699654,124.027878,55.072460,65.074602,36,83 
2018,4,21,3,7,3.454400,0.218400,99.320002,90.788350,176.818068,47.905800,59.122454,31,69 
2018,4,21,3,7,18.542720,0.162240,109.921744,103.533441,140.231965,52.204826,65.203849,20,50 
2018,4,21,3,7,18.995120,0.212160,107.521991,100.806378,161.141522,60.962273,64.656141,29,65 
2018,4,21,3,7,22.445840,0.187200,108.634313,103.445902,130.032553,66.037056,70.592350,34,54 
2018,4,21,3,7,32.330000,0.271440,115.715747,104.359201,104.259322,46.623341,59.995397,30,79 
2018,4,21,3,7,33.631040,0.168480,106.738747,100.375381,144.530738,52.736073,62.905913,26,53 
2018,4,21,3,7,38.554400,0.330720,104.719078,100.423637,212.465584,64.223820,29.252701,46,94 
2018,4,21,3,7,51.103040,0.140400,106.368341,102.360668,108.423755,57.767899,54.777334,22,43 
2018,4,21,3,8,0.275840,0.131040,107.014830,102.771418,134.193405,57.272014,58.433589,20,40 
2018,4,21,3,8,21.563600,0.196560,107.817313,101.359770,132.475656,55.175620,58.182958,37,60 
2018,4,21,3,8,31.035920,0.205920,105.188834,99.114969,125.197334,59.152561,59.496105,25,55 
2018,4,21,3,8,54.036560,0.205920,110.296717,100.771951,96.591681,19.572986,49.288088,19,51 
2018,4,21,3,9,6.160880,0.246480,98.715058,90.381637,124.877071,57.683202,64.766418,33,79 
2018,4,21,3,9,29.925920,0.180960,103.093276,96.269050,114.512540,38.736514,49.991668,30,59 
2018,4,21,3,10,7.955600,0.143520,98.572666,94.856098,130.762620,62.013104,57.436010,29,45 
2018,4,21,3,10,33.261920,0.171600,92.686743,88.229482,161.087859,54.863171,46.152317,17,46 
2018,4,21,3,10,36.425600,0.171600,101.382256,95.029353,113.923365,54.640564,61.591511,24,50 
2018,4,21,3,10,46.958720,0.274560,103.148258,89.830986,121.821405,19.894362,52.982141,41,86 
2018,4,21,3,10,55.442000,0.168480,107.424133,100.378806,137.206148,45.816155,61.318783,24,51 
2018,4,21,3,10,58.196960,0.134160,104.928220,99.477392,137.619094,41.013968,53.072013,15,37 
2018,4,21,3,11,1.682000,0.159120,108.166535,100.741312,132.608498,44.173531,64.351906,18,47 
2018,4,21,3,11,53.848400,0.137280,106.694290,101.980284,123.057455,58.837346,62.172841,22,41 
2018,4,21,3,12,23.132720,0.280800,96.963653,88.995065,71.474682,43.379740,40.346324,40,82 
2018,4,21,3,12,42.108560,0.230880,104.318666,97.171196,123.058769,60.730166,63.952008,41,74 
2018,4,21,3,13,2.996960,0.118560,98.405234,93.970514,131.845060,45.839717,55.109584,19,33 
2018,4,21,3,13,13.218080,0.131040,106.777164,100.963026,142.610604,45.380950,64.083223,18,40 
2018,4,21,3,13,24.013280,0.165360,110.529698,104.200257,124.685973,54.068959,65.643860,30,52 
2018,4,21,3,13,47.051360,0.224640,115.795301,107.082519,118.976733,43.182041,53.064216,32,65 
2018,4,21,3,14,35.848160,0.262080,108.677941,97.042462,144.086881,42.763568,61.731730,36,71 
2018,4,21,3,15,56.874560,0.202800,107.693981,99.939356,128.837968,50.304999,58.974083,25,61 
2018,4,21,3,16,7.981760,0.199680,105.759758,101.887353,174.321481,69.070819,56.443080,23,61 
2018,4,21,3,16,29.672000,0.143520,125.686626,120.794367,131.946370,58.464770,68.959062,21,46 
2018,4,21,3,16,45.206480,0.159120,103.728902,98.627756,122.506201,43.935298,45.535458,20,41 
2018,4,21,3,17,4.129280,0.196560,108.277238,101.161287,129.661399,54.376009,62.426252,18,59 
2018,4,21,3,17,14.918240,0.149760,107.368348,104.148370,108.548580,71.567295,67.249057,18,47 
2018,4,21,3,17,16.671680,0.081120,103.154432,100.234815,140.982031,54.794755,63.067672,11,27 
2018,4,21,3,17,16.768400,0.199680,99.620312,92.455999,141.381036,54.826916,62.690335,31,64 
2018,4,21,3,18,6.498080,0.280800,100.990638,94.793337,215.365659,43.745369,30.989539,42,88 
2018,4,21,3,18,7.792880,0.168480,103.501406,98.488863,119.296002,62.864629,65.076883,27,53 
2018,4,21,3,18,19.545920,0.143520,104.488729,98.470007,120.586330,46.191092,59.816434,20,47 
2018,4,21,3,18,22.269680,0.180960,109.454186,105.237047,157.092533,69.706396,70.936956,28,56 
2018,4,21,3,18,25.183760,0.365040,92.628703,84.910008,215.343046,47.280033,31.128826,63,118 
2018,4,21,3,18,27.473840,0.127920,107.251180,103.643962,127.575994,62.700036,64.272316,25,41 
2018,4,21,3,18,35.482880,0.168480,103.775190,95.554519,105.447422,27.364352,55.829798,26,53 
2018,4,21,3,18,42.527840,0.252720,91.867973,88.887041,194.952676,65.143590,28.532361,43,79 
2018,4,21,3,18,53.064080,0.246480,107.078242,95.569008,113.404074,41.027843,61.415467,46,79 
2018,4,21,3,19,30.164000,0.274560,98.996257,90.689919,134.308977,53.686672,51.540443,43,85 
2018,4,21,3,19,40.587920,0.124800,103.510066,99.580298,126.573695,51.337124,54.041529,14,33 
2018,4,21,3,19,46.054160,0.184080,96.177692,91.999345,89.783581,65.717075,56.297376,26,59 
2018,4,21,3,19,50.802800,0.177840,104.926486,98.796270,131.981179,47.901637,54.711563,26,56 
2018,4,21,3,20,1.089440,0.115440,102.679243,100.107186,117.755737,69.552172,63.292522,19,37 
2018,4,21,3,20,13.616240,0.127920,108.440372,103.699394,136.263448,42.290573,50.424440,17,31 
2018,4,21,3,20,34.754240,0.131040,102.940353,97.991823,113.256553,51.251014,61.854179,22,41 
2018,4,21,3,20,43.615040,0.227760,103.353255,99.694412,111.207092,74.485584,59.307715,28,66 
2018,4,21,3,20,55.864160,0.212160,105.439784,98.016232,161.755813,58.315829,66.270060,34,62 
2018,4,21,3,21,2.678240,0.196560,94.922073,87.435067,73.932342,34.359141,46.160658,30,61 
2018,4,21,3,21,9.220880,0.168480,103.632257,96.270071,100.355071,21.065660,48.485942,28,53 
2018,4,21,3,21,14.624720,0.230880,101.399145,96.398622,113.073733,68.295238,60.095167,29,66 
2018,4,21,3,21,16.743200,0.258960,103.123045,95.957309,109.611995,53.410379,46.027513,41,84 
2018,4,21,3,21,59.443520,0.174720,104.005214,97.736485,57.538562,35.795332,44.493768,31,55 
2018,4,21,3,22,7.471280,0.193440,107.028759,99.340970,114.822819,49.005063,60.279321,32,58 
2018,4,21,3,23,0.208640,0.262080,97.006970,88.756756,157.032375,29.807159,36.921941,33,80 
2018,4,21,3,23,4.654640,0.184080,105.499763,98.401490,123.012353,45.431242,55.177982,18,37 
2018,4,21,3,23,7.896320,0.131040,103.290533,97.997774,134.663043,48.626482,62.134764,18,43 
2018,4,21,3,23,10.857200,0.205920,99.058540,91.442361,140.001220,46.164454,53.605880,28,59 
2018,4,21,3,23,14.679200,0.156000,97.654054,96.484793,117.971667,82.413163,58.104654,18,51 
2018,4,21,3,23,21.767840,0.149760,105.538186,99.778239,138.461922,50.789169,60.855391,19,43 
2018,4,21,3,23,28.800320,0.283920,107.756864,97.487141,117.885870,54.344231,62.889769,42,83 
2018,4,21,3,23,45.414320,0.312000,101.534269,89.952569,39.918159,18.094108,39.966913,39,71 
2018,4,21,3,23,55.747760,0.171600,104.230269,98.105514,126.889474,48.530223,56.830462,22,45 
2018,4,21,3,24,4.140560,0.340080,100.406854,95.095754,61.463472,66.113173,39.265651,53,108 
2018,4,21,3,24,18.174320,0.190320,112.982860,108.325314,155.013636,68.939097,68.138280,31,62 
2018,4,21,3,24,18.395840,0.156000,107.762029,103.991731,153.825746,68.663585,67.441768,18,49 
2018,4,21,3,24,20.149280,0.237120,105.649363,100.011207,163.206684,61.741237,51.512879,31,70 
2018,4,21,3,24,27.163040,0.230880,113.704965,103.484398,92.530452,26.893861,51.008960,35,68 
2018,4,21,3,24,52.575440,0.149760,111.431307,104.748882,129.515035,41.668069,60.565715,20,43 
2018,4,21,3,25,1.108640,0.187200,100.923272,93.216989,121.263886,49.382307,63.954994,32,61 
2018,4,21,3,25,4.512560,0.190320,108.322342,99.745037,164.523491,37.100469,55.994557,34,57 
2018,4,21,3,25,16.849040,0.159120,107.033719,101.564990,120.661687,54.713072,62.691213,17,45 
2018,4,21,3,25,22.430720,0.209040,104.933723,98.528704,151.535106,55.643171,54.846690,38,66 
2018,4,21,3,25,34.645520,0.165360,99.279156,93.340316,137.845723,54.813756,63.086888,24,52 
2018,4,21,3,25,36.080720,0.184080,105.799890,100.198409,128.908727,60.726196,60.793769,29,58 
2018,4,21,3,26,0.426080,0.121680,108.627906,103.905352,130.117808,54.191889,64.368417,17,39 
2018,4,21,3,26,2.276240,0.184080,108.508152,99.349819,150.411854,34.322935,60.927509,26,53 
2018,4,21,3,26,9.960800,0.249600,104.718732,95.842103,145.868712,57.965110,67.682869,39,79 
2018,4,21,3,26,12.984080,0.193440,112.365667,105.811312,155.476577,53.610936,57.845858,24,50 
2018,4,21,3,26,19.139840,0.215280,103.703360,97.193668,119.280274,58.981949,58.019795,32,68 
2018,4,21,3,26,20.316080,0.234000,101.828482,92.906395,189.309836,20.700902,41.114395,29,66 
2018,4,21,3,26,21.716960,0.205920,108.082602,101.266035,129.607201,55.407924,58.805228,25,58 
2018,4,21,3,26,31.404560,0.249600,110.456945,100.021453,148.055344,52.807869,67.986930,39,76 
2018,4,21,3,27,13.125200,0.199680,104.417337,96.053994,147.011295,50.787097,66.522400,32,65 
2018,4,21,3,27,22.229360,0.156000,97.533565,94.112410,150.241495,67.058548,58.480151,20,50 
2018,4,21,3,27,23.171600,0.234000,107.682735,98.339358,101.606720,47.828679,60.274385,29,69 
2018,4,21,3,27,25.446080,0.199680,101.573447,94.897281,132.421999,53.473003,57.105351,26,60 
2018,4,21,3,27,31.171280,0.193440,105.409756,97.728543,123.110339,45.124626,54.526757,26,58 
2018,4,21,3,27,41.785520,0.209040,106.674048,99.706868,155.254525,56.878328,61.457184,27,64 
2018,4,21,3,27,44.306480,0.152880,108.062031,100.827844,152.099304,43.588297,63.788054,26,48 
2018,4,21,3,28,59.978960,0.268320,99.029911,91.767115,127.460182,53.395764,43.843113,34,80 
2018,4,21,3,29,1.017920,0.215280,108.488016,101.029687,134.138618,49.906309,54.336853,36,53 
2018,4,21,3,29,3.638720,0.156000,101.200232,95.079335,110.610941,46.633090,55.142907,20,47 
2018,4,21,3,29,10.792880,0.230880,105.326025,94.474721,130.470805,33.389468,54.339616,45,71 
2018,4,21,3,29,37.156880,0.209040,103.828915,96.670911,133.500060,53.659661,58.652398,21,61 
2018,4,21,3,29,59.414960,0.227760,106.327274,97.540948,135.167678,46.887774,57.434369,36,63 
2018,4,21,3,30,2.878160,0.196560,101.443249,95.872929,129.003274,63.025542,61.481659,26,58 
2018,4,21,3,30,3.165200,0.152880,104.137458,97.790817,148.525198,49.549566,63.172450,27,49 
2018,4,21,3,30,18.515600,0.196560,107.468745,98.586759,143.506013,41.234410,59.363549,27,54 
2018,4,21,3,30,34.393280,0.296400,105.197978,96.344178,230.142625,13.947810,31.633893,31,89 
2018,4,21,3,30,52.489280,0.146640,104.064867,98.827193,134.234871,51.676896,58.855788,21,47 
2018,4,21,3,30,54.311360,0.162240,102.399225,95.783964,139.471080,45.282734,59.626861,25,46 
2018,4,21,3,31,52.574240,0.156000,107.446841,101.157945,138.054133,47.757167,59.583917,28,45 
2018,4,21,3,31,59.413280,0.159120,105.989656,98.641181,133.586711,42.145705,63.739125,22,49 
2018,4,21,3,32,46.147760,0.143520,98.632220,94.427482,145.848528,60.180313,60.953386,25,46 
2018,4,21,3,33,7.148480,0.184080,107.151179,100.336532,133.947312,54.101784,64.249729,17,52 
2018,4,21,3,33,25.051040,0.212160,119.209856,113.907175,170.150755,66.881018,61.521064,25,67 
2018,4,21,3,33,26.601680,0.271440,104.910182,98.371127,148.104004,63.233472,52.954892,30,83 
2018,4,21,3,33,33.534320,0.140400,108.000371,101.924320,170.924490,42.003771,58.123182,21,42 
2018,4,21,3,33,42.831920,0.199680,102.753424,93.834658,148.461186,42.279740,61.690090,22,50 
2018,4,21,3,34,28.895600,0.299520,95.630414,92.191566,50.796289,68.642342,29.786623,49,97 
2018,4,21,3,34,41.397440,0.096720,100.340773,96.169670,149.290073,46.427504,62.858592,15,32 
2018,4,21,3,35,31.017920,0.190320,103.496013,96.272714,128.072325,41.254634,53.505815,31,57 
2018,4,21,3,35,36.178400,0.249600,107.659597,97.284074,125.515620,40.408413,54.058711,30,74 
2018,4,21,3,35,39.198560,0.218400,107.885637,100.106582,119.257896,52.189918,60.098762,32,65 
2018,4,21,3,36,5.930720,0.190320,106.447218,99.275162,186.119358,46.885212,55.167035,31,58 
2018,4,21,3,36,7.659200,0.134160,106.557809,101.883701,128.685666,59.114149,67.704348,16,41 
2018,4,21,3,36,14.978720,0.162240,104.539659,96.125563,151.363438,38.971477,64.632259,20,50 
2018,4,21,3,36,19.196960,0.127920,99.365314,94.411950,135.542127,42.409046,53.890005,10,33 
2018,4,21,3,36,19.708640,0.224640,101.535148,96.541755,105.909976,63.027888,46.733631,30,65 
2018,4,21,3,36,58.490240,0.134160,106.054720,99.725181,131.375598,36.645469,60.415075,21,43 
2018,4,21,3,37,11.107520,0.234000,106.658893,98.361615,150.129464,52.019660,59.093068,33,71 
2018,4,21,3,37,48.017120,0.187200,104.138060,95.317054,119.986778,45.718407,65.865010,21,53 
2018,4,21,3,37,49.171520,0.240240,100.819014,92.780287,75.131268,31.996037,39.545332,22,73 
2018,4,21,3,37,50.538080,0.149760,104.654165,100.477304,137.759068,63.848568,62.655908,20,46 
2018,4,21,3,37,59.236640,0.168480,99.299398,93.140650,136.498273,45.292010,53.762916,24,50 
2018,4,21,3,38,1.401920,0.277680,101.967958,97.997150,112.671469,71.629100,45.735608,37,90 
2018,4,21,3,38,11.136320,0.159120,103.169787,96.447115,156.066156,52.599839,67.841522,22,51 
2018,4,21,3,38,35.756240,0.240240,100.773014,94.593108,163.743339,57.543949,47.486936,27,73 
2018,4,21,3,38,36.776480,0.187200,95.324718,87.981839,184.106456,34.119355,48.725455,27,54 
2018,4,21,3,38,37.437920,0.218400,106.596720,95.959107,123.290514,34.646651,60.154315,33,71 
2018,4,21,3,38,44.386160,0.209040,94.435299,89.185734,125.222693,56.328559,45.809135,32,68 
2018,4,21,3,38,48.757280,0.146640,101.131845,96.533307,148.502588,54.521645,60.769653,17,39 
2018,4,21,3,38,53.821040,0.171600,104.856748,98.568507,130.728206,53.951625,63.094312,19,44 
2018,4,21,3,39,4.507040,0.177840,94.710476,89.305378,100.382854,54.232470,54.006195,30,57 
2018,4,21,3,39,8.350880,0.149760,94.103656,88.943654,178.083157,55.780779,60.567470,31,47 
2018,4,21,3,39,18.771680,0.199680,107.136839,98.853825,130.138121,40.927352,54.074426,24,52 
2018,4,21,3,39,20.350400,0.215280,108.658721,99.813183,132.881042,41.573673,56.942433,21,52 
2018,4,21,3,39,42.636560,0.205920,101.341692,93.862061,103.367501,26.166023,40.593679,33,63 
2018,4,21,3,39,47.744000,0.240240,108.257576,98.893924,157.325644,48.087760,57.887651,32,72 
2018,4,21,3,40,1.372160,0.171600,111.590720,106.106553,130.937804,55.431289,57.073967,21,53 
2018,4,21,3,40,50.059760,0.174720,106.898257,100.943422,141.432297,54.475900,57.594845,24,56 
2018,4,21,3,40,53.301440,0.152880,105.303278,100.677263,132.035142,58.732553,60.790258,19,49 
2018,4,21,3,41,9.356960,0.449280,103.286598,86.579403,89.891546,9.570774,38.690274,66,141 
2018,4,21,3,41,10.317920,0.115440,107.492954,101.218834,149.268990,28.388620,58.774886,16,34 
2018,4,21,3,41,13.915280,0.246480,105.407478,95.515464,131.352847,43.193215,55.512842,30,72 
2018,4,21,3,41,30.229760,0.327600,92.406400,85.563061,86.531528,45.140245,32.107043,48,98 
2018,4,21,3,41,46.466240,0.205920,105.305541,98.127288,123.513000,51.421137,57.369766,31,63 
2018,4,21,3,42,0.521840,0.127920,108.130443,103.593522,137.837191,59.819595,69.873001,20,41 
2018,4,21,3,42,28.021520,0.187200,103.484877,96.810520,67.408868,36.811575,46.295802,38,58 
2018,4,21,3,42,30.021440,0.224640,105.494247,96.484894,127.463585,40.537235,54.605475,28,64 
2018,4,21,3,42,55.883120,0.293280,91.605552,88.231722,214.736452,64.676184,28.103140,48,91 
2018,4,21,3,42,57.836240,0.196560,102.704298,95.040718,123.515009,49.008689,60.372381,29,59 
2018,4,21,3,43,1.024880,0.336960,95.874271,90.780783,216.581240,52.072176,25.718483,50,98 
2018,4,21,3,43,7.654880,0.280800,107.339665,96.968965,71.646542,26.524633,41.333661,43,90 
2018,4,21,3,43,12.653120,0.199680,102.612750,96.942477,132.252242,51.451646,46.799639,40,64 
2018,4,21,3,43,31.204640,0.205920,103.904124,100.655134,146.121925,73.527751,60.054621,24,62 
2018,4,21,3,43,57.796400,0.293280,103.396499,91.530314,123.135005,36.109034,51.033735,44,82 
2018,4,21,3,44,18.110720,0.252720,100.260402,91.425210,66.728906,23.940590,40.557101,40,79 
2018,4,21,3,44,30.681200,0.143520,107.002932,103.797814,142.341020,69.174027,61.886283,20,44 
2018,4,21,3,44,32.050880,0.134160,106.435962,100.988504,149.172124,51.088551,63.966783,20,39 
2018,4,21,3,44,34.662320,0.171600,102.292305,96.410369,117.319141,46.943477,53.050413,30,53 
2018,4,21,3,44,35.754320,0.199680,108.651874,104.625025,112.555892,71.452078,65.438533,40,64 
2018,4,21,3,44,43.891280,0.308880,100.831497,90.284128,103.858740,32.192558,41.196627,45,98 
2018,4,21,3,44,55.266800,0.187200,113.956511,108.214681,144.246827,52.419722,49.637667,22,56 
2018,4,21,3,44,57.148160,0.202800,109.009574,101.279015,136.114814,52.648945,60.766325,21,59 
2018,4,21,3,45,1.528640,0.177840,102.048415,95.796996,146.661246,48.235958,52.792060,28,57 
2018,4,21,3,45,26.460560,0.299520,87.282157,83.006852,230.519808,49.773374,23.441744,52,93 
2018,4,21,3,45,45.576800,0.230880,106.134241,97.420859,134.603840,46.458100,55.739982,25,65 
2018,4,21,3,45,46.899680,0.268320,102.600137,90.131178,148.067408,32.648021,56.468445,51,85 
2018,4,21,3,46,11.491520,0.143520,107.480872,100.568538,118.004153,33.787362,59.126352,20,43 
2018,4,21,3,46,20.620640,0.296400,102.819101,97.443433,47.736446,33.116061,22.209122,51,88 
2018,4,21,3,46,27.075920,0.184080,105.150970,101.114065,104.117979,68.947332,62.342284,31,58 
2018,4,21,3,46,46.753760,0.271440,99.863550,91.326287,129.882909,46.573204,46.215921,44,88 
2018,4,21,3,46,48.385520,0.171600,103.610819,97.154679,146.273008,45.333801,53.936690,20,48 
2018,4,21,3,47,0.188480,0.218400,96.452722,88.666149,101.008864,24.289937,39.806371,28,67 
2018,4,21,3,47,10.465760,0.109200,107.611090,102.943142,141.287893,49.123158,65.898014,13,34 
2018,4,21,3,47,32.514800,0.190320,107.942867,102.315095,121.051969,63.496563,68.336782,26,57 
2018,4,21,3,47,46.782560,0.196560,111.645981,104.955558,120.976622,61.528353,68.799632,27,61 
2018,4,21,3,48,17.358560,0.243360,105.560653,96.310217,137.111461,51.063589,58.486331,34,70 
2018,4,21,3,48,17.761040,0.174720,104.908566,100.784086,109.818015,62.128809,51.273453,25,52 
2018,4,21,3,48,25.492400,0.346320,86.140097,83.284761,239.716100,65.959719,19.239510,56,107 
2018,4,21,3,48,31.866560,0.290160,103.780309,94.084037,124.023054,53.262080,59.010420,43,91 
2018,4,21,3,48,37.763360,0.205920,105.793571,97.461170,133.371906,43.438987,55.595235,16,63 
2018,4,21,3,48,49.638080,0.168480,105.240573,98.340530,129.146010,38.898696,53.279192,24,52 
2018,4,21,3,48,56.034080,0.237120,104.968912,96.935558,157.594833,53.592070,59.382734,34,74 
2018,4,21,3,49,48.855680,0.165360,93.440307,87.641902,129.938471,45.201952,50.028704,24,50 
2018,4,21,3,49,50.596640,0.193440,101.075079,97.433046,150.995078,72.225987,62.522617,29,60 
2018,4,21,3,49,58.047200,0.196560,103.492598,98.560497,148.480967,61.452972,49.350046,19,52 
2018,4,21,3,50,34.938080,0.368160,100.393562,90.218917,343.909347,23.088226,30.247952,52,115 
2018,4,21,3,50,56.434880,0.312000,101.295129,97.365180,232.387724,53.690031,23.187820,38,96 
2018,4,21,3,50,58.247600,0.205920,119.750256,112.306181,171.498334,56.035401,64.323633,30,64 
2018,4,21,3,50,58.462880,0.255840,106.213680,96.648648,129.842912,50.966283,58.340977,35,78 
2018,4,21,3,51,15.217280,0.218400,103.660337,95.080050,114.383920,45.482397,58.292411,26,61 
2018,4,21,3,51,17.697680,0.249600,104.677602,93.330516,122.482051,42.287915,62.276007,33,80 
2018,4,21,3,51,40.564160,0.180960,106.382863,98.802892,152.631607,42.998069,59.752677,29,55 
2018,4,21,3,51,48.616880,0.209040,102.219138,96.019378,146.974630,59.660894,61.619179,28,64 
2018,4,21,3,51,53.590160,0.196560,108.836785,101.074739,137.248593,52.868862,64.767193,27,58 
2018,4,21,3,51,58.316960,0.221520,104.227757,100.986894,230.364763,59.328853,28.972751,32,63 
2018,4,21,3,52,2.756720,0.159120,108.332569,103.940276,125.004571,63.160343,61.328454,20,50 
2018,4,21,3,52,11.405360,0.165360,107.281854,100.830080,130.665196,47.728711,61.806377,22,45 
2018,4,21,3,52,26.911760,0.127920,97.802653,92.533576,151.328515,49.303710,64.863029,16,38 
2018,4,21,3,52,31.442000,0.090480,108.896928,105.822227,127.728219,58.489481,62.644127,11,26 
2018,4,21,3,52,31.610480,0.180960,103.339195,95.886075,135.106482,39.012362,53.931907,27,53 
2018,4,21,3,53,14.373200,0.240240,106.934599,100.669746,164.375052,65.816335,64.834962,35,74 
2018,4,21,3,53,21.324560,0.196560,104.339246,97.813719,160.132194,49.721242,49.195393,31,62 
2018,4,21,3,53,22.968800,0.215280,110.781326,103.875860,170.332224,57.137308,60.187754,34,63 
2018,4,21,3,54,21.368960,0.237120,98.904362,88.959679,126.622508,30.707676,50.288648,41,75 
2018,4,21,3,54,35.274800,0.137280,112.308139,111.213434,152.282199,80.537790,54.576083,22,38 
2018,4,21,3,54,55.704560,0.243360,106.883426,101.745760,150.100615,70.856903,64.312180,33,74 
2018,4,21,3,55,2.537360,0.230880,95.255365,87.995866,142.587819,43.976531,45.862525,32,64 
2018,4,21,3,55,16.742720,0.174720,103.541517,95.731837,134.070086,39.993435,59.194593,28,56 
2018,4,21,3,55,34.476800,0.234000,113.684248,105.518674,126.764891,54.210556,59.861589,39,71 
2018,4,21,3,55,40.348640,0.205920,96.466443,89.328589,144.352416,38.384577,46.753789,32,67 
2018,4,21,3,56,4.943600,0.221520,102.301808,96.067277,124.604738,56.553613,51.893835,35,68 
2018,4,21,3,56,16.568720,0.149760,108.164299,101.976153,133.529159,32.724062,49.969458,21,33 
2018,4,21,3,56,19.255040,0.246480,104.023882,95.837078,128.317418,58.893514,64.765759,32,72 
2018,4,21,3,56,29.198480,0.190320,107.663178,100.839845,144.216099,54.618154,64.508329,25,59 
2018,4,21,3,56,37.581920,0.174720,104.963077,98.787977,139.341545,53.564783,61.417904,22,46 
2018,4,21,3,57,11.234240,0.361920,99.314322,88.744010,99.446519,33.839093,35.781462,55,113 
2018,4,21,3,57,46.078400,0.218400,106.853379,97.956465,132.336916,42.822569,57.651746,27,66 
2018,4,21,3,58,10.919840,0.234000,107.811768,99.391259,139.145545,47.928018,54.288318,38,74 
2018,4,21,3,58,12.227120,0.324480,101.494588,90.840799,235.053593,14.936746,34.302760,46,95 
2018,4,21,3,58,14.198960,0.262080,97.314319,93.710959,101.745458,59.484526,26.777541,47,82 
2018,4,21,3,58,14.414240,0.143520,94.276282,92.303247,105.950441,58.455347,25.376380,21,41 
2018,4,21,3,58,21.867920,0.131040,106.990130,101.761502,132.542803,41.533385,54.662153,19,41 
2018,4,21,3,58,22.953680,0.152880,99.640198,92.868609,148.823637,37.071456,58.388294,24,49 
2018,4,21,3,58,31.006400,0.324480,101.150322,94.184086,216.448407,57.477390,38.529703,42,101 
2018,4,21,3,58,51.570320,0.171600,109.398025,104.733298,134.530752,64.010294,62.261665,24,51 
2018,4,21,3,59,7.173440,0.162240,105.947665,99.576364,128.878527,46.935026,60.749049,22,41 
2018,4,21,3,59,21.316400,0.199680,101.898599,93.808347,126.252478,32.380680,50.685576,30,55 
2018,4,21,3,59,36.903920,0.237120,103.694993,94.048761,151.301740,47.950703,59.984638,30,71 
2018,4,21,3,59,39.222080,0.246480,102.111546,91.491938,109.954973,15.669204,45.891177,31,77 
2018,4,21,3,59,39.515360,0.102960,91.088583,86.777163,118.269941,16.765853,44.029488,14,32 
2018,4,21,3,59,48.853520,0.218400,97.868739,90.145370,66.290215,38.139175,45.862615,23,71 
2018,4,21,3,59,55.333760,0.262080,106.200948,92.633480,140.227933,25.010719,58.821187,42,78 
2018,4,21,4,1,23.667680,0.171600,106.936129,100.818440,127.512283,53.217778,59.968318,23,49 
2018,4,21,4,1,34.774880,0.283920,97.709011,92.590750,208.072602,64.366899,41.331079,38,91 
2018,4,21,4,1,44.827520,0.299520,101.684125,96.366527,262.302175,50.314317,28.382686,43,92 
2018,4,21,4,1,45.498320,0.246480,98.198587,89.188673,152.804330,43.342808,51.046664,37,75 
2018,4,21,4,1,57.104720,0.349440,88.626439,82.196271,167.107332,46.578681,27.403498,58,110 
2018,4,21,4,2,9.188480,0.171600,104.024581,97.414034,139.960522,55.353375,67.691323,21,51 
2018,4,21,4,2,21.194240,0.162240,105.342230,102.022029,139.755230,62.436515,44.464895,24,49 
2018,4,21,4,2,32.351360,0.143520,100.310904,94.646142,129.315920,35.206116,51.642618,21,44 
2018,4,21,4,2,35.349680,0.230880,103.411998,92.758464,152.290771,40.550617,61.782335,36,72 
2018,4,21,4,2,54.746720,0.234000,104.496470,95.937717,133.285919,48.186921,55.070110,34,70 
2018,4,21,4,3,12.468320,0.330720,94.120674,89.384396,216.393955,64.987074,34.816877,45,102 
2018,4,21,4,3,20.733200,0.168480,104.505423,99.623319,139.908540,57.700239,55.453477,21,52 
2018,4,21,4,3,21.329120,0.187200,105.667441,98.318354,170.660402,51.219116,64.269423,25,59 
2018,4,21,4,3,41.343920,0.106080,107.428329,103.503384,136.959097,47.259556,55.706922,16,31 
2018,4,21,4,3,54.167120,0.218400,108.594756,100.843877,155.967733,54.274269,63.207870,29,60 
2018,4,21,4,3,56.220080,0.127920,103.940710,98.909384,120.924720,42.680265,55.337577,22,41 
2018,4,21,4,4,9.386480,0.262080,106.229000,94.665969,144.989110,40.257098,58.246979,45,82 
2018,4,21,4,4,15.716960,0.202800,105.976911,97.764020,132.068630,39.314913,54.016926,29,57 
2018,4,21,4,4,30.162560,0.209040,109.241845,102.821236,144.024025,59.198103,60.027620,33,65 
2018,4,21,4,4,49.628240,0.255840,103.680441,93.178391,130.749152,38.409324,52.864386,39,80 
2018,4,21,4,4,51.618800,0.165360,101.528640,98.117085,135.092287,71.421932,64.457633,18,51 
2018,4,21,4,5,9.908240,0.246480,103.950651,91.998945,113.281892,26.169690,56.681800,27,76 
2018,4,21,4,5,11.568080,0.168480,91.888832,88.326510,214.475569,59.402117,41.271982,29,53 
2018,4,21,4,5,37.804160,0.202800,99.310807,93.631733,143.892261,50.561546,44.241941,30,65 
2018,4,21,4,5,38.999120,0.209040,105.540891,97.917571,149.457721,58.814353,70.006080,25,62 
2018,4,21,4,6,0.761120,0.134160,99.696269,94.039320,128.550578,47.754077,61.993117,20,40 
2018,4,21,4,6,13.381520,0.215280,104.918299,100.050482,146.492243,68.021436,56.752051,29,67 
2018,4,21,4,6,29.774000,0.202800,105.842176,97.183587,143.789948,40.324774,55.484109,28,55 
2018,4,21,4,6,38.600480,0.131040,96.023947,91.529747,144.456123,51.631808,57.016355,24,43 
2018,4,21,4,6,50.606240,0.371280,106.311494,106.287313,133.631979,87.756851,18.324775,61,114 
2018,4,21,4,6,59.966240,0.246480,103.645045,93.159455,81.456646,8.709150,43.777809,30,74 
2018,4,21,4,7,12.748880,0.205920,112.723761,104.398150,123.594409,44.339660,56.533965,31,62 
2018,4,21,4,7,20.923280,0.218400,108.234209,103.349463,142.809066,69.386366,61.563372,30,67 
2018,4,21,4,7,27.241280,0.193440,108.431762,102.531969,145.607020,64.060813,64.874439,20,57 
2018,4,21,4,7,36.161360,0.121680,103.858989,99.530867,128.773412,36.307517,46.198815,14,33 
2018,4,21,4,7,43.533920,0.127920,102.791061,97.886356,142.324349,54.421551,63.512728,24,40 
2018,4,21,4,7,50.276240,0.224640,106.993067,101.087770,130.666467,67.673782,67.770432,35,63 
2018,4,21,4,7,54.076400,0.156000,100.200701,93.212851,68.301241,19.564112,49.188049,28,49 
2018,4,21,4,8,6.250640,0.193440,109.463728,103.475046,117.982574,59.314811,61.079316,24,57 
2018,4,21,4,8,35.572400,0.227760,105.027890,93.647457,151.947032,33.991115,61.306719,33,70 
2018,4,21,4,8,39.185360,0.159120,100.844578,93.656574,137.213406,34.565873,53.356429,15,40 
2018,4,21,4,9,7.761440,0.215280,102.034497,98.095516,150.490727,71.046663,57.628363,27,63 
2018,4,21,4,9,17.901440,0.249600,105.779873,94.966039,130.564750,36.891979,55.436275,31,76 
2018,4,21,4,9,49.410320,0.209040,105.791155,99.245965,138.238453,55.968145,59.466297,24,55 
2018,4,21,4,9,51.744080,0.159120,101.624373,95.512601,148.038410,41.809528,53.113998,14,38 
2018,4,21,4,9,54.202640,0.152880,106.195986,100.337500,144.746666,55.793892,68.595648,20,46 
2018,4,21,4,10,1.871600,0.168480,110.235938,102.947923,160.009269,50.501610,67.051237,17,47 
2018,4,21,4,10,9.506240,0.290160,100.127481,91.238768,86.983884,33.419104,38.682847,50,91 
2018,4,21,4,10,15.181520,0.202800,109.465929,100.188571,162.326577,44.005765,66.358220,23,49 
2018,4,21,4,10,19.917680,0.152880,102.304860,96.513242,149.164289,51.937599,62.542273,16,46 
2018,4,21,4,10,46.082000,0.131040,98.746247,92.822172,160.747730,38.073847,56.187547,18,41 
2018,4,21,4,10,52.106720,0.146640,102.095527,98.547558,142.068907,67.773095,62.656175,23,46 
2018,4,21,4,11,2.976800,0.162240,105.004662,99.020113,142.727349,46.658463,54.318329,27,50 
2018,4,21,4,11,13.718960,0.202800,107.697525,99.558804,142.855786,44.984195,55.605521,25,58 
2018,4,21,4,11,29.206640,0.268320,96.765561,94.489019,218.837277,74.537036,31.372265,37,81 
2018,4,21,4,11,50.241680,0.177840,101.839874,94.233246,136.460895,37.791458,54.189059,29,55 
2018,4,21,4,11,52.466240,0.165360,108.627691,103.084940,129.896579,58.260942,64.636134,20,46 
2018,4,21,4,12,20.368400,0.106080,105.297032,100.047400,122.865477,29.687921,58.475226,14,35 
2018,4,21,4,12,21.282560,0.124800,99.025881,93.737676,133.980989,23.323608,47.303470,17,34 
2018,4,21,4,12,38.005760,0.255840,106.155936,98.146422,162.572489,54.330080,55.075011,31,77 
2018,4,21,4,12,58.600880,0.152880,102.067259,95.627791,141.950865,51.210972,62.939605,25,48 
2018,4,21,4,13,15.311600,0.134160,108.896265,102.999594,136.022638,49.354134,67.291408,17,39 
2018,4,21,4,13,18.690560,0.171600,107.574102,99.194844,127.513048,35.311639,61.793087,16,47 
2018,4,21,4,13,24.234800,0.227760,103.008394,95.663280,149.863879,59.032040,60.736746,42,73 
2018,4,21,4,13,41.288720,0.240240,108.455363,99.240301,129.002633,52.542795,62.332294,31,72 
2018,4,21,4,13,48.645680,0.152880,108.436095,100.242193,172.117509,25.703473,60.108347,22,47 
2018,4,21,4,13,57.478400,0.177840,104.915280,99.345961,150.555227,57.304030,59.475163,25,55 
2018,4,21,4,14,15.268640,0.237120,104.347617,98.893394,109.302587,66.988976,58.360015,35,74 
2018,4,21,4,14,35.770160,0.196560,106.767406,100.796721,146.222994,59.550753,61.647630,34,62 
2018,4,21,4,14,40.007120,0.230880,107.111398,97.245566,139.759690,47.764656,64.067050,22,67 
2018,4,21,4,14,52.933280,0.255840,103.141679,89.919998,176.893659,22.679361,56.754394,31,77 
2018,4,21,4,14,54.390320,0.221520,108.880361,101.260946,149.754183,56.059992,60.303207,30,66 
2018,4,21,4,15,3.634880,0.255840,106.892956,96.569487,99.535758,26.243173,45.260681,37,78 
2018,4,21,4,15,19.674800,0.168480,104.292748,100.881437,152.306071,65.067401,50.769932,30,52 
2018,4,21,4,15,48.194720,0.218400,107.204975,97.100616,169.626638,41.468233,61.866626,34,70 
2018,4,21,4,16,7.139360,0.140400,108.093853,102.619473,133.547976,44.568273,54.833469,24,46 
2018,4,21,4,16,11.900480,0.227760,105.729103,100.316275,154.502524,60.155421,46.675430,36,70 
2018,4,21,4,16,17.650640,0.296400,96.783740,86.233459,126.977600,24.748434,40.160459,51,92 
2018,4,21,4,16,35.893280,0.212160,123.313084,116.733447,143.845653,62.911597,68.025286,39,65 
2018,4,21,4,16,37.784000,0.124800,101.853841,101.500394,159.426116,87.425557,67.336341,22,40 
2018,4,21,4,16,39.443840,0.205920,106.090733,97.534357,146.619196,37.505156,53.949205,22,56 
2018,4,21,4,16,46.204880,0.109200,122.967958,118.193715,157.975473,38.725076,57.827359,21,35 
2018,4,21,4,16,58.385360,0.165360,99.772502,95.147719,153.003444,58.573891,58.661293,25,53 
2018,4,21,4,17,10.281920,0.230880,95.372801,88.207257,121.458307,27.064201,35.397692,36,73 
2018,4,21,4,17,31.454240,0.268320,85.465530,79.836376,310.766707,16.187670,22.348766,37,82 
2018,4,21,4,17,48.689120,0.218400,114.525532,104.375948,144.487894,35.990011,57.142362,31,66 
2018,4,21,4,17,49.743680,0.184080,110.569681,101.233270,136.953066,38.048985,63.682845,25,55 
2018,4,21,4,18,22.098080,0.193440,111.092963,100.887655,124.590444,15.332244,55.522232,31,60 
2018,4,21,4,18,37.189520,0.227760,106.649853,102.527458,145.934247,71.880312,62.477072,32,74 
2018,4,21,4,19,13.063280,0.215280,109.988788,101.402976,135.322292,51.964095,66.515205,32,65 
2018,4,21,4,19,16.925840,0.252720,105.441653,97.602106,110.338258,56.532931,54.680433,36,78 
2018,4,21,4,19,19.465520,0.165360,112.607142,106.583246,114.418777,55.046362,63.009632,24,51 
2018,4,21,4,19,38.875040,0.221520,106.896595,97.501387,142.156339,43.643326,57.734345,33,68 
2018,4,21,4,19,41.186960,0.190320,107.221145,98.552201,136.458661,33.619140,54.440514,23,57 
2018,4,21,4,19,52.640480,0.393120,82.381786,81.111675,94.327299,80.197955,16.972566,62,125 
2018,4,21,4,20,26.492480,0.187200,99.371273,94.748172,122.307539,65.776091,59.299988,23,60 
2018,4,21,4,20,30.461120,0.277680,107.816288,97.561418,88.332356,16.064409,38.553380,44,81 
2018,4,21,4,20,32.005520,0.227760,102.452381,96.746008,122.444526,62.834545,58.833116,26,66 
2018,4,21,4,21,2.834240,0.224640,105.770555,97.585186,131.342658,51.075618,59.220996,37,70 
2018,4,21,4,21,5.136800,0.177840,102.823077,94.402384,131.728954,44.186163,66.883570,28,54 
2018,4,21,4,21,9.092960,0.159120,103.556630,97.453033,147.156125,49.097478,60.005787,24,51 
2018,4,21,4,21,18.530960,0.168480,114.236204,107.193233,158.504160,50.241442,66.342252,24,49 
2018,4,21,4,21,20.353040,0.115440,96.838606,91.903618,144.704700,42.334482,61.561394,19,36 
2018,4,21,4,21,24.390320,0.190320,109.876246,101.058470,151.676310,39.327415,60.911296,28,51 
2018,4,21,4,21,43.983920,0.252720,96.401188,91.293442,61.056565,50.316422,31.068274,40,77 
2018,4,21,4,21,49.596800,0.162240,105.697712,98.133314,173.249403,40.150203,61.054873,21,47 
2018,4,21,4,22,1.156400,0.227760,107.008361,96.355699,151.000716,39.956007,61.739610,32,71 
2018,4,21,4,22,14.878160,0.131040,103.468011,98.868215,143.098601,57.493849,64.015211,18,38 
2018,4,21,4,22,25.957280,0.159120,101.484773,96.039165,138.314651,55.715783,61.336641,21,46 
2018,4,21,4,22,48.620960,0.156000,108.250566,100.496274,149.133100,34.994006,58.501263,24,47 
2018,4,21,4,22,53.260400,0.180960,100.643260,93.201150,110.129597,38.229802,54.154098,24,49 
2018,4,21,4,23,2.211680,0.399360,92.847426,86.010471,174.976529,25.217053,19.277046,69,111 
2018,4,21,4,23,24.266960,0.137280,109.870115,104.424585,155.699577,52.255588,64.289887,24,42 
2018,4,21,4,23,36.581600,0.168480,100.317614,93.739929,163.029146,41.493025,53.004977,23,53 
2018,4,21,4,23,41.024480,0.127920,105.590376,99.125489,159.012414,19.783289,53.043600,22,41 
2018,4,21,4,23,45.991520,0.271440,104.269332,95.384351,146.253960,41.906175,44.779380,56,82 
2018,4,21,4,24,11.032640,0.180960,99.493939,91.439932,136.520629,27.690736,50.219286,31,57 
2018,4,21,4,24,35.565200,0.193440,102.037047,94.051799,136.256343,46.789324,61.773893,21,57 
2018,4,21,4,24,36.909920,0.156000,101.884349,95.415021,157.076972,44.214774,56.970958,24,51 
2018,4,21,4,24,37.324880,0.237120,96.824220,94.068796,220.671295,73.290181,41.430879,43,75 
2018,4,21,4,24,46.828400,0.143520,105.629140,101.187763,145.952443,62.141205,63.557919,24,41 
2018,4,21,4,25,1.295840,0.224640,100.182855,92.074328,12.101106,9.231989,36.330193,30,63 
2018,4,21,4,25,34.027760,0.324480,104.707027,90.515022,129.529143,24.032183,47.888610,35,96 
2018,4,21,4,25,41.103920,0.224640,107.890378,98.489328,118.979049,49.720527,65.840351,29,71 
2018,4,21,4,25,53.003600,0.199680,100.841697,94.525876,136.362967,59.811009,65.144306,24,62 
2018,4,21,4,25,56.888000,0.243360,99.760907,97.027418,118.149531,75.009436,47.106862,34,76 
2018,4,21,4,26,11.115200,0.149760,106.071663,100.779321,142.706567,45.583267,55.093937,23,43 
2018,4,21,4,26,51.082400,0.196560,110.293034,101.671678,161.661431,47.244817,64.726306,32,62 
2018,4,21,4,27,5.141120,0.212160,102.880881,94.160420,349.287068,8.059717,41.886422,25,57 
2018,4,21,4,27,9.715040,0.209040,108.488934,99.420295,149.678326,45.043514,62.206253,35,66 
2018,4,21,4,27,14.114240,0.134160,99.294075,94.051092,147.747229,50.294539,60.998823,15,43 
2018,4,21,4,27,33.679760,0.227760,116.387586,112.787411,165.383705,75.770792,64.641521,34,72 
2018,4,21,4,27,43.517120,0.283920,98.820222,95.494066,223.743120,74.412988,42.881128,46,90 
2018,4,21,4,27,45.142640,0.246480,103.546239,92.838919,146.970535,40.516494,56.963171,31,69 
2018,4,21,4,27,51.863120,0.196560,98.165700,92.648955,176.272061,64.732427,65.542010,25,60 
2018,4,21,4,28,33.006560,0.177840,104.152100,95.597527,155.202203,45.724121,70.190500,22,54 
2018,4,21,4,28,33.293600,0.180960,106.643549,96.512304,157.253159,34.852318,67.078802,27,53 
2018,4,21,4,28,35.203040,0.224640,102.010884,97.508190,107.895059,69.156925,55.503116,34,56 
2018,4,21,4,28,39.851840,0.305760,104.656873,100.930062,233.514619,61.310541,24.827252,36,75 
2018,4,21,4,29,18.025040,0.355680,108.362106,104.160989,246.391133,65.286798,28.995138,51,114 
2018,4,21,4,29,24.140240,0.252720,118.607373,105.244105,144.768789,29.270238,60.507408,38,76 
2018,4,21,4,29,26.115200,0.196560,105.852529,97.907733,125.140895,50.205296,63.725631,32,62 
2018,4,21,4,29,37.128800,0.215280,110.729736,100.623543,137.721180,43.444329,66.067081,23,62 
2018,4,21,4,29,43.736960,0.218400,103.836676,95.138494,145.568545,44.754116,57.818868,35,65 
2018,4,21,4,29,55.343360,0.262080,105.259097,94.047923,101.060456,41.108755,58.293632,41,80 
2018,4,21,4,29,57.677120,0.280800,113.464927,101.137674,110.419319,44.678138,62.013759,46,88 
2018,4,21,4,30,1.402400,0.234000,100.485924,91.383912,165.237336,39.521662,51.609961,33,71 
2018,4,21,4,30,10.547120,0.205920,103.127170,99.338792,145.941982,68.782168,53.251748,37,65 
2018,4,21,4,30,14.341040,0.280800,97.480492,95.598574,267.994822,66.862168,18.638597,44,90 
2018,4,21,4,30,27.953600,0.230880,104.420534,100.068072,57.178925,55.253485,32.838960,32,67 
2018,4,21,4,30,42.286880,0.180960,101.973867,95.660090,149.825374,50.983394,54.525820,19,51 
2018,4,21,4,30,52.068080,0.121680,103.495505,99.530449,132.940709,62.189038,67.250508,22,40 
2018,4,21,4,31,4.523120,0.199680,105.859798,98.790231,131.352315,49.404747,53.794046,25,59 
2018,4,21,4,31,12.260720,0.277680,98.119679,90.784033,158.661206,57.540066,48.472905,48,88 
2018,4,21,4,31,16.628720,0.240240,106.800304,94.792539,141.611979,40.703155,65.351488,36,73 
2018,4,21,4,31,19.511600,0.127920,105.925943,100.458823,139.945338,39.198498,55.327104,13,37 
2018,4,21,4,31,28.737440,0.134160,105.043583,100.227779,151.396816,53.378891,62.535676,20,40 
2018,4,21,4,31,31.498640,0.293280,95.229001,92.965455,223.059376,74.544690,29.925908,51,83 
2018,4,21,4,31,34.340960,0.255840,106.200435,97.161325,185.939317,51.345667,53.643926,40,75 
2018,4,21,4,31,42.637040,0.184080,104.685494,97.923216,148.217051,45.050724,52.979549,35,54 
2018,4,21,4,31,45.810080,0.237120,103.408342,95.917911,145.685163,54.820468,56.118601,33,73 
2018,4,21,4,32,7.977680,0.174720,114.291837,106.921481,141.867672,46.280664,61.969208,24,52 
2018,4,21,4,32,19.375040,0.174720,116.556367,108.922212,141.657662,44.283730,61.736150,33,57 
2018,4,21,4,32,24.382640,0.221520,105.050086,97.750073,125.624804,57.720422,61.183380,26,67 
2018,4,21,4,32,50.253680,0.230880,102.015136,95.437343,44.210902,38.485870,37.974483,27,72 
2018,4,21,4,33,0.247040,0.308880,87.775088,85.180825,236.587164,69.784850,23.905391,52,98 
2018,4,21,4,33,3.148640,0.187200,106.837345,99.294313,155.120399,37.332559,55.086563,26,57 
2018,4,21,4,33,3.485600,0.140400,107.849706,101.184085,145.976004,38.882915,62.469265,25,43 
2018,4,21,4,33,46.142240,0.174720,104.367897,96.525820,158.263099,48.333374,68.877020,27,55 
2018,4,21,4,33,54.516320,0.209040,105.085397,99.758446,144.585187,66.755300,67.781100,32,65 
2018,4,21,4,33,59.211920,0.093600,100.333072,95.603039,112.637361,22.388163,53.884880,13,24 
2018,4,21,4,34,6.178880,0.199680,102.856341,99.181260,148.544269,73.187905,64.716602,25,60 
2018,4,21,4,34,9.211520,0.131040,98.344156,94.730065,321.761385,9.123738,27.974162,16,43 
2018,4,21,4,34,12.038240,0.165360,109.901441,102.474304,126.888739,42.205620,64.554992,23,51 
2018,4,21,4,34,34.701920,0.215280,107.953714,100.211562,180.425852,55.551445,65.176851,25,56 
2018,4,21,4,34,35.244800,0.134160,105.162362,99.760505,138.889152,30.390614,51.027795,14,38 
2018,4,21,4,34,37.718960,0.296400,110.975302,99.265637,110.826457,49.864633,64.296013,44,89 
2018,4,21,4,35,7.240400,0.268320,96.655237,86.029079,56.966769,25.327149,44.011786,42,85 
2018,4,21,4,35,38.156480,0.184080,103.431490,98.377982,165.459213,62.722540,58.076845,29,58 
2018,4,21,4,35,45.504080,0.156000,98.411778,93.106235,133.946205,53.741493,59.568493,26,46 
2018,4,21,4,36,5.147600,0.333840,99.991569,87.203101,75.599222,34.952525,47.466440,50,105 
2018,4,21,4,36,14.048960,0.171600,109.162060,100.923207,162.186558,40.195666,63.576145,24,51 
2018,4,21,4,36,34.001360,0.246480,101.945311,98.159654,230.469542,69.080454,42.823776,64,79 
2018,4,21,4,36,36.625280,0.258960,106.522131,95.116903,144.474090,39.991056,57.396394,41,78 
2018,4,21,4,36,52.658960,0.190320,111.118216,103.131851,164.008769,44.200056,60.080806,25,61 
2018,4,21,4,37,20.411360,0.190320,105.012888,97.516210,129.408913,48.359384,59.302157,26,60 
2018,4,21,4,37,22.776320,0.190320,102.092280,96.925879,166.277569,65.738066,66.992598,31,61 
2018,4,21,4,37,55.180640,0.137280,107.223047,101.272865,128.327274,43.280496,57.049663,23,39 
2018,4,21,4,37,59.576720,0.302640,109.967556,98.476362,51.674627,20.308458,40.982515,38,91 
2018,4,21,4,38,7.988240,0.308880,100.277270,91.041616,354.465943,19.716172,32.515246,48,90 
2018,4,21,4,38,10.446800,0.302640,105.664037,95.088815,208.985796,51.406811,56.803734,40,90 
2018,4,21,4,38,17.585360,0.221520,108.841361,98.363457,173.351209,41.194279,62.757699,31,66 
2018,4,21,4,38,22.970480,0.149760,105.141998,98.162017,144.001242,44.049569,65.371738,24,47 
2018,4,21,4,38,54.298400,0.305760,106.401564,92.353801,146.963520,31.873227,53.830441,43,96 
2018,4,21,4,39,11.112080,0.202800,104.649570,95.839336,131.485206,49.117270,67.187973,26,54 
2018,4,21,4,39,15.345920,0.184080,106.601363,100.115392,137.874765,54.679922,59.181020,23,57 
2018,4,21,4,39,38.284160,0.224640,114.844126,103.402525,133.143956,10.048556,51.658899,33,65 
2018,4,21,4,39,42.630320,0.205920,108.745447,99.470056,145.386781,35.808369,55.410299,21,61 
2018,4,21,4,41,3.647360,0.221520,106.779382,97.776537,140.963906,52.076611,68.736031,39,67 
2018,4,21,4,41,15.353600,0.180960,101.006693,97.300793,133.709969,70.461864,64.568196,23,57 
2018,4,21,4,41,18.033680,0.190320,105.393432,97.393060,183.906485,48.461391,61.905759,27,57 
2018,4,21,4,41,21.874400,0.340080,97.938979,95.268368,226.936049,70.284613,24.530931,53,104 
2018,4,21,4,41,27.615200,0.190320,103.195317,100.095864,164.204976,72.228519,58.324959,30,55 
2018,4,21,4,42,16.084400,0.255840,106.750381,98.544322,159.950991,57.374586,59.320872,42,77 
2018,4,21,4,42,17.004800,0.258960,107.301188,96.846318,134.454216,44.457279,56.697097,33,82 
2018,4,21,4,42,29.665760,0.171600,103.915532,98.432587,116.477555,58.360176,62.333174,17,52 
2018,4,21,4,42,31.812320,0.383760,102.241555,99.263869,88.665218,73.323577,25.880087,68,115 
2018,4,21,4,42,44.173760,0.230880,102.412574,98.978096,163.846628,75.978839,61.154929,35,68 
2018,4,21,4,42,59.324480,0.209040,104.635766,95.450539,141.691919,41.693562,60.765211,24,58 
2018,4,21,4,43,2.909360,0.255840,103.000474,90.822666,193.009177,29.242682,56.383801,37,82 
2018,4,21,4,43,4.806320,0.143520,111.202785,105.742936,138.890052,54.232546,63.737232,27,36 
2018,4,21,4,43,39.943760,0.174720,101.688781,94.531300,141.777066,46.069160,58.565496,19,54 
2018,4,21,4,44,4.944320,0.290160,91.977564,89.658303,220.899464,73.795804,28.957912,42,91 
2018,4,21,4,44,5.615120,0.180960,104.746985,97.036624,155.950384,39.255549,56.276768,21,55 
2018,4,21,4,44,51.522800,0.271440,105.121790,93.239340,125.370781,29.153110,52.178900,46,81 
2018,4,21,4,44,53.622560,0.308880,96.418257,94.251445,233.943894,75.596878,27.004930,46,100 
2018,4,21,4,45,14.124080,0.152880,106.627502,101.375047,156.246673,57.916814,66.729059,25,48 
2018,4,21,4,45,25.037840,0.252720,87.225543,83.915860,222.926547,66.834422,31.528765,46,78 
2018,4,21,4,45,25.992560,0.215280,105.611814,96.042654,170.608283,42.109194,60.242377,39,70 
2018,4,21,4,45,27.396560,0.227760,109.004913,99.426572,155.399843,46.409111,60.177526,36,69 
2018,4,21,4,45,31.468160,0.199680,102.940417,95.061310,133.322966,44.293022,54.340753,29,55 
2018,4,21,4,45,39.751760,0.230880,108.532198,97.473025,151.650483,45.483597,69.031256,41,73 
2018,4,21,4,45,52.353440,0.174720,111.250630,102.600520,167.662232,36.296073,62.598920,27,45 
2018,4,21,4,45,55.757360,0.205920,100.891951,97.092877,163.538199,68.982904,53.361937,24,62 
2018,4,21,4,46,24.308480,0.218400,101.579031,96.668570,139.440120,69.097229,63.700814,35,68 
2018,4,21,4,46,39.019280,0.193440,109.190999,103.128652,171.429497,59.011513,59.851274,24,58 
2018,4,21,4,46,54.541280,0.193440,103.151972,94.309772,136.560500,48.579668,67.104415,24,54 
2018,4,21,4,46,56.538080,0.268320,102.932155,92.206259,149.873804,44.642367,56.107622,38,76 
2018,4,21,4,47,2.893520,0.180960,114.789498,107.953937,144.878750,52.437144,62.054651,21,54 
2018,4,21,4,47,5.623520,0.274560,99.548730,90.795486,100.480593,32.475718,39.117214,34,75 
2018,4,21,4,47,10.659200,0.171600,106.284716,100.288021,121.611680,54.992452,59.939869,27,50 
2018,4,21,4,47,14.013200,0.193440,110.783714,101.982949,162.905057,50.245778,68.805864,27,52 
2018,4,21,4,47,16.203440,0.249600,95.364900,89.961081,223.935903,62.738840,46.730582,35,77 
2018,4,21,4,47,24.190640,0.199680,102.751860,93.610621,169.170210,41.409097,61.569033,28,64 
2018,4,21,4,47,39.182240,0.131040,108.094089,102.547563,160.781877,46.606610,60.197233,21,43 
2018,4,21,4,48,4.744400,0.149760,107.607769,101.606388,142.861097,47.718887,62.351313,21,47 
2018,4,21,4,48,29.061680,0.165360,106.665364,98.664520,145.119246,34.495031,60.433683,19,52 
2018,4,21,4,48,43.847360,0.162240,101.329659,94.265161,149.319616,35.012886,55.589072,22,51 
2018,4,21,4,49,0.926240,0.171600,105.604809,97.189266,157.981318,33.023409,60.467918,25,54 
2018,4,21,4,49,17.406080,0.218400,104.231874,98.271258,125.599552,62.241228,57.886431,27,71 
2018,4,21,4,49,20.522960,0.252720,103.149876,91.751154,60.024830,3.643778,46.751095,47,79 
2018,4,21,4,49,23.583680,0.243360,114.937029,105.366505,128.219477,49.140049,60.640448,29,76 
2018,4,21,4,49,29.982800,0.187200,106.412587,98.989242,159.007696,46.187388,58.810637,29,58 
2018,4,21,4,49,35.676800,0.199680,102.503189,94.306354,154.811542,42.441685,58.164200,27,62 
2018,4,21,4,49,36.503600,0.177840,118.083936,109.166149,133.215029,39.490737,65.786814,23,51 
2018,4,21,4,49,47.064800,0.383760,85.624073,80.358894,257.526388,36.797047,15.712528,56,54 
2018,4,21,4,49,49.067840,0.318240,99.390143,97.273138,82.277647,76.525181,27.605433,44,94 
2018,4,21,4,49,56.097200,0.224640,104.505578,94.641286,61.954613,24.153391,47.827091,39,69 
2018,4,21,4,50,5.070320,0.221520,115.067354,105.952254,153.589658,51.728097,66.044585,35,66 
2018,4,21,4,50,6.624080,0.140400,97.709431,92.712560,129.237923,46.142950,57.164250,18,45 
2018,4,21,4,50,9.223040,0.277680,104.788776,91.840946,158.187168,39.559996,60.641659,45,88 
2018,4,21,4,50,27.166160,0.240240,104.343829,94.905684,134.602636,46.879091,58.511374,29,75 
2018,4,21,4,50,37.927040,0.205920,109.978756,105.530913,140.793960,64.188714,52.275868,31,60 
2018,4,21,4,50,41.505680,0.218400,105.644535,97.684263,158.587096,50.780852,57.787481,27,61 
2018,4,21,4,50,50.073200,0.271440,121.617611,107.626262,173.578906,38.133665,65.485957,44,82 
2018,4,21,4,50,57.224240,0.187200,106.713262,99.486808,144.848921,53.199455,64.607218,27,56 
2018,4,21,4,51,5.529680,0.299520,103.687944,90.380411,149.792823,29.639835,52.880859,41,93 
2018,4,21,4,51,20.674160,0.212160,104.713197,94.062795,144.747835,40.555522,66.909505,33,69 
2018,4,21,4,51,21.763040,0.193440,101.294432,93.468862,158.838150,50.115599,64.072053,25,56 
2018,4,21,4,51,52.838240,0.280800,92.076045,85.547866,289.421316,38.923886,31.185619,50,87 
2018,4,21,4,51,59.081360,0.202800,111.242313,102.973280,143.682074,55.902696,70.895124,31,63 
2018,4,21,4,52,3.099920,0.237120,100.548737,89.825107,151.070268,23.939517,51.266005,35,66 
2018,4,21,4,52,5.652080,0.124800,102.885234,98.753224,145.083051,46.736368,49.836468,12,35 
2018,4,21,4,52,39.809840,0.196560,109.158567,101.799965,188.750211,50.481549,58.233506,28,61 
2018,4,21,4,52,40.592960,0.162240,110.196724,103.003312,150.899589,50.630671,71.091803,25,52 
2018,4,21,4,53,6.620000,0.202800,104.124394,94.850209,133.495182,39.888950,60.134729,30,66 
2018,4,21,4,53,7.072400,0.371280,105.444764,92.143648,231.587396,15.298219,37.341639,50,115 
2018,4,21,4,53,15.471440,0.184080,103.040712,95.573066,130.709040,42.809812,55.351904,23,46 
2018,4,21,4,53,17.203040,0.234000,101.898160,91.739105,166.245551,46.093114,63.336380,34,73 
2018,4,21,4,53,22.519520,0.240240,103.576268,94.728290,133.406574,53.136041,62.109255,32,74 
2018,4,21,4,53,27.617600,0.152880,103.752230,97.354820,155.517140,47.759731,60.944154,17,45 
2018,4,21,4,53,47.176880,0.237120,102.652823,92.461607,156.589204,33.595202,55.087812,27,68 
2018,4,21,4,53,57.245120,0.215280,101.502096,93.369756,178.804670,47.086473,54.543032,27,58 
2018,4,21,4,54,15.890240,0.190320,105.527239,99.949298,139.001759,53.751859,49.104742,28,62 
2018,4,21,4,54,20.108480,0.184080,106.313487,97.570422,146.818253,41.051934,60.096830,24,57 
2018,4,21,4,54,34.326320,0.174720,109.532641,105.265358,150.026521,66.157843,62.887457,27,54 
2018,4,21,4,54,36.366800,0.131040,109.883790,104.164862,133.119297,50.292605,68.538181,18,37 
2018,4,21,4,54,37.452560,0.187200,102.194879,92.511779,126.784633,30.833580,60.503566,29,56 
2018,4,21,4,54,45.470960,0.193440,105.688821,98.651271,122.928562,53.352281,62.488742,31,60 
2018,4,21,4,54,53.854400,0.234000,103.282456,98.251227,359.832008,42.163876,26.908266,35,68 
2018,4,21,4,55,2.905520,0.159120,109.412535,101.908005,137.344984,40.607744,62.868993,19,38 
2018,4,21,4,55,7.947440,0.187200,108.811979,101.220078,172.472630,51.759824,65.305351,29,60 
2018,4,21,4,55,14.359040,0.212160,105.793848,96.255844,144.716706,46.678245,65.772018,30,66 
2018,4,21,4,55,31.668800,0.156000,102.665972,95.365364,142.432359,37.382598,60.220103,17,39 
2018,4,21,4,55,40.807280,0.240240,103.266327,92.573672,124.230318,32.167518,53.473570,37,74 
2018,4,21,4,55,53.820800,0.168480,97.899095,90.443450,155.522071,31.087829,54.057054,21,53 
2018,4,21,4,55,55.209200,0.124800,100.787977,94.298306,131.776682,37.247258,65.249397,16,40 
2018,4,21,4,56,24.743120,0.143520,105.274774,99.605250,157.183233,46.995839,60.337264,19,45 
2018,4,21,4,56,51.615680,0.227760,104.405918,96.586967,174.492041,59.790404,67.499935,28,69 
2018,4,21,4,56,51.983840,0.218400,108.659916,97.067180,151.113656,34.287927,63.851195,34,70 
2018,4,21,4,56,52.408160,0.177840,105.495908,97.557554,158.370725,36.544633,56.648406,24,47 
2018,4,21,4,56,55.631120,0.168480,104.403922,99.051540,153.611398,60.319302,63.263891,31,53 
2018,4,21,4,57,32.309840,0.258960,103.338828,97.636830,164.747225,67.082479,54.984643,45,82 
2018,4,21,4,57,45.941120,0.149760,106.566471,99.189175,157.770861,40.231526,64.549329,23,43 
2018,4,21,4,57,52.639760,0.121680,113.084102,106.456461,149.524438,29.377199,63.230588,20,36 
2018,4,21,4,57,59.984240,0.305760,105.742423,95.019646,147.397390,51.299914,55.526304,40,92 
2018,4,21,4,58,2.380400,0.202800,99.654479,93.649836,172.853182,62.046134,65.565901,26,60 
2018,4,21,4,58,3.303920,0.184080,106.943223,97.447805,143.671527,21.748083,55.591939,24,60 
2018,4,21,4,58,14.517200,0.162240,112.394599,106.178506,165.887070,52.988624,64.288276,23,53 
2018,4,21,4,58,29.140640,0.180960,107.464610,100.666267,180.066230,52.514600,63.430144,24,54 
2018,4,21,4,58,31.773920,0.193440,103.048790,97.707466,140.745937,61.409611,56.064394,29,56 
2018,4,21,4,58,43.910720,0.305760,105.366929,92.900186,156.777218,47.223085,59.142135,39,90 
2018,4,21,4,58,48.777920,0.159120,107.158381,98.967327,154.493211,32.242708,61.357980,21,46 
2018,4,21,4,58,58.300160,0.340080,99.749288,85.438713,62.565267,20.442023,46.177322,55,106 
2018,4,21,4,59,0.836720,0.230880,104.829128,95.135345,153.305733,33.347535,51.877092,29,70 
2018,4,21,4,59,8.742800,0.199680,105.958815,99.368700,154.875470,62.410661,66.286726,30,53 
2018,4,21,4,59,13.204400,0.209040,115.417332,109.156865,192.310140,61.900420,63.074979,35,66 
2018,4,21,4,59,27.746720,0.324480,104.938178,89.648666,231.269290,3.813757,47.779427,42,96 
2018,4,21,4,59,42.002000,0.212160,101.805983,90.921438,151.484933,35.375569,63.876709,25,63 
2018,4,21,4,59,46.535360,0.277680,100.339724,88.326822,149.462501,20.082882,47.200739,32,87 
