2018-04-20T13:08:33.678 639323_102.fits
2018-04-20T13:08:33.678 639323_103.fits
2018-04-20T13:08:33.678 639323_104.fits
2018-04-20T13:08:33.678 639324_102.fits
2018-04-20T13:08:33.678 639324_103.fits
2018-04-20T13:08:33.678 639324_104.fits
2018-04-20T13:16:51.661 640131_066.fits
2018-04-20T13:20:33.652 640425_110.fits
2018-04-20T13:20:33.652 640441_108.fits
2018-04-20T13:20:33.652 640441_109.fits
2018-04-20T13:20:33.652 640441_110.fits
2018-04-20T13:22:16.958 640625_065.fits
2018-04-20T13:24:30.432 640812_080.fits
2018-04-20T13:24:30.432 640822_080.fits
2018-04-20T13:30:01.551 641344_084.fits
2018-04-20T13:30:01.551 641344_085.fits
2018-04-20T13:30:01.551 641344_086.fits
2018-04-20T13:32:47.373 641643_013.fits
2018-04-20T13:32:47.373 641643_014.fits
2018-04-20T13:32:47.373 641643_015.fits
2018-04-20T13:34:58.394 641813_024.fits
2018-04-20T13:34:58.394 641814_025.fits
2018-04-20T13:34:58.394 641822_024.fits
2018-04-20T13:35:15.024 641811_058.fits
2018-04-20T13:39:56.495 642212_094.fits
2018-04-20T13:39:56.495 642221_094.fits
2018-04-20T13:44:42.686 642732_037.fits
2018-04-20T13:44:42.961 642732_037.fits
2018-04-20T13:49:15.003 643126_056.fits
2018-04-20T13:53:25.860 643511_028.fits
2018-04-20T13:53:25.860 643521_029.fits
2018-04-20T13:53:25.860 643531_029.fits
2018-04-20T13:59:22.267 644014_088.fits
2018-04-20T14:03:17.242 644424_054.fits
2018-04-20T14:03:17.242 644424_055.fits
2018-04-20T14:03:17.242 644424_056.fits
2018-04-20T14:03:33.531 644424_086.fits
2018-04-20T14:03:33.531 644424_087.fits
2018-04-20T14:03:33.531 644424_088.fits
2018-04-20T14:04:39.211 644522_093.fits
2018-04-20T14:04:39.211 644541_094.fits
2018-04-20T14:04:46.564 644514_108.fits
2018-04-20T14:04:46.564 644525_108.fits
2018-04-20T14:04:46.564 644534_108.fits
2018-04-20T14:05:49.526 644616_081.fits
2018-04-20T14:08:46.901 644932_058.fits
2018-04-20T14:08:46.901 644932_059.fits
2018-04-20T14:08:46.901 644932_060.fits
2018-04-20T14:14:56.599 645514_016.fits
2018-04-20T14:14:56.599 645514_017.fits
2018-04-20T14:14:56.599 645514_018.fits
2018-04-20T14:14:56.599 645526_017.fits
2018-04-20T14:14:56.599 645526_018.fits
2018-04-20T14:17:21.976 645724_056.fits
2018-04-20T14:17:21.976 645724_057.fits
2018-04-20T14:25:29.688 646426_099.fits
2018-04-20T14:26:03.827 646511_040.fits
2018-04-20T14:26:03.827 646515_039.fits
2018-04-20T14:26:03.827 646521_040.fits
2018-04-20T14:26:03.827 646531_041.fits
2018-04-20T14:35:43.183 647425_040.fits
2018-04-20T14:37:55.642 647623_028.fits
2018-04-20T14:37:55.642 647644_028.fits
2018-04-20T14:41:04.256 647912_028.fits
2018-04-20T14:41:04.256 647926_027.fits
2018-04-20T14:41:17.937 647911_055.fits
2018-04-20T14:41:17.937 647912_056.fits
2018-04-20T14:41:17.937 647942_056.fits
2018-04-20T14:41:35.537 647915_090.fits
2018-04-20T14:41:35.537 647926_089.fits
2018-04-20T14:41:35.537 647926_090.fits
2018-04-20T14:41:35.537 647926_091.fits
2018-04-20T14:42:23.878 648023_061.fits
2018-04-20T14:43:09.202 648112_026.fits
2018-04-20T14:43:09.202 648144_027.fits
2018-04-20T14:44:54.571 648211_081.fits
2018-04-20T14:52:42.050 648924_108.fits
2018-04-20T14:52:42.050 648926_109.fits
2018-04-20T14:56:51.145 649311_104.fits
2018-04-20T14:56:51.145 649324_104.fits
2018-04-20T14:58:19.837 649526_003.fits
2018-04-20T14:58:19.837 649526_004.fits
2018-04-20T14:58:19.837 649526_005.fits
2018-04-20T14:58:19.837 649544_003.fits
2018-04-20T14:58:19.837 649544_004.fits
2018-04-20T14:58:19.837 649544_005.fits
2018-04-20T15:02:15.550 649816_099.fits
2018-04-20T15:03:11.916 649942_084.fits
2018-04-20T15:04:01.771 650013_032.fits
2018-04-20T15:04:01.771 650032_033.fits
2018-04-20T15:05:00.948 650121_026.fits
2018-04-20T15:05:00.948 650132_026.fits
2018-04-20T15:05:00.948 650134_026.fits
2018-04-20T15:05:47.997 650112_120.fits
2018-04-20T15:05:47.997 650131_120.fits
2018-04-20T15:06:13.481 650212_045.fits
2018-04-20T15:06:13.481 650222_045.fits
2018-04-20T15:06:13.481 650232_045.fits
2018-04-20T15:06:13.481 650242_045.fits
2018-04-20T15:06:25.986 650211_069.fits
2018-04-20T15:06:59.221 650323_011.fits
2018-04-20T15:06:59.221 650324_010.fits
2018-04-20T15:06:59.221 650331_011.fits
2018-04-20T15:06:59.221 650344_010.fits
2018-04-20T15:06:59.221 650344_011.fits
2018-04-20T15:06:59.221 650344_012.fits
2018-04-20T15:07:14.817 650313_041.fits
2018-04-20T15:07:14.817 650314_043.fits
2018-04-20T15:07:14.817 650323_041.fits
2018-04-20T15:07:14.817 650324_042.fits
2018-04-20T15:07:14.817 650333_043.fits
2018-04-20T15:07:14.817 650342_043.fits
2018-04-20T15:07:14.817 650344_041.fits
2018-04-20T15:07:14.817 650344_042.fits
2018-04-20T15:07:14.817 650344_043.fits
2018-04-20T15:08:42.137 650433_092.fits
2018-04-20T15:11:36.018 650712_036.fits
2018-04-20T15:11:36.018 650722_036.fits
2018-04-20T15:11:40.763 650712_044.fits
2018-04-20T15:11:40.763 650741_045.fits
2018-04-20T15:11:40.763 650743_044.fits
2018-04-20T15:12:07.614 650721_098.fits
2018-04-20T15:12:28.521 650813_016.fits
2018-04-20T15:12:28.521 650816_016.fits
2018-04-20T15:13:36.824 650916_026.fits
2018-04-20T15:13:57.098 650912_066.fits
2018-04-20T15:13:57.098 650921_067.fits
2018-04-20T15:15:23.547 651011_114.fits
2018-04-20T15:15:56.831 651113_055.fits
2018-04-20T15:15:56.831 651123_055.fits
2018-04-20T15:15:56.831 651133_055.fits
2018-04-20T15:15:56.831 651143_055.fits
2018-04-20T15:15:56.909 651113_055.fits
2018-04-20T15:15:56.909 651123_055.fits
2018-04-20T15:15:56.909 651133_055.fits
2018-04-20T15:15:56.909 651143_055.fits
2018-04-20T15:18:07.809 651323_041.fits
2018-04-20T15:18:07.809 651323_042.fits
2018-04-20T15:18:07.809 651323_043.fits
2018-04-20T15:18:07.809 651344_043.fits
2018-04-20T15:20:02.924 651513_019.fits
2018-04-20T15:20:02.924 651513_020.fits
2018-04-20T15:20:02.924 651513_021.fits
2018-04-20T15:20:02.924 651544_019.fits
2018-04-20T15:20:47.902 651513_111.fits
2018-04-20T15:20:47.902 651523_111.fits
2018-04-20T15:22:06.099 651715_015.fits
2018-04-20T15:22:06.099 651725_016.fits
2018-04-20T15:22:12.479 651712_028.fits
2018-04-20T15:22:20.329 651711_044.fits
2018-04-20T15:22:20.329 651721_045.fits
2018-04-20T15:22:34.643 651711_072.fits
2018-04-20T15:22:34.643 651716_073.fits
2018-04-20T15:26:15.536 652011_113.fits
2018-04-20T15:28:59.967 652332_062.fits
2018-04-20T15:28:59.967 652334_063.fits
2018-04-20T15:29:03.679 652311_070.fits
2018-04-20T15:29:03.679 652321_070.fits
2018-04-20T15:31:14.223 652514_054.fits
2018-04-20T15:31:14.223 652514_055.fits
2018-04-20T15:31:14.223 652523_055.fits
2018-04-20T15:31:14.223 652532_056.fits
2018-04-20T15:31:14.223 652541_056.fits
2018-04-20T15:31:28.313 652526_083.fits
2018-04-20T15:33:19.441 652712_053.fits
2018-04-20T15:33:19.441 652721_054.fits
2018-04-20T15:34:06.934 652815_023.fits
2018-04-20T15:34:06.934 652824_023.fits
2018-04-20T15:34:06.934 652825_023.fits
2018-04-20T15:35:47.738 652911_099.fits
2018-04-20T15:35:47.738 652912_099.fits
2018-04-20T15:36:56.924 653034_087.fits
2018-04-20T15:38:03.255 653114_095.fits
2018-04-20T15:38:03.255 653114_096.fits
2018-04-20T15:42:44.526 653622_004.fits
2018-04-20T15:42:44.526 653623_005.fits
2018-04-20T15:42:44.526 653641_003.fits
2018-04-20T15:42:44.526 653641_004.fits
2018-04-20T15:42:44.526 653641_005.fits
2018-04-20T15:42:44.526 653643_005.fits
2018-04-20T15:42:44.754 653622_004.fits
2018-04-20T15:42:44.754 653623_005.fits
2018-04-20T15:42:44.754 653623_006.fits
2018-04-20T15:42:44.754 653641_004.fits
2018-04-20T15:42:44.754 653641_005.fits
2018-04-20T15:42:44.754 653641_006.fits
2018-04-20T15:42:44.754 653643_005.fits
2018-04-20T15:44:15.986 653741_060.fits
2018-04-20T15:44:37.764 653714_104.fits
2018-04-20T15:44:37.764 653714_106.fits
2018-04-20T15:44:37.764 653715_105.fits
2018-04-20T15:44:37.764 653725_105.fits
2018-04-20T15:44:37.764 653733_104.fits
2018-04-20T15:45:02.006 653826_027.fits
2018-04-20T15:45:02.006 653826_028.fits
2018-04-20T15:45:02.006 653826_029.fits
2018-04-20T15:45:33.406 653813_090.fits
2018-04-20T15:45:33.406 653814_091.fits
2018-04-20T15:47:00.872 654011_014.fits
2018-04-20T15:47:00.872 654015_013.fits
2018-04-20T15:47:00.872 654015_014.fits
2018-04-20T15:47:00.872 654021_014.fits
2018-04-20T15:48:36.047 654112_080.fits
2018-04-20T15:51:05.090 654314_100.fits
2018-04-20T15:51:05.090 654322_099.fits
2018-04-20T15:51:05.090 654324_100.fits
2018-04-20T15:51:49.497 654412_062.fits
2018-04-20T15:51:49.497 654412_063.fits
2018-04-20T15:51:49.497 654412_064.fits
2018-04-20T15:51:49.497 654413_064.fits
2018-04-20T15:51:49.497 654433_062.fits
2018-04-20T15:51:49.497 654433_063.fits
2018-04-20T15:51:49.497 654444_062.fits
2018-04-20T15:51:49.497 654444_063.fits
2018-04-20T15:51:49.497 654444_064.fits
2018-04-20T15:51:54.105 654413_072.fits
2018-04-20T15:51:54.105 654444_071.fits
2018-04-20T15:51:54.105 654444_072.fits
2018-04-20T15:51:54.105 654444_073.fits
2018-04-20T15:52:45.432 654511_048.fits
2018-04-20T15:52:45.432 654521_048.fits
2018-04-20T15:52:45.432 654521_049.fits
2018-04-20T15:52:58.524 654544_075.fits
2018-04-20T15:53:55.507 654611_063.fits
2018-04-20T15:53:55.507 654625_062.fits
2018-04-20T15:53:55.507 654626_062.fits
2018-04-20T15:54:19.965 654612_113.fits
2018-04-20T15:54:19.965 654616_112.fits
2018-04-20T15:56:03.905 654813_041.fits
2018-04-20T15:56:03.905 654815_041.fits
2018-04-20T15:56:03.905 654832_041.fits
2018-04-20T15:56:03.905 654841_041.fits
2018-04-20T15:56:08.996 654834_051.fits
2018-04-20T15:56:13.065 654811_059.fits
2018-04-20T15:56:13.065 654822_059.fits
2018-04-20T15:56:13.065 654834_060.fits
2018-04-20T15:56:13.065 654841_059.fits
2018-04-20T15:57:28.684 654913_084.fits
2018-04-20T15:57:28.684 654922_084.fits
2018-04-20T15:57:28.684 654944_083.fits
2018-04-20T15:57:28.684 654944_084.fits
2018-04-20T15:57:28.684 654944_085.fits
2018-04-20T15:57:32.903 654925_094.fits
2018-04-20T15:57:32.903 654934_092.fits
2018-04-20T15:57:32.903 654944_094.fits
2018-04-20T15:57:43.957 654915_115.fits
2018-04-20T15:57:43.957 654925_115.fits
2018-04-20T15:58:35.958 655013_093.fits
2018-04-20T16:01:41.059 655323_087.fits
2018-04-20T16:01:41.059 655344_087.fits
2018-04-20T16:01:53.248 655312_110.fits
2018-04-20T16:01:54.537 655312_112.fits
2018-04-20T16:04:07.224 655512_102.fits
2018-04-20T16:04:07.224 655522_102.fits
2018-04-20T16:04:22.490 655614_006.fits
2018-04-20T16:04:22.490 655616_008.fits
2018-04-20T16:04:22.490 655643_008.fits
2018-04-20T16:04:59.157 655611_080.fits
2018-04-20T16:05:30.372 655715_017.fits
2018-04-20T16:05:30.372 655726_016.fits
2018-04-20T16:05:30.372 655726_017.fits
2018-04-20T16:09:14.700 656015_063.fits
2018-04-20T16:09:14.700 656015_065.fits
2018-04-20T16:11:45.103 656221_113.fits
2018-04-20T16:11:45.103 656221_114.fits
2018-04-20T16:11:52.828 656331_003.fits
2018-04-20T16:12:40.714 656326_100.fits
2018-04-20T16:13:29.710 656415_070.fits
2018-04-20T16:13:29.710 656415_071.fits
2018-04-20T16:13:29.710 656415_072.fits
2018-04-20T16:13:42.028 656415_094.fits
2018-04-20T16:13:42.028 656415_095.fits
2018-04-20T16:13:42.028 656415_096.fits
2018-04-20T16:17:19.951 656814_003.fits
2018-04-20T16:17:34.543 656815_033.fits
2018-04-20T16:17:34.543 656815_034.fits
2018-04-20T16:17:44.730 656821_053.fits
2018-04-20T16:17:53.544 656834_071.fits
2018-04-20T16:18:04.127 656811_092.fits
2018-04-20T16:18:04.127 656821_092.fits
2018-04-20T16:18:04.127 656831_091.fits
2018-04-20T16:18:04.280 656811_092.fits
2018-04-20T16:18:04.280 656821_092.fits
2018-04-20T16:18:04.280 656831_091.fits
2018-04-20T16:18:37.757 656921_033.fits
2018-04-20T16:18:37.757 656923_033.fits
2018-04-20T16:19:59.483 657011_071.fits
2018-04-20T16:19:59.483 657024_072.fits
2018-04-20T16:20:27.794 657121_001.fits
2018-04-20T16:20:27.794 657121_003.fits
2018-04-20T16:20:27.794 657126_003.fits
2018-04-20T16:20:42.170 657112_030.fits
2018-04-20T16:20:42.170 657122_031.fits
2018-04-20T16:20:42.170 657132_032.fits
2018-04-20T16:20:45.203 657115_037.fits
2018-04-20T16:20:45.203 657115_038.fits
2018-04-20T16:20:45.203 657125_037.fits
2018-04-20T16:20:45.203 657125_038.fits
2018-04-20T16:21:04.201 657124_076.fits
2018-04-20T16:23:17.612 657334_065.fits
2018-04-20T16:23:50.200 657413_005.fits
2018-04-20T16:23:50.200 657414_004.fits
2018-04-20T16:23:50.200 657414_005.fits
2018-04-20T16:25:09.795 657512_040.fits
2018-04-20T16:25:33.282 657513_086.fits
2018-04-20T16:26:20.553 657644_055.fits
2018-04-20T16:29:12.462 657815_118.fits
2018-04-20T16:29:56.822 657942_082.fits
2018-04-20T16:31:37.929 658116_032.fits
2018-04-20T16:31:37.929 658134_033.fits
2018-04-20T16:31:51.270 658112_060.fits
2018-04-20T16:31:51.270 658123_060.fits
2018-04-20T16:32:05.404 658113_087.fits
2018-04-20T16:32:05.404 658131_087.fits
2018-04-20T16:34:57.977 658443_023.fits
2018-04-20T16:36:34.700 658512_092.fits
2018-04-20T16:36:34.700 658522_091.fits
2018-04-20T16:36:47.885 658513_118.fits
2018-04-20T16:36:47.885 658516_117.fits
2018-04-20T16:36:47.885 658525_118.fits
2018-04-20T16:38:41.088 658715_093.fits
2018-04-20T16:38:41.088 658744_094.fits
2018-04-20T16:39:14.878 658821_034.fits
2018-04-20T16:39:14.878 658844_036.fits
2018-04-20T16:39:34.618 658812_075.fits
2018-04-20T16:39:34.618 658826_074.fits
2018-04-20T16:40:23.574 658924_046.fits
2018-04-20T16:40:23.574 658934_046.fits
2018-04-20T16:40:37.343 658914_073.fits
2018-04-20T16:40:37.343 658915_074.fits
2018-04-20T16:40:37.343 658932_072.fits
2018-04-20T16:43:12.491 659121_105.fits
2018-04-20T16:44:33.112 659322_013.fits
2018-04-20T16:51:02.915 659914_012.fits
2018-04-20T16:51:02.915 659924_013.fits
2018-04-20T16:51:37.257 659913_081.fits
2018-04-20T16:51:44.945 659911_096.fits
2018-04-20T16:51:44.945 659921_096.fits
2018-04-20T16:51:44.945 659922_097.fits
2018-04-20T16:51:44.945 659944_098.fits
2018-04-20T16:52:06.220 660015_013.fits
2018-04-20T16:52:06.220 660025_014.fits
2018-04-20T16:52:17.237 660021_037.fits
2018-04-20T16:52:17.237 660034_035.fits
2018-04-20T16:52:30.400 660011_062.fits
2018-04-20T16:52:30.400 660025_063.fits
2018-04-20T16:54:19.494 660214_003.fits
2018-04-20T16:54:19.494 660244_004.fits
2018-04-20T16:54:35.194 660213_035.fits
2018-04-20T16:54:35.194 660223_035.fits
2018-04-20T16:55:04.285 660216_092.fits
2018-04-20T16:55:04.285 660216_093.fits
2018-04-20T16:55:39.076 660312_037.fits
2018-04-20T16:55:40.960 660313_040.fits
2018-04-20T16:55:40.960 660321_040.fits
2018-04-20T16:55:40.960 660343_040.fits
2018-04-20T16:57:17.091 660411_107.fits
2018-04-20T16:57:17.091 660426_108.fits
2018-04-20T16:57:17.091 660444_108.fits
2018-04-20T16:57:32.369 660515_012.fits
2018-04-20T16:57:32.369 660515_013.fits
2018-04-20T16:59:32.458 660731_002.fits
2018-04-20T16:59:32.458 660732_002.fits
2018-04-20T16:59:48.489 660712_033.fits
2018-04-20T16:59:48.489 660715_033.fits
2018-04-20T16:59:48.489 660721_033.fits
2018-04-20T17:01:41.374 660813_107.fits
2018-04-20T17:01:41.374 660814_107.fits
2018-04-20T17:01:41.374 660815_109.fits
2018-04-20T17:01:41.374 660822_108.fits
2018-04-20T17:01:41.374 660831_108.fits
2018-04-20T17:02:01.772 660911_023.fits
2018-04-20T17:02:01.772 660925_024.fits
2018-04-20T17:02:01.772 660931_023.fits
2018-04-20T17:02:59.757 661012_013.fits
2018-04-20T17:04:59.116 661232_001.fits
2018-04-20T17:04:59.116 661242_001.fits
2018-04-20T17:05:01.884 661212_005.fits
2018-04-20T17:05:01.884 661214_005.fits
2018-04-20T17:05:01.884 661214_006.fits
2018-04-20T17:05:01.884 661223_006.fits
2018-04-20T17:05:01.884 661232_006.fits
2018-04-20T17:05:27.046 661232_056.fits
2018-04-20T17:05:27.783 661222_058.fits
2018-04-20T17:05:27.783 661231_058.fits
2018-04-20T17:05:49.542 661225_101.fits
2018-04-20T17:06:37.290 661313_072.fits
2018-04-20T17:07:01.966 661324_120.fits
2018-04-20T17:09:02.258 661514_085.fits
2018-04-20T17:09:13.842 661534_109.fits
2018-04-20T17:09:19.178 661513_120.fits
2018-04-20T17:09:27.602 661624_009.fits
2018-04-20T17:09:38.596 661623_033.fits
2018-04-20T17:09:38.596 661625_032.fits
2018-04-20T17:10:37.527 661715_025.fits
2018-04-20T17:10:37.527 661741_023.fits
2018-04-20T17:10:37.527 661741_024.fits
2018-04-20T17:11:20.748 661715_111.fits
2018-04-20T17:11:24.052 661714_118.fits
2018-04-20T17:11:33.222 661816_009.fits
2018-04-20T17:12:37.513 661913_013.fits
2018-04-20T17:12:37.513 661922_011.fits
2018-04-20T17:15:42.435 662115_102.fits
2018-04-20T17:15:42.435 662123_102.fits
2018-04-20T17:16:30.571 662222_072.fits
2018-04-20T17:16:30.571 662224_073.fits
2018-04-20T17:16:30.571 662232_072.fits
2018-04-20T17:17:04.678 662313_013.fits
2018-04-20T17:17:04.678 662313_014.fits
2018-04-20T17:17:04.678 662315_014.fits
2018-04-20T17:17:39.928 662334_086.fits
2018-04-20T17:18:36.946 662416_073.fits
2018-04-20T17:18:36.946 662426_074.fits
2018-04-20T17:19:48.123 662524_091.fits
2018-04-20T17:19:48.123 662531_089.fits
2018-04-20T17:19:51.233 662513_097.fits
2018-04-20T17:19:51.233 662514_096.fits
2018-04-20T17:19:51.233 662524_096.fits
2018-04-20T17:19:51.233 662531_095.fits
2018-04-20T17:19:51.233 662531_096.fits
2018-04-20T17:19:51.233 662533_095.fits
2018-04-20T17:20:57.159 662615_074.fits
2018-04-20T17:21:57.918 662712_069.fits
2018-04-20T17:24:54.541 663011_046.fits
2018-04-20T17:24:54.541 663044_046.fits
2018-04-20T17:26:56.077 663214_013.fits
2018-04-20T17:26:56.077 663224_013.fits
2018-04-20T17:27:59.513 663312_015.fits
2018-04-20T17:28:50.270 663324_116.fits
2018-04-20T17:29:10.359 663413_030.fits
2018-04-20T17:29:29.538 663424_068.fits
2018-04-20T17:29:29.538 663425_069.fits
2018-04-20T17:29:29.538 663434_069.fits
2018-04-20T17:29:48.529 663416_106.fits
2018-04-20T17:29:48.529 663416_107.fits
2018-04-20T17:29:48.529 663426_107.fits
2018-04-20T17:31:14.629 663624_027.fits
2018-04-20T17:31:14.629 663626_026.fits
2018-04-20T17:33:29.513 663811_020.fits
2018-04-20T17:33:29.513 663813_019.fits
2018-04-20T17:33:29.513 663823_020.fits
2018-04-20T17:33:29.513 663826_020.fits
2018-04-20T17:33:57.836 663811_076.fits
2018-04-20T17:33:57.836 663815_076.fits
2018-04-20T17:33:57.836 663821_076.fits
2018-04-20T17:33:57.836 663821_077.fits
2018-04-20T17:33:57.836 663824_076.fits
2018-04-20T17:33:57.836 663826_076.fits
2018-04-20T17:33:57.836 663826_077.fits
2018-04-20T17:33:57.836 663826_078.fits
2018-04-20T17:33:57.836 663831_077.fits
2018-04-20T17:33:57.836 663842_076.fits
2018-04-20T17:33:57.836 663844_078.fits
2018-04-20T17:34:09.477 663826_099.fits
2018-04-20T17:34:09.477 663826_100.fits
2018-04-20T17:34:09.477 663826_101.fits
2018-04-20T17:34:15.595 663826_111.fits
2018-04-20T17:34:15.595 663826_112.fits
2018-04-20T17:34:15.595 663826_113.fits
2018-04-20T17:35:15.761 663913_107.fits
2018-04-20T17:35:15.761 663923_107.fits
2018-04-20T17:35:15.761 663932_107.fits
2018-04-20T17:35:43.195 664014_036.fits
2018-04-20T17:35:43.195 664016_035.fits
2018-04-20T17:35:43.195 664025_036.fits
2018-04-20T17:38:27.775 664214_113.fits
2018-04-20T17:39:25.658 664313_104.fits
2018-04-20T17:39:56.368 664412_012.fits
2018-04-20T17:39:56.368 664416_012.fits
2018-04-20T17:39:56.368 664421_013.fits
2018-04-20T17:40:31.505 664412_083.fits
2018-04-20T17:40:31.505 664433_083.fits
2018-04-20T17:40:31.505 664433_084.fits
2018-04-20T17:40:31.505 664443_084.fits
2018-04-20T17:41:01.485 664516_016.fits
2018-04-20T17:41:14.995 664543_044.fits
2018-04-20T17:41:22.477 664513_060.fits
2018-04-20T17:41:41.449 664511_098.fits
2018-04-20T17:43:21.523 664724_047.fits
2018-04-20T17:43:21.523 664732_047.fits
2018-04-20T17:43:21.523 664734_046.fits
2018-04-20T17:43:21.523 664744_046.fits
2018-04-20T17:43:46.633 664725_096.fits
2018-04-20T17:43:58.439 664714_119.fits
2018-04-20T17:43:58.439 664723_119.fits
2018-04-20T17:43:58.439 664732_119.fits
2018-04-20T17:43:58.439 664734_119.fits
2018-04-20T17:43:58.439 664741_119.fits
2018-04-20T17:44:22.688 664811_042.fits
2018-04-20T17:44:22.688 664811_043.fits
2018-04-20T17:44:22.688 664812_042.fits
2018-04-20T17:44:22.688 664815_042.fits
2018-04-20T17:44:22.688 664825_042.fits
2018-04-20T17:46:45.038 665015_050.fits
2018-04-20T17:46:45.038 665016_050.fits
2018-04-20T17:46:45.038 665025_050.fits
2018-04-20T17:47:04.057 665044_090.fits
2018-04-20T17:47:29.526 665114_014.fits
2018-04-20T17:47:29.526 665116_014.fits
2018-04-20T17:47:40.184 665115_036.fits
2018-04-20T17:47:40.184 665125_036.fits
2018-04-20T17:48:04.058 665114_084.fits
2018-04-20T17:48:04.058 665115_083.fits
2018-04-20T17:48:04.058 665122_084.fits
2018-04-20T17:48:04.058 665123_084.fits
2018-04-20T17:48:33.267 665216_017.fits
2018-04-20T17:48:41.404 665231_032.fits
2018-04-20T17:50:00.194 665341_063.fits
2018-04-20T17:50:18.227 665322_099.fits
2018-04-20T17:50:18.227 665332_100.fits
2018-04-20T17:50:18.227 665334_101.fits
2018-04-20T17:50:18.227 665342_100.fits
2018-04-20T17:51:17.617 665411_094.fits
2018-04-20T17:51:17.617 665434_094.fits
2018-04-20T17:51:39.276 665534_011.fits
2018-04-20T17:51:39.276 665544_011.fits
2018-04-20T17:52:00.411 665534_054.fits
2018-04-20T17:52:01.072 665534_054.fits
2018-04-20T17:52:20.881 665513_094.fits
2018-04-20T17:53:08.037 665622_036.fits
2018-04-20T17:53:11.197 665615_042.fits
2018-04-20T17:53:13.334 665612_046.fits
2018-04-20T17:53:13.334 665612_047.fits
2018-04-20T17:53:13.334 665613_046.fits
2018-04-20T17:53:13.334 665624_047.fits
2018-04-20T17:53:13.334 665624_048.fits
2018-04-20T17:53:22.601 665621_065.fits
2018-04-20T17:53:22.601 665631_066.fits
2018-04-20T17:53:22.601 665644_064.fits
2018-04-20T17:53:30.987 665611_082.fits
2018-04-20T17:53:30.987 665621_082.fits
2018-04-20T17:53:57.492 665713_009.fits
2018-04-20T17:54:30.954 665726_077.fits
2018-04-20T17:54:31.200 665726_077.fits
2018-04-20T17:54:43.253 665712_101.fits
2018-04-20T17:54:43.253 665731_101.fits
2018-04-20T17:55:03.255 665814_016.fits
2018-04-20T17:55:11.074 665825_032.fits
2018-04-20T17:55:15.357 665824_038.fits
2018-04-20T17:56:07.399 665915_018.fits
2018-04-20T17:56:07.399 665915_019.fits
2018-04-20T17:56:07.399 665924_018.fits
2018-04-20T17:56:07.399 665924_019.fits
2018-04-20T17:56:07.399 665925_019.fits
2018-04-20T17:56:07.399 665933_019.fits
2018-04-20T17:56:07.399 665934_019.fits
2018-04-20T17:56:07.399 665942_019.fits
2018-04-20T17:56:18.294 665912_039.fits
2018-04-20T17:56:18.294 665922_039.fits
2018-04-20T17:57:13.375 666014_025.fits
2018-04-20T17:57:13.375 666015_025.fits
2018-04-20T17:57:31.443 666012_060.fits
2018-04-20T17:57:31.443 666021_060.fits
2018-04-20T17:57:31.443 666031_061.fits
2018-04-20T17:57:48.188 666023_095.fits
2018-04-20T17:57:48.188 666044_095.fits
2018-04-20T17:57:49.342 666023_095.fits
2018-04-20T17:57:49.342 666044_095.fits
2018-04-20T17:58:13.169 666111_017.fits
2018-04-20T17:58:13.169 666123_017.fits
2018-04-20T17:58:13.169 666123_018.fits
2018-04-20T17:58:13.169 666123_019.fits
2018-04-20T17:59:26.287 666211_013.fits
2018-04-20T18:01:26.416 666413_002.fits
2018-04-20T18:01:26.416 666413_003.fits
2018-04-20T18:01:26.416 666413_004.fits
2018-04-20T18:01:26.416 666444_004.fits
2018-04-20T18:01:27.986 666413_005.fits
2018-04-20T18:01:27.986 666413_006.fits
2018-04-20T18:01:27.986 666413_007.fits
2018-04-20T18:01:27.986 666415_005.fits
2018-04-20T18:02:05.622 666413_080.fits
2018-04-20T18:02:05.622 666413_081.fits
2018-04-20T18:02:05.622 666413_082.fits
2018-04-20T18:02:05.622 666415_081.fits
2018-04-20T18:02:05.622 666442_081.fits
2018-04-20T18:02:21.450 666413_112.fits
2018-04-20T18:02:21.450 666424_112.fits
2018-04-20T18:02:21.450 666425_114.fits
2018-04-20T18:02:37.893 666512_021.fits
2018-04-20T18:02:38.501 666512_021.fits
2018-04-20T18:02:38.501 666522_022.fits
2018-04-20T18:02:38.501 666532_022.fits
2018-04-20T18:02:38.501 666542_022.fits
2018-04-20T18:02:54.990 666526_055.fits
2018-04-20T18:03:12.147 666526_087.fits
2018-04-20T18:04:20.316 666624_100.fits
2018-04-20T18:04:23.511 666624_104.fits
2018-04-20T18:04:24.444 666612_107.fits
2018-04-20T18:04:24.444 666623_108.fits
2018-04-20T18:04:42.034 666711_017.fits
2018-04-20T18:04:42.034 666713_018.fits
2018-04-20T18:04:42.034 666724_018.fits
2018-04-20T18:04:42.034 666725_018.fits
2018-04-20T18:04:42.927 666711_017.fits
2018-04-20T18:04:42.927 666713_018.fits
2018-04-20T18:04:42.927 666724_018.fits
2018-04-20T18:04:42.927 666724_019.fits
2018-04-20T18:04:42.927 666725_018.fits
2018-04-20T18:04:55.578 666732_044.fits
2018-04-20T18:05:12.417 666712_078.fits
2018-04-20T18:05:12.417 666713_077.fits
2018-04-20T18:06:05.959 666812_030.fits
2018-04-20T18:07:03.454 666912_019.fits
2018-04-20T18:07:03.454 666923_020.fits
2018-04-20T18:07:18.543 666915_050.fits
2018-04-20T18:07:18.543 666916_050.fits
2018-04-20T18:07:18.543 666942_048.fits
2018-04-20T18:07:18.995 666915_050.fits
2018-04-20T18:07:18.995 666916_050.fits
2018-04-20T18:07:32.330 666911_076.fits
2018-04-20T18:07:32.330 666914_077.fits
2018-04-20T18:07:32.330 666916_077.fits
2018-04-20T18:07:32.330 666941_077.fits
2018-04-20T18:07:51.103 666925_114.fits
2018-04-20T18:07:51.103 666934_115.fits
2018-04-20T18:07:51.103 666942_115.fits
2018-04-20T18:08:00.276 667044_006.fits
2018-04-20T18:09:06.161 667132_014.fits
2018-04-20T18:29:37.157 669013_003.fits
2018-04-20T18:29:37.157 669022_004.fits
2018-04-20T18:29:59.415 669014_048.fits
2018-04-20T18:30:02.878 669022_055.fits
2018-04-20T18:30:02.878 669022_056.fits
2018-04-20T18:30:02.878 669032_056.fits
2018-04-20T18:30:03.165 669022_055.fits
2018-04-20T18:30:03.165 669022_056.fits
2018-04-20T18:30:03.165 669032_056.fits
2018-04-20T18:30:34.393 669013_117.fits
2018-04-20T18:30:34.393 669033_119.fits
2018-04-20T18:30:34.393 669041_118.fits
2018-04-20T18:40:50.060 670043_041.fits
2018-04-20T18:40:53.301 670016_048.fits
2018-04-20T18:40:53.301 670031_046.fits
2018-04-20T18:40:53.301 670031_047.fits
2018-04-20T18:40:53.301 670031_048.fits
2018-04-20T18:41:09.357 670013_079.fits
2018-04-20T18:41:09.357 670022_079.fits
2018-04-20T18:41:09.357 670043_080.fits
2018-04-20T18:41:09.357 670044_080.fits
2018-04-20T18:41:10.318 670043_080.fits
2018-04-20T18:41:10.318 670043_081.fits
2018-04-20T18:41:10.318 670044_080.fits
2018-04-20T18:41:10.318 670044_081.fits
2018-04-20T18:41:10.318 670044_082.fits
2018-04-20T18:41:13.915 670044_087.fits
2018-04-20T18:41:13.915 670044_088.fits
2018-04-20T18:41:13.915 670044_089.fits
2018-04-20T18:41:46.466 670141_028.fits
2018-04-20T18:42:00.522 670141_057.fits
2018-04-20T18:42:28.022 670141_110.fits
2018-04-20T18:42:30.021 670113_115.fits
2018-04-20T18:42:30.021 670123_115.fits
2018-04-20T18:42:30.021 670133_115.fits
2018-04-20T18:42:30.021 670143_115.fits
2018-04-20T18:42:55.883 670233_041.fits
2018-04-20T18:42:55.883 670242_042.fits
2018-04-20T18:42:57.836 670243_043.fits
2018-04-20T18:43:01.025 670212_051.fits
2018-04-20T18:43:01.025 670221_051.fits
2018-04-20T18:43:01.025 670231_051.fits
2018-04-20T18:43:07.655 670212_065.fits
2018-04-20T18:43:07.655 670221_065.fits
2018-04-20T18:43:07.655 670223_064.fits
2018-04-20T18:43:07.655 670233_065.fits
2018-04-20T18:43:07.655 670243_065.fits
2018-04-20T18:43:07.655 670244_063.fits
2018-04-20T18:43:12.653 670241_074.fits
2018-04-20T18:43:31.205 670214_111.fits
2018-04-20T18:43:31.205 670224_112.fits
2018-04-20T18:43:31.205 670233_110.fits
2018-04-20T18:43:57.796 670344_038.fits
2018-04-20T18:44:18.111 670312_079.fits
2018-04-20T18:44:18.111 670325_079.fits
2018-04-20T18:44:30.681 670324_103.fits
2018-04-20T18:44:34.662 670323_112.fits
2018-04-20T18:44:35.754 670315_115.fits
2018-04-20T18:44:35.754 670321_114.fits
2018-04-20T18:44:55.267 670423_006.fits
2018-04-20T18:44:55.267 670424_006.fits
2018-04-20T18:44:57.148 670425_008.fits
2018-04-20T18:45:26.461 670434_068.fits
2018-04-20T18:45:46.900 670412_109.fits
2018-04-20T18:45:46.900 670422_108.fits
2018-04-20T18:46:20.621 670512_050.fits
2018-04-20T18:46:20.621 670512_051.fits
2018-04-20T18:46:20.621 670513_050.fits
2018-04-20T18:46:20.621 670521_050.fits
2018-04-20T18:46:20.621 670521_051.fits
2018-04-20T18:46:20.621 670534_050.fits
2018-04-20T18:46:27.076 670521_064.fits
2018-04-20T18:46:46.754 670512_103.fits
2018-04-20T18:46:46.754 670522_103.fits
2018-04-20T18:46:46.754 670524_101.fits
2018-04-20T18:46:46.754 670525_102.fits
2018-04-20T18:46:46.754 670532_103.fits
2018-04-20T18:47:32.515 670616_068.fits
2018-04-20T18:47:46.783 670616_097.fits
2018-04-20T18:48:17.359 670741_031.fits
2018-04-20T18:48:31.867 670726_062.fits
2018-04-20T18:48:37.763 670714_072.fits
2018-04-20T18:48:37.763 670724_073.fits
2018-04-20T18:48:37.763 670734_073.fits
2018-04-20T18:48:37.763 670741_072.fits
2018-04-20T18:48:49.638 670716_096.fits
2018-04-20T18:48:56.034 670724_109.fits
2018-04-20T18:48:56.034 670741_109.fits
2018-04-20T18:49:48.856 670815_088.fits
2018-04-20T18:49:48.856 670815_089.fits
2018-04-20T18:49:48.856 670815_090.fits
2018-04-20T18:49:50.597 670812_093.fits
2018-04-20T18:49:50.597 670815_092.fits
2018-04-20T18:49:50.597 670815_093.fits
2018-04-20T18:49:50.597 670815_094.fits
2018-04-20T18:49:50.597 670823_093.fits
2018-04-20T18:49:58.047 670815_107.fits
2018-04-20T18:49:58.047 670815_108.fits
2018-04-20T18:49:58.047 670815_109.fits
2018-04-20T18:49:58.047 670843_109.fits
2018-04-20T18:50:34.938 670913_054.fits
2018-04-20T18:50:34.938 670913_055.fits
2018-04-20T18:50:34.938 670914_054.fits
2018-04-20T18:50:34.938 670941_053.fits
2018-04-20T18:50:56.435 670944_097.fits
2018-04-20T18:50:58.248 670911_101.fits
2018-04-20T18:50:58.248 670911_102.fits
2018-04-20T18:50:58.463 670911_101.fits
2018-04-20T18:50:58.463 670911_102.fits
2018-04-20T18:51:40.564 671033_033.fits
2018-04-20T18:51:40.564 671041_034.fits
2018-04-20T18:51:40.564 671044_033.fits
2018-04-20T18:51:48.617 671034_050.fits
2018-04-20T18:51:48.617 671044_051.fits
2018-04-20T18:51:58.317 671015_068.fits
2018-04-20T18:51:58.317 671015_070.fits
2018-04-20T18:52:11.405 671022_094.fits
2018-04-20T18:52:11.405 671022_095.fits
2018-04-20T18:52:11.405 671031_095.fits
2018-04-20T18:52:11.405 671031_096.fits
2018-04-20T18:52:31.442 671143_009.fits
2018-04-20T18:52:31.611 671143_009.fits
2018-04-20T18:53:14.373 671116_095.fits
2018-04-20T18:53:14.373 671122_095.fits
2018-04-20T18:53:22.969 671125_114.fits
2018-04-20T18:53:22.969 671134_114.fits
2018-04-20T18:54:21.369 671232_105.fits
2018-04-20T18:54:55.705 671316_047.fits
2018-04-20T18:54:55.705 671344_046.fits
2018-04-20T18:55:16.743 671316_089.fits
2018-04-20T18:55:40.349 671431_011.fits
2018-04-20T18:56:19.255 671415_087.fits
2018-04-20T18:56:19.255 671416_089.fits
2018-04-20T18:56:29.199 671424_109.fits
2018-04-20T18:57:11.234 671512_066.fits
2018-04-20T18:57:11.234 671514_066.fits
2018-04-20T18:57:11.234 671521_067.fits
2018-04-20T18:57:11.234 671524_067.fits
2018-04-20T18:58:12.227 671613_037.fits
2018-04-20T18:58:14.199 671623_041.fits
2018-04-20T18:58:14.199 671633_041.fits
2018-04-20T18:58:14.199 671643_041.fits
2018-04-20T18:58:14.414 671623_041.fits
2018-04-20T18:58:14.414 671633_041.fits
2018-04-20T18:58:14.414 671643_041.fits
2018-04-20T18:58:31.006 671613_074.fits
2018-04-20T18:58:31.006 671624_075.fits
2018-04-20T18:58:31.006 671634_073.fits
2018-04-20T18:58:51.570 671614_114.fits
2018-04-20T18:58:51.570 671614_115.fits
2018-04-20T18:58:51.570 671625_114.fits
2018-04-20T18:59:07.173 671713_021.fits
2018-04-20T18:59:55.334 671714_117.fits
2018-04-20T19:01:23.668 671915_043.fits
2018-04-20T19:01:23.668 671921_043.fits
2018-04-20T19:01:23.668 671931_043.fits
2018-04-20T19:01:23.668 671941_043.fits
2018-04-20T19:01:23.668 671943_043.fits
2018-04-20T19:01:34.775 671932_066.fits
2018-04-20T19:01:34.775 671942_064.fits
2018-04-20T19:01:34.775 671943_064.fits
2018-04-20T19:01:34.775 671943_066.fits
2018-04-20T19:01:44.828 671943_084.fits
2018-04-20T19:01:44.828 671944_084.fits
2018-04-20T19:01:44.828 671944_085.fits
2018-04-20T19:01:44.828 671944_086.fits
2018-04-20T19:01:45.498 671944_085.fits
2018-04-20T19:01:45.498 671944_086.fits
2018-04-20T19:01:45.498 671944_087.fits
2018-04-20T19:01:57.105 671922_110.fits
2018-04-20T19:01:57.105 671932_109.fits
2018-04-20T19:01:57.105 671942_110.fits
2018-04-20T19:01:57.105 671943_109.fits
2018-04-20T19:02:32.351 672042_053.fits
2018-04-20T19:02:32.351 672042_054.fits
2018-04-20T19:02:32.351 672042_055.fits
2018-04-20T19:02:35.350 672043_060.fits
2018-04-20T19:02:54.747 672042_098.fits
2018-04-20T19:02:54.747 672044_100.fits
2018-04-20T19:03:12.468 672112_008.fits
2018-04-20T19:03:12.468 672112_009.fits
2018-04-20T19:03:20.733 672113_026.fits
2018-04-20T19:03:20.733 672142_026.fits
2018-04-20T19:03:21.329 672113_026.fits
2018-04-20T19:03:21.329 672142_026.fits
2018-04-20T19:03:54.167 672114_091.fits
2018-04-20T19:03:56.220 672121_095.fits
2018-04-20T19:04:49.628 672223_051.fits
2018-04-20T19:05:09.908 672216_090.fits
2018-04-20T19:05:09.908 672221_091.fits
2018-04-20T19:05:11.568 672221_094.fits
2018-04-20T19:05:11.568 672232_094.fits
2018-04-20T19:05:11.568 672232_095.fits
2018-04-20T19:05:37.804 672342_022.fits
2018-04-20T19:06:00.761 672342_066.fits
2018-04-20T19:06:00.761 672342_067.fits
2018-04-20T19:06:13.382 672342_092.fits
2018-04-20T19:06:13.382 672342_093.fits
2018-04-20T19:06:38.601 672411_017.fits
2018-04-20T19:06:38.601 672414_017.fits
2018-04-20T19:06:38.601 672414_018.fits
2018-04-20T19:06:38.601 672442_018.fits
2018-04-20T19:07:12.749 672414_086.fits
2018-04-20T19:07:20.923 672442_102.fits
2018-04-20T19:07:54.076 672522_042.fits
2018-04-20T19:08:06.251 672523_066.fits
2018-04-20T19:08:39.185 672644_007.fits
2018-04-20T19:09:49.410 672725_021.fits
2018-04-20T19:10:01.872 672744_046.fits
2018-04-20T19:10:19.918 672741_081.fits
2018-04-20T19:10:19.918 672741_082.fits
2018-04-20T19:10:19.918 672741_083.fits
2018-04-20T19:11:13.719 672826_039.fits
2018-04-20T19:11:29.207 672811_069.fits
2018-04-20T19:11:29.207 672812_070.fits
2018-04-20T19:11:29.207 672813_070.fits
2018-04-20T19:11:29.207 672813_071.fits
2018-04-20T19:11:29.207 672814_071.fits
2018-04-20T19:11:50.242 672843_112.fits
2018-04-20T19:11:50.242 672843_113.fits
2018-04-20T19:11:52.466 672843_116.fits
2018-04-20T19:11:52.466 672843_117.fits
2018-04-20T19:12:38.006 672942_083.fits
2018-04-20T19:12:38.006 672943_083.fits
2018-04-20T19:12:38.006 672944_083.fits
2018-04-20T19:13:15.312 673042_030.fits
2018-04-20T19:13:15.312 673042_031.fits
2018-04-20T19:13:15.312 673042_032.fits
2018-04-20T19:13:18.691 673042_037.fits
2018-04-20T19:13:18.691 673042_038.fits
2018-04-20T19:13:18.691 673042_039.fits
2018-04-20T19:13:24.235 673042_048.fits
2018-04-20T19:13:24.235 673042_049.fits
2018-04-20T19:13:24.235 673042_050.fits
2018-04-20T19:13:41.289 673042_082.fits
2018-04-20T19:13:41.289 673042_084.fits
2018-04-20T19:13:41.289 673044_082.fits
2018-04-20T19:14:52.933 673121_099.fits
2018-04-20T19:14:52.933 673121_100.fits
2018-04-20T19:14:52.933 673121_101.fits
2018-04-20T19:14:52.933 673141_100.fits
2018-04-20T19:14:52.933 673141_101.fits
2018-04-20T19:14:54.390 673121_104.fits
2018-04-20T19:14:54.390 673141_102.fits
2018-04-20T19:15:19.675 673221_027.fits
2018-04-20T19:15:19.675 673221_028.fits
2018-04-20T19:15:19.675 673242_028.fits
2018-04-20T19:16:37.784 673311_060.fits
2018-04-20T19:16:58.385 673311_100.fits
2018-04-20T19:17:48.689 673421_049.fits
2018-04-20T19:17:48.689 673421_051.fits
2018-04-20T19:17:49.744 673421_051.fits
2018-04-20T19:18:22.098 673421_116.fits
2018-04-20T19:18:22.098 673421_117.fits
2018-04-20T19:18:22.098 673421_118.fits
2018-04-20T19:19:13.063 673531_094.fits
2018-04-20T19:19:13.063 673541_094.fits
2018-04-20T19:19:41.187 673612_023.fits
2018-04-20T19:21:02.834 673712_061.fits
2018-04-20T19:23:02.212 673911_048.fits
2018-04-20T19:23:02.212 673915_047.fits
2018-04-20T19:23:02.212 673915_048.fits
2018-04-20T19:23:02.212 673921_048.fits
2018-04-20T19:23:02.212 673923_048.fits
2018-04-20T19:23:02.212 673924_047.fits
2018-04-20T19:23:02.212 673924_048.fits
2018-04-20T19:23:02.212 673933_048.fits
